sim/layer5/tb_peripherals.vcd
$date
	Sun Dec  7 17:18:49 2025
$end
$version
	Icarus Verilog
$end
$timescale
	1ps
$end
$scope module tb_peripherals $end
$var wire 1 ! disk_ready $end
$var wire 32 " ram_rdata [31:0] $end
$var wire 1 # ram_ready $end
$var wire 32 $ rom_rdata [31:0] $end
$var wire 1 % rom_ready $end
$var wire 1 & sigtap_ready $end
$var wire 1 ' sysctrl_ready $end
$var wire 1 ( usb_ready $end
$var wire 1 ) usb_write $end
$var wire 32 * usb_wdata [31:0] $end
$var wire 1 + usb_read $end
$var wire 32 , usb_rdata [31:0] $end
$var wire 1 - usb_connected $end
$var wire 1 . usb_configured $end
$var wire 8 / usb_addr [7:0] $end
$var wire 1 0 tdo $end
$var wire 1 1 tap_tdo $end
$var wire 1 2 sysctrl_write $end
$var wire 32 3 sysctrl_wdata [31:0] $end
$var wire 1 4 sysctrl_read $end
$var wire 32 5 sysctrl_rdata [31:0] $end
$var wire 8 6 sysctrl_addr [7:0] $end
$var wire 1 7 step $end
$var wire 1 8 sigtap_write $end
$var wire 32 9 sigtap_wdata [31:0] $end
$var wire 1 : sigtap_read $end
$var wire 32 ; sigtap_rdata [31:0] $end
$var wire 8 < sigtap_addr [7:0] $end
$var wire 1 = sb_write $end
$var wire 32 > sb_wdata [31:0] $end
$var wire 3 ? sb_size [2:0] $end
$var wire 1 @ sb_read $end
$var wire 32 A sb_rdata [31:0] $end
$var wire 1 B sb_error $end
$var wire 1 C sb_busy $end
$var wire 32 D sb_addr [31:0] $end
$var wire 1 E rom_read $end
$var wire 16 F rom_addr [15:0] $end
$var wire 1 G ram_write $end
$var wire 32 H ram_wdata [31:0] $end
$var wire 1 I ram_read $end
$var wire 28 J ram_addr [27:0] $end
$var wire 1 K motor_on $end
$var wire 5 L ir_value [4:0] $end
$var wire 1 M head_sel $end
$var wire 1 N dtm_tdo $end
$var wire 1 O dr_update $end
$var wire 1 P dr_shift $end
$var wire 1 Q dr_capture $end
$var wire 32 R dmi_wdata [31:0] $end
$var wire 2 S dmi_resp [1:0] $end
$var wire 1 T dmi_req $end
$var wire 32 U dmi_rdata [31:0] $end
$var wire 2 V dmi_op [1:0] $end
$var wire 7 W dmi_addr [6:0] $end
$var wire 1 X dmi_ack $end
$var wire 1 Y dma_write $end
$var wire 32 Z dma_wdata [31:0] $end
$var wire 32 [ dma_addr [31:0] $end
$var wire 1 \ disk_write $end
$var wire 32 ] disk_wdata [31:0] $end
$var wire 1 ^ disk_read $end
$var wire 32 _ disk_rdata [31:0] $end
$var wire 8 ` disk_addr [7:0] $end
$var wire 1 a dir $end
$var parameter 32 b CLK_PERIOD $end
$var parameter 5 c JTAG_BYPASS $end
$var parameter 5 d JTAG_CAPS $end
$var parameter 5 e JTAG_DMI $end
$var parameter 5 f JTAG_DTMCS $end
$var parameter 5 g JTAG_IDCODE $end
$var parameter 5 h JTAG_MEM_READ $end
$var parameter 5 i JTAG_MEM_WRITE $end
$var parameter 5 j JTAG_SIG_TAP $end
$var parameter 5 k JTAG_STATUS $end
$var parameter 32 l TCK_PERIOD $end
$var reg 32 m captured_data [31:0] $end
$var reg 1 n clk $end
$var reg 1 o flux_in $end
$var reg 1 p index_in $end
$var reg 32 q probes [31:0] $end
$var reg 32 r ram_rdata_reg [31:0] $end
$var reg 32 s rom_rdata_reg [31:0] $end
$var reg 1 t rst_n $end
$var reg 32 u sysctrl_id [31:0] $end
$var reg 1 v tck $end
$var reg 1 w tdi $end
$var reg 1 x tms $end
$var reg 1 y trst_n $end
$var integer 32 z errors [31:0] $end
$var integer 32 { i [31:0] $end
$var integer 32 | pass_count [31:0] $end
$var integer 32 } test_num [31:0] $end
$scope module bus $end
$var wire 1 n clk $end
$var wire 1 C m_busy $end
$var wire 1 B m_error $end
$var wire 32 ~ m_rdata [31:0] $end
$var wire 1 t rst_n $end
$var wire 32 !" s0_rdata [31:0] $end
$var wire 1 E s0_read $end
$var wire 1 % s0_ready $end
$var wire 32 "" s1_rdata [31:0] $end
$var wire 1 I s1_read $end
$var wire 1 # s1_ready $end
$var wire 32 #" s1_wdata [31:0] $end
$var wire 1 G s1_write $end
$var wire 32 $" s2_rdata [31:0] $end
$var wire 1 4 s2_read $end
$var wire 1 ' s2_ready $end
$var wire 32 %" s2_wdata [31:0] $end
$var wire 1 2 s2_write $end
$var wire 1 ^ s3_read $end
$var wire 1 ! s3_ready $end
$var wire 32 &" s3_wdata [31:0] $end
$var wire 1 \ s3_write $end
$var wire 1 + s4_read $end
$var wire 1 ( s4_ready $end
$var wire 32 '" s4_wdata [31:0] $end
$var wire 1 ) s4_write $end
$var wire 1 : s5_read $end
$var wire 1 & s5_ready $end
$var wire 32 (" s5_wdata [31:0] $end
$var wire 1 8 s5_write $end
$var wire 32 )" s5_rdata [31:0] $end
$var wire 8 *" s5_addr [7:0] $end
$var wire 32 +" s4_rdata [31:0] $end
$var wire 8 ," s4_addr [7:0] $end
$var wire 32 -" s3_rdata [31:0] $end
$var wire 8 ." s3_addr [7:0] $end
$var wire 8 /" s2_addr [7:0] $end
$var wire 28 0" s1_addr [27:0] $end
$var wire 16 1" s0_addr [15:0] $end
$var wire 1 = m_write $end
$var wire 32 2" m_wdata [31:0] $end
$var wire 3 3" m_size [2:0] $end
$var wire 1 @ m_read $end
$var wire 32 4" m_addr [31:0] $end
$var parameter 4 5" SEL_DISK $end
$var parameter 4 6" SEL_NONE $end
$var parameter 4 7" SEL_RAM $end
$var parameter 4 8" SEL_ROM $end
$var parameter 4 9" SEL_SIGTAP $end
$var parameter 4 :" SEL_SYSCTRL $end
$var parameter 4 ;" SEL_USB $end
$var reg 32 <" rdata_mux [31:0] $end
$var reg 1 =" ready_mux $end
$var reg 4 >" slave_sel [3:0] $end
$upscope $end
$scope module dm $end
$var wire 1 n clk $end
$var wire 1 t rst_n $end
$var wire 1 C sbbusy $end
$var wire 32 ?" sbdata_i [31:0] $end
$var wire 1 B sberror $end
$var wire 32 @" dmi_wdata [31:0] $end
$var wire 1 T dmi_req $end
$var wire 2 A" dmi_op [1:0] $end
$var wire 7 B" dmi_addr [6:0] $end
$var parameter 7 C" DMI_ABSTRACTCS $end
$var parameter 7 D" DMI_DMCONTROL $end
$var parameter 7 E" DMI_DMSTATUS $end
$var parameter 7 F" DMI_HARTINFO $end
$var parameter 7 G" DMI_SBADDRESS0 $end
$var parameter 7 H" DMI_SBCS $end
$var parameter 7 I" DMI_SBDATA0 $end
$var parameter 2 J" SB_IDLE $end
$var parameter 2 K" SB_READ $end
$var parameter 2 L" SB_WAIT $end
$var parameter 2 M" SB_WRITE $end
$var reg 1 N" dmactive $end
$var reg 1 X dmi_ack $end
$var reg 32 O" dmi_rdata [31:0] $end
$var reg 2 P" dmi_resp [1:0] $end
$var reg 1 Q" haltreq $end
$var reg 1 R" ndmreset $end
$var reg 32 S" sb_rdata_latch [31:0] $end
$var reg 1 T" sb_read_pending $end
$var reg 2 U" sb_state [1:0] $end
$var reg 3 V" sbaccess [2:0] $end
$var reg 32 W" sbaddr [31:0] $end
$var reg 1 X" sbautoincrement $end
$var reg 32 Y" sbdata_o [31:0] $end
$var reg 3 Z" sberror_reg [2:0] $end
$var reg 1 @ sbread $end
$var reg 1 [" sbreadonaddr $end
$var reg 1 \" sbreadondata $end
$var reg 3 ]" sbsize [2:0] $end
$var reg 1 = sbwrite $end
$upscope $end
$scope module dtm $end
$var wire 1 X dmi_ack $end
$var wire 32 ^" dmi_rdata [31:0] $end
$var wire 2 _" dmi_resp [1:0] $end
$var wire 1 v tck $end
$var wire 1 w tdi $end
$var wire 1 y trst_n $end
$var wire 5 `" ir_value [4:0] $end
$var wire 1 O dr_update $end
$var wire 1 P dr_shift $end
$var wire 1 Q dr_capture $end
$var parameter 32 a" ABITS $end
$var parameter 32 b" IDLE_CYCLES $end
$var parameter 5 c" IR_DMI $end
$var parameter 5 d" IR_DTMCS $end
$var reg 7 e" dmi_addr [6:0] $end
$var reg 2 f" dmi_op [1:0] $end
$var reg 1 T dmi_req $end
$var reg 41 g" dmi_shift [40:0] $end
$var reg 2 h" dmi_status [1:0] $end
$var reg 32 i" dmi_wdata [31:0] $end
$var reg 32 j" dtmcs_shift [31:0] $end
$var reg 1 N tdo $end
$upscope $end
$scope module tap $end
$var wire 64 k" dr_capture_data [63:0] $end
$var wire 7 l" dr_length [6:0] $end
$var wire 1 m" dr_shift_in $end
$var wire 5 n" ir_value [4:0] $end
$var wire 1 v tck $end
$var wire 1 w tdi $end
$var wire 1 x tms $end
$var wire 1 y trst_n $end
$var wire 1 o" ir_update $end
$var wire 1 p" ir_shift $end
$var wire 1 q" ir_capture $end
$var wire 1 O dr_update $end
$var wire 1 r" dr_shift_out $end
$var wire 1 P dr_shift $end
$var wire 1 Q dr_capture $end
$var parameter 4 s" CAPTURE_DR $end
$var parameter 4 t" CAPTURE_IR $end
$var parameter 4 u" EXIT1_DR $end
$var parameter 4 v" EXIT1_IR $end
$var parameter 4 w" EXIT2_DR $end
$var parameter 4 x" EXIT2_IR $end
$var parameter 32 y" IDCODE $end
$var parameter 5 z" IR_BYPASS $end
$var parameter 5 {" IR_CAPS $end
$var parameter 5 |" IR_DMI $end
$var parameter 5 }" IR_DTMCS $end
$var parameter 5 ~" IR_IDCODE $end
$var parameter 32 !# IR_LENGTH $end
$var parameter 5 "# IR_MEM_READ $end
$var parameter 5 ## IR_MEM_WRITE $end
$var parameter 5 $# IR_SIG_TAP $end
$var parameter 5 %# IR_STATUS $end
$var parameter 5 &# IR_TRACE_CTL $end
$var parameter 5 '# IR_TRACE_DAT $end
$var parameter 4 (# PAUSE_DR $end
$var parameter 4 )# PAUSE_IR $end
$var parameter 4 *# RUN_TEST_IDLE $end
$var parameter 4 +# SELECT_DR_SCAN $end
$var parameter 4 ,# SELECT_IR_SCAN $end
$var parameter 4 -# SHIFT_DR $end
$var parameter 4 .# SHIFT_IR $end
$var parameter 4 /# TEST_LOGIC_RESET $end
$var parameter 4 0# UPDATE_DR $end
$var parameter 4 1# UPDATE_IR $end
$var reg 1 2# bypass_reg $end
$var reg 7 3# current_dr_length [6:0] $end
$var reg 64 4# dr_shift_reg [63:0] $end
$var reg 5 5# ir_hold_reg [4:0] $end
$var reg 5 6# ir_shift_reg [4:0] $end
$var reg 4 7# next_state [3:0] $end
$var reg 4 8# state [3:0] $end
$var reg 1 1 tdo $end
$upscope $end
$scope module u_disk $end
$var wire 8 9# addr [7:0] $end
$var wire 1 n clk $end
$var wire 1 :# dma_ready $end
$var wire 1 o flux_in $end
$var wire 1 p index_in $end
$var wire 1 ^ read $end
$var wire 1 ! ready $end
$var wire 1 t rst_n $end
$var wire 32 ;# wdata [31:0] $end
$var wire 1 \ write $end
$var parameter 8 <# REG_CONTROL $end
$var parameter 8 =# REG_DMA_ADDR $end
$var parameter 8 ># REG_DMA_LEN $end
$var parameter 8 ?# REG_FLUX_CNT $end
$var parameter 8 @# REG_INDEX_CNT $end
$var parameter 8 A# REG_RPM $end
$var parameter 8 B# REG_STATUS $end
$var reg 1 C# capturing $end
$var reg 32 D# control_reg [31:0] $end
$var reg 1 a dir $end
$var reg 32 E# dma_addr [31:0] $end
$var reg 32 F# dma_base [31:0] $end
$var reg 1 G# dma_busy $end
$var reg 32 H# dma_len [31:0] $end
$var reg 32 I# dma_offset [31:0] $end
$var reg 32 J# dma_wdata [31:0] $end
$var reg 1 Y dma_write $end
$var reg 32 K# flux_counter [31:0] $end
$var reg 1 L# flux_prev $end
$var reg 4 M# flux_rd_ptr [3:0] $end
$var reg 32 N# flux_timer [31:0] $end
$var reg 4 O# flux_wr_ptr [3:0] $end
$var reg 1 M head_sel $end
$var reg 32 P# index_counter [31:0] $end
$var reg 1 Q# index_prev $end
$var reg 1 R# index_sticky $end
$var reg 32 S# last_rpm_timer [31:0] $end
$var reg 1 K motor_on $end
$var reg 1 T# overflow $end
$var reg 32 U# rdata [31:0] $end
$var reg 32 V# rpm_timer [31:0] $end
$var reg 32 W# rpm_value [31:0] $end
$var reg 1 7 step $end
$upscope $end
$scope module u_sigtap $end
$var wire 8 X# addr [7:0] $end
$var wire 1 n clk $end
$var wire 32 Y# probes [31:0] $end
$var wire 1 : read $end
$var wire 1 & ready $end
$var wire 1 t rst_n $end
$var wire 32 Z# wdata [31:0] $end
$var wire 1 8 write $end
$var wire 1 [# trigger_match $end
$var parameter 32 \# BUFFER_DEPTH $end
$var parameter 32 ]# PROBE_WIDTH $end
$var parameter 8 ^# REG_BUF_ADDR $end
$var parameter 8 _# REG_BUF_DATA $end
$var parameter 8 `# REG_CONTROL $end
$var parameter 8 a# REG_DEPTH $end
$var parameter 8 b# REG_ID $end
$var parameter 8 c# REG_POSITION $end
$var parameter 8 d# REG_PROBE_SEL $end
$var parameter 8 e# REG_STATUS $end
$var parameter 8 f# REG_TRIGGER $end
$var parameter 8 g# REG_TRIG_MASK $end
$var parameter 2 h# ST_ARMED $end
$var parameter 2 i# ST_CAPTURING $end
$var parameter 2 j# ST_DONE $end
$var parameter 2 k# ST_IDLE $end
$var reg 32 l# buf_addr [31:0] $end
$var reg 32 m# capture_depth [31:0] $end
$var reg 32 n# control_reg [31:0] $end
$var reg 32 o# probe_sel [31:0] $end
$var reg 32 p# rdata [31:0] $end
$var reg 32 q# samples_after_trig [31:0] $end
$var reg 2 r# state [1:0] $end
$var reg 32 s# trigger_mask [31:0] $end
$var reg 6 t# trigger_pos [5:0] $end
$var reg 32 u# trigger_val [31:0] $end
$var reg 1 v# triggered $end
$var reg 6 w# wr_ptr [5:0] $end
$var integer 32 x# i [31:0] $end
$upscope $end
$scope module u_usb $end
$var wire 8 y# addr [7:0] $end
$var wire 1 n clk $end
$var wire 1 + read $end
$var wire 1 ( ready $end
$var wire 1 t rst_n $end
$var wire 1 . usb_configured $end
$var wire 1 - usb_connected $end
$var wire 32 z# wdata [31:0] $end
$var wire 1 ) write $end
$var parameter 8 {# REG_CONTROL $end
$var parameter 8 |# REG_EP0 $end
$var parameter 8 }# REG_ID $end
$var parameter 8 ~# REG_STATUS $end
$var reg 1 !$ configured $end
$var reg 1 "$ connected $end
$var reg 32 #$ control_reg [31:0] $end
$var reg 32 $$ ep0_data [31:0] $end
$var reg 32 %$ rdata [31:0] $end
$upscope $end
$scope task dmi_read $end
$var reg 7 &$ addr [6:0] $end
$var reg 32 '$ data [31:0] $end
$var reg 41 ($ dmi_in [40:0] $end
$var reg 41 )$ dmi_out [40:0] $end
$upscope $end
$scope task dmi_reg_read $end
$var reg 7 *$ addr [6:0] $end
$var reg 32 +$ data [31:0] $end
$var reg 41 ,$ dmi_in [40:0] $end
$var reg 41 -$ dmi_out [40:0] $end
$upscope $end
$scope task dmi_reg_write $end
$var reg 7 .$ addr [6:0] $end
$var reg 32 /$ data [31:0] $end
$var reg 41 0$ dmi_in [40:0] $end
$var reg 41 1$ dmi_out [40:0] $end
$upscope $end
$scope task dmi_write $end
$var reg 7 2$ addr [6:0] $end
$var reg 32 3$ data [31:0] $end
$var reg 41 4$ dmi_in [40:0] $end
$var reg 41 5$ dmi_out [40:0] $end
$upscope $end
$scope task goto_shift_dr $end
$upscope $end
$scope task goto_shift_ir $end
$upscope $end
$scope task jtag_clock $end
$var reg 1 6$ tms_val $end
$upscope $end
$scope task jtag_mem_read $end
$var reg 32 7$ addr [31:0] $end
$var reg 32 8$ data [31:0] $end
$upscope $end
$scope task jtag_mem_write $end
$var reg 32 9$ addr [31:0] $end
$var reg 32 :$ data [31:0] $end
$upscope $end
$scope task jtag_reset $end
$upscope $end
$scope task mem_read $end
$var reg 32 ;$ addr [31:0] $end
$var reg 32 <$ data [31:0] $end
$upscope $end
$scope task mem_write $end
$var reg 32 =$ addr [31:0] $end
$var reg 32 >$ data [31:0] $end
$upscope $end
$scope task read_idcode $end
$var reg 32 ?$ idcode [31:0] $end
$upscope $end
$scope task shift_dr_32 $end
$var reg 32 @$ data_in [31:0] $end
$var reg 32 A$ data_out [31:0] $end
$var integer 32 B$ i [31:0] $end
$upscope $end
$scope task shift_dr_41 $end
$var reg 41 C$ data_in [40:0] $end
$var reg 41 D$ data_out [40:0] $end
$var integer 32 E$ i [31:0] $end
$upscope $end
$scope task shift_dr_64 $end
$var reg 64 F$ data_in [63:0] $end
$var reg 64 G$ data_out [63:0] $end
$var integer 32 H$ i [31:0] $end
$upscope $end
$scope task shift_ir $end
$var reg 5 I$ ir_data [4:0] $end
$var integer 32 J$ i [31:0] $end
$upscope $end
$upscope $end
$enddefinitions $end
$comment Show the parameter values. $end
$dumpall
b100 ~#
b0 }#
b1100 |#
b1000 {#
b0 k#
b11 j#
b10 i#
b1 h#
b10000 g#
b1100 f#
b100 e#
b10100 d#
b100100 c#
b0 b#
b100000 a#
b1000 `#
b11100 _#
b11000 ^#
b100000 ]#
b1000000 \#
b0 B#
b10100 A#
b10000 @#
b11000 ?#
b1100 >#
b1000 =#
b100 <#
b1111 1#
b1000 0#
b0 /#
b1011 .#
b100 -#
b1001 ,#
b10 +#
b1 *#
b1101 )#
b110 (#
b110 '#
b101 &#
b111 %#
b100 $#
b11 ##
b10 "#
b101 !#
b1 ~"
b10000 }"
b10001 |"
b1000 {"
b11111 z"
b11111011000000010000000000000001 y"
b1110 x"
b111 w"
b1100 v"
b101 u"
b1010 t"
b11 s"
b10000 d"
b10001 c"
b1 b"
b111 a"
b10 M"
b11 L"
b1 K"
b0 J"
b111100 I"
b111000 H"
b111001 G"
b10010 F"
b10001 E"
b10000 D"
b10110 C"
b101 ;"
b11 :"
b110 9"
b1 8"
b10 7"
b0 6"
b100 5"
b1100100 l
b111 k
b100 j
b11 i
b10 h
b1 g
b10000 f
b10001 e
b1000 d
b11111 c
b1010 b
$end
#0
$dumpvars
bx J$
bx I$
bx H$
bx G$
bx F$
bx E$
bx D$
bx C$
bx B$
bx A$
bx @$
bx ?$
bx >$
bx =$
bx <$
bx ;$
bx :$
bx 9$
bx 8$
bx 7$
x6$
bx 5$
bx 4$
bx 3$
bx 2$
bx 1$
bx 0$
bx /$
bx .$
bx -$
bx ,$
bx +$
bx *$
bx )$
bx ($
bx '$
bx &$
b101101100100000000000000001 %$
b0 $$
b0 #$
0"$
0!$
b0 z#
b0 y#
b1000000 x#
b0 w#
0v#
b0 u#
b0 t#
b11111111111111111111111111111111 s#
b0 r#
b0 q#
b1010001011001110000000000000001 p#
b0 o#
b0 n#
b1000000 m#
b0 l#
1[#
b0 Z#
b0 Y#
b0 X#
b0 W#
b0 V#
b1 U#
0T#
b0 S#
0R#
0Q#
b0 P#
b0 O#
b0 N#
b0 M#
0L#
b0 K#
b0 J#
b0 I#
b0 H#
0G#
b0 F#
b0 E#
b0 D#
0C#
b0 ;#
1:#
b0 9#
b0 8#
b0 7#
b11111 6#
b1 5#
bx 4#
b100000 3#
x2#
xr"
0q"
0p"
0o"
b1 n"
zm"
b100000 l"
bz k"
b0 j"
b0 i"
b0 h"
b0 g"
b0 f"
b0 e"
b1 `"
b0 _"
b0 ^"
b10 ]"
0\"
0["
b0 Z"
b0 Y"
0X"
b0 W"
b10 V"
b0 U"
0T"
b0 S"
0R"
0Q"
b0 P"
b0 O"
0N"
b0 B"
b0 A"
b0 @"
bx ?"
b1 >"
1="
bx <"
b0 4"
b10 3"
b0 2"
b0 1"
b0 0"
b0 /"
b0 ."
b1 -"
b0 ,"
b101101100100000000000000001 +"
b0 *"
b1010001011001110000000000000001 )"
b0 ("
b0 '"
b0 &"
b0 %"
b11111011000000010000000100000000 $"
b0 #"
bx ""
bx !"
bx ~
b0 }
b0 |
b10000000000 {
b0 z
0y
1x
0w
0v
b11111011000000010000000100000000 u
0t
bx s
bx r
b0 q
0p
0o
0n
bx m
0a
b0 `
b1 _
0^
b0 ]
0\
b0 [
b0 Z
0Y
0X
b0 W
b0 V
b0 U
0T
b0 S
b0 R
0Q
0P
0O
0N
0M
b1 L
0K
b0 J
0I
b0 H
0G
b0 F
0E
b0 D
0C
0B
bx A
0@
b10 ?
b0 >
0=
b0 <
b1010001011001110000000000000001 ;
0:
b0 9
08
07
b0 6
b11111011000000010000000100000000 5
04
b0 3
02
01
00
b0 /
0.
0-
b101101100100000000000000001 ,
0+
b0 *
0)
1(
1'
1&
1%
bx $
1#
bx "
1!
$end
#5000
1n
#10000
0n
#15000
1n
#20000
0n
#25000
1n
#30000
0n
#35000
1n
#40000
0n
#45000
1n
#50000
0n
1t
1v
#55000
b1 N#
b1 V#
1n
#60000
0n
#65000
b10 V#
b10 N#
1n
#70000
0n
#75000
b11 N#
b11 V#
1n
#80000
0n
#85000
b100 V#
b100 N#
1n
#90000
0n
#95000
b101 N#
b101 V#
1n
#100000
0n
0v
#105000
b110 V#
b110 N#
1n
#110000
0n
#115000
b111 N#
b111 V#
1n
#120000
0n
#125000
b1000 V#
b1000 N#
1n
#130000
0n
#135000
b1001 N#
b1001 V#
1n
#140000
0n
#145000
b1010 V#
b1010 N#
1n
#150000
0n
1v
#155000
b1011 N#
b1011 V#
1n
#160000
0n
#165000
b1100 V#
b1100 N#
1n
#170000
0n
#175000
b1101 N#
b1101 V#
1n
#180000
0n
#185000
b1110 V#
b1110 N#
1n
#190000
0n
#195000
b1111 N#
b1111 V#
1n
#200000
0n
0v
#205000
b10000 V#
b10000 N#
1n
#210000
0n
#215000
b10001 N#
b10001 V#
1n
#220000
0n
#225000
b10010 V#
b10010 N#
1n
#230000
0n
#235000
b10011 N#
b10011 V#
1n
#240000
0n
#245000
b10100 V#
b10100 N#
1n
#250000
0n
1v
1y
#255000
b10101 N#
b10101 V#
1n
#260000
0n
#265000
b10110 V#
b10110 N#
1n
#270000
0n
#275000
b10111 N#
b10111 V#
1n
#280000
0n
#285000
b11000 V#
b11000 N#
1n
#290000
0n
#295000
b11001 N#
b11001 V#
1n
#300000
0n
0v
#305000
b11010 V#
b11010 N#
1n
#310000
0n
#315000
b11011 N#
b11011 V#
1n
#320000
0n
#325000
b11100 V#
b11100 N#
1n
#330000
0n
#335000
b11101 N#
b11101 V#
1n
#340000
0n
#345000
b11110 V#
b11110 N#
1n
#350000
0n
1v
#355000
b11111 N#
b11111 V#
1n
#360000
0n
#365000
b100000 V#
b100000 N#
1n
#370000
0n
#375000
b100001 N#
b100001 V#
1n
#380000
0n
#385000
b100010 V#
b100010 N#
1n
#390000
0n
#395000
b100011 N#
b100011 V#
1n
#400000
0n
0v
#405000
b100100 V#
b100100 N#
1n
#410000
0n
#415000
b100101 N#
b100101 V#
1n
#420000
0n
#425000
b100110 V#
b100110 N#
1n
#430000
0n
#435000
b100111 N#
b100111 V#
1n
#440000
0n
#445000
b101000 V#
b101000 N#
1n
#450000
0n
1v
16$
#455000
b101001 N#
b101001 V#
1n
#460000
0n
#465000
b101010 V#
b101010 N#
1n
#470000
0n
#475000
b101011 N#
b101011 V#
1n
#480000
0n
#485000
b101100 V#
b101100 N#
1n
#490000
0n
#495000
b101101 N#
b101101 V#
1n
#500000
0n
0v
#505000
b101110 V#
b101110 N#
1n
#510000
0n
#515000
b101111 N#
b101111 V#
1n
#520000
0n
#525000
b110000 V#
b110000 N#
1n
#530000
0n
#535000
b110001 N#
b110001 V#
1n
#540000
0n
#545000
b110010 V#
b110010 N#
1n
#550000
0n
1v
#555000
b110011 N#
b110011 V#
1n
#560000
0n
#565000
b110100 V#
b110100 N#
1n
#570000
0n
#575000
b110101 N#
b110101 V#
1n
#580000
0n
#585000
b110110 V#
b110110 N#
1n
#590000
0n
#595000
b110111 N#
b110111 V#
1n
#600000
0n
0v
#605000
b111000 V#
b111000 N#
1n
#610000
0n
#615000
b111001 N#
b111001 V#
1n
#620000
0n
#625000
b111010 V#
b111010 N#
1n
#630000
0n
#635000
b111011 N#
b111011 V#
1n
#640000
0n
#645000
b111100 V#
b111100 N#
1n
#650000
0n
1v
#655000
b111101 N#
b111101 V#
1n
#660000
0n
#665000
b111110 V#
b111110 N#
1n
#670000
0n
#675000
b111111 N#
b111111 V#
1n
#680000
0n
#685000
b1000000 V#
b1000000 N#
1n
#690000
0n
#695000
b1000001 N#
b1000001 V#
1n
#700000
0n
0v
#705000
b1000010 V#
b1000010 N#
1n
#710000
0n
#715000
b1000011 N#
b1000011 V#
1n
#720000
0n
#725000
b1000100 V#
b1000100 N#
1n
#730000
0n
#735000
b1000101 N#
b1000101 V#
1n
#740000
0n
#745000
b1000110 V#
b1000110 N#
1n
#750000
0n
1v
#755000
b1000111 N#
b1000111 V#
1n
#760000
0n
#765000
b1001000 V#
b1001000 N#
1n
#770000
0n
#775000
b1001001 N#
b1001001 V#
1n
#780000
0n
#785000
b1001010 V#
b1001010 N#
1n
#790000
0n
#795000
b1001011 N#
b1001011 V#
1n
#800000
0n
0v
#805000
b1001100 V#
b1001100 N#
1n
#810000
0n
#815000
b1001101 N#
b1001101 V#
1n
#820000
0n
#825000
b1001110 V#
b1001110 N#
1n
#830000
0n
#835000
b1001111 N#
b1001111 V#
1n
#840000
0n
#845000
b1010000 V#
b1010000 N#
1n
#850000
0n
1v
#855000
b1010001 N#
b1010001 V#
1n
#860000
0n
#865000
b1010010 V#
b1010010 N#
1n
#870000
0n
#875000
b1010011 N#
b1010011 V#
1n
#880000
0n
#885000
b1010100 V#
b1010100 N#
1n
#890000
0n
#895000
b1010101 N#
b1010101 V#
1n
#900000
0n
0v
#905000
b1010110 V#
b1010110 N#
1n
#910000
0n
#915000
b1010111 N#
b1010111 V#
1n
#920000
0n
#925000
b1011000 V#
b1011000 N#
1n
#930000
0n
#935000
b1011001 N#
b1011001 V#
1n
#940000
0n
#945000
b1011010 V#
b1011010 N#
1n
#950000
0n
1v
#951000
b1 7#
0x
06$
#955000
b1011011 N#
b1011011 V#
1n
#960000
0n
#965000
b1011100 V#
b1011100 N#
1n
#970000
0n
#975000
b1011101 N#
b1011101 V#
1n
#980000
0n
#985000
b1011110 V#
b1011110 N#
1n
#990000
0n
#995000
b1011111 N#
b1011111 V#
1n
#1000000
0n
0v
#1005000
b1100000 V#
b1100000 N#
1n
#1010000
0n
#1015000
b1100001 N#
b1100001 V#
1n
#1020000
0n
#1025000
b1100010 V#
b1100010 N#
1n
#1030000
0n
#1035000
b1100011 N#
b1100011 V#
1n
#1040000
0n
#1045000
b1100100 V#
b1100100 N#
1n
#1050000
b1 8#
0n
1v
#1051000
b10 7#
1x
16$
b10001 I$
b10000000100 /$
b111000 .$
b1000000000000010000000000000000 7$
b1 }
#1055000
b1100101 N#
b1100101 V#
1n
#1060000
0n
#1065000
b1100110 V#
b1100110 N#
1n
#1070000
0n
#1075000
b1100111 N#
b1100111 V#
1n
#1080000
0n
#1085000
b1101000 V#
b1101000 N#
1n
#1090000
0n
#1095000
b1101001 N#
b1101001 V#
1n
#1100000
0n
0v
#1105000
b1101010 V#
b1101010 N#
1n
#1110000
0n
#1115000
b1101011 N#
b1101011 V#
1n
#1120000
0n
#1125000
b1101100 V#
b1101100 N#
1n
#1130000
0n
#1135000
b1101101 N#
b1101101 V#
1n
#1140000
0n
#1145000
b1101110 V#
b1101110 N#
1n
#1150000
b1001 7#
b10 8#
0n
1v
#1155000
b1101111 N#
b1101111 V#
1n
#1160000
0n
#1165000
b1110000 V#
b1110000 N#
1n
#1170000
0n
#1175000
b1110001 N#
b1110001 V#
1n
#1180000
0n
#1185000
b1110010 V#
b1110010 N#
1n
#1190000
0n
#1195000
b1110011 N#
b1110011 V#
1n
#1200000
0n
0v
#1205000
b1110100 V#
b1110100 N#
1n
#1210000
0n
#1215000
b1110101 N#
b1110101 V#
1n
#1220000
0n
#1225000
b1110110 V#
b1110110 N#
1n
#1230000
0n
#1235000
b1110111 N#
b1110111 V#
1n
#1240000
0n
#1245000
b1111000 V#
b1111000 N#
1n
#1250000
b0 7#
b1001 8#
0n
1v
#1251000
b1010 7#
0x
06$
#1255000
b1111001 N#
b1111001 V#
1n
#1260000
0n
#1265000
b1111010 V#
b1111010 N#
1n
#1270000
0n
#1275000
b1111011 N#
b1111011 V#
1n
#1280000
0n
#1285000
b1111100 V#
b1111100 N#
1n
#1290000
0n
#1295000
b1111101 N#
b1111101 V#
1n
#1300000
0n
0v
#1305000
b1111110 V#
b1111110 N#
1n
#1310000
0n
#1315000
b1111111 N#
b1111111 V#
1n
#1320000
0n
#1325000
b10000000 V#
b10000000 N#
1n
#1330000
0n
#1335000
b10000001 N#
b10000001 V#
1n
#1340000
0n
#1345000
b10000010 V#
b10000010 N#
1n
#1350000
b1011 7#
1q"
b1010 8#
0n
1v
#1355000
b10000011 N#
b10000011 V#
1n
#1360000
0n
#1365000
b10000100 V#
b10000100 N#
1n
#1370000
0n
#1375000
b10000101 N#
b10000101 V#
1n
#1380000
0n
#1385000
b10000110 V#
b10000110 N#
1n
#1390000
0n
#1395000
b10000111 N#
b10000111 V#
1n
#1400000
0n
0v
#1405000
b10001000 V#
b10001000 N#
1n
#1410000
0n
#1415000
b10001001 N#
b10001001 V#
1n
#1420000
0n
#1425000
b10001010 V#
b10001010 N#
1n
#1430000
0n
#1435000
b10001011 N#
b10001011 V#
1n
#1440000
0n
#1445000
b10001100 V#
b10001100 N#
1n
#1450000
b1 6#
0q"
1p"
b1011 8#
0n
1v
#1451000
1w
b0 J$
#1455000
b10001101 N#
b10001101 V#
1n
#1460000
0n
#1465000
b10001110 V#
b10001110 N#
1n
#1470000
0n
#1475000
b10001111 N#
b10001111 V#
1n
#1480000
0n
#1485000
b10010000 V#
b10010000 N#
1n
#1490000
0n
#1495000
b10010001 N#
b10010001 V#
1n
#1500000
10
11
0n
0v
#1505000
b10010010 V#
b10010010 N#
1n
#1510000
0n
#1515000
b10010011 N#
b10010011 V#
1n
#1520000
0n
#1525000
b10010100 V#
b10010100 N#
1n
#1530000
0n
#1535000
b10010101 N#
b10010101 V#
1n
