sim/layer3/tb_system_bus.vcd
$date
	Sun Dec  7 17:18:49 2025
$end
$version
	Icarus Verilog
$end
$timescale
	1ps
$end
$scope module tb_system_bus $end
$var wire 1 ! disk_ready $end
$var wire 32 " ram_rdata [31:0] $end
$var wire 1 # ram_ready $end
$var wire 32 $ rom_rdata [31:0] $end
$var wire 1 % rom_ready $end
$var wire 32 & sigtap_rdata [31:0] $end
$var wire 1 ' sigtap_ready $end
$var wire 1 ( sysctrl_ready $end
$var wire 32 ) usb_rdata [31:0] $end
$var wire 1 * usb_ready $end
$var wire 1 + usb_write $end
$var wire 32 , usb_wdata [31:0] $end
$var wire 1 - usb_read $end
$var wire 8 . usb_addr [7:0] $end
$var wire 1 / tdo $end
$var wire 1 0 tap_tdo $end
$var wire 1 1 sysctrl_write $end
$var wire 32 2 sysctrl_wdata [31:0] $end
$var wire 1 3 sysctrl_read $end
$var wire 32 4 sysctrl_rdata [31:0] $end
$var wire 8 5 sysctrl_addr [7:0] $end
$var wire 1 6 sigtap_write $end
$var wire 32 7 sigtap_wdata [31:0] $end
$var wire 1 8 sigtap_read $end
$var wire 8 9 sigtap_addr [7:0] $end
$var wire 1 : sb_write $end
$var wire 32 ; sb_wdata [31:0] $end
$var wire 3 < sb_size [2:0] $end
$var wire 1 = sb_read $end
$var wire 32 > sb_rdata [31:0] $end
$var wire 1 ? sb_error $end
$var wire 1 @ sb_busy $end
$var wire 32 A sb_addr [31:0] $end
$var wire 1 B rom_read $end
$var wire 16 C rom_addr [15:0] $end
$var wire 1 D ram_write $end
$var wire 32 E ram_wdata [31:0] $end
$var wire 1 F ram_read $end
$var wire 28 G ram_addr [27:0] $end
$var wire 5 H ir_value [4:0] $end
$var wire 1 I dtm_tdo $end
$var wire 1 J dr_update $end
$var wire 1 K dr_shift $end
$var wire 1 L dr_capture $end
$var wire 32 M dmi_wdata [31:0] $end
$var wire 2 N dmi_resp [1:0] $end
$var wire 1 O dmi_req $end
$var wire 32 P dmi_rdata [31:0] $end
$var wire 2 Q dmi_op [1:0] $end
$var wire 7 R dmi_addr [6:0] $end
$var wire 1 S dmi_ack $end
$var wire 1 T disk_write $end
$var wire 32 U disk_wdata [31:0] $end
$var wire 1 V disk_read $end
$var wire 32 W disk_rdata [31:0] $end
$var wire 8 X disk_addr [7:0] $end
$var parameter 32 Y CLK_PERIOD $end
$var parameter 5 Z JTAG_BYPASS $end
$var parameter 5 [ JTAG_CAPS $end
$var parameter 5 \ JTAG_DMI $end
$var parameter 5 ] JTAG_DTMCS $end
$var parameter 5 ^ JTAG_IDCODE $end
$var parameter 5 _ JTAG_MEM_READ $end
$var parameter 5 ` JTAG_MEM_WRITE $end
$var parameter 5 a JTAG_SIG_TAP $end
$var parameter 5 b JTAG_STATUS $end
$var parameter 32 c TCK_PERIOD $end
$var reg 32 d captured_data [31:0] $end
$var reg 1 e clk $end
$var reg 32 f disk_ctrl [31:0] $end
$var reg 32 g disk_status [31:0] $end
$var reg 32 h ram_rdata_reg [31:0] $end
$var reg 32 i rom_rdata_reg [31:0] $end
$var reg 1 j rst_n $end
$var reg 32 k sysctrl_id [31:0] $end
$var reg 1 l tck $end
$var reg 1 m tdi $end
$var reg 1 n tms $end
$var reg 1 o trst_n $end
$var integer 32 p errors [31:0] $end
$var integer 32 q i [31:0] $end
$var integer 32 r test_num [31:0] $end
$scope module bus $end
$var wire 1 e clk $end
$var wire 1 @ m_busy $end
$var wire 1 ? m_error $end
$var wire 32 s m_rdata [31:0] $end
$var wire 1 j rst_n $end
$var wire 32 t s0_rdata [31:0] $end
$var wire 1 B s0_read $end
$var wire 1 % s0_ready $end
$var wire 32 u s1_rdata [31:0] $end
$var wire 1 F s1_read $end
$var wire 1 # s1_ready $end
$var wire 32 v s1_wdata [31:0] $end
$var wire 1 D s1_write $end
$var wire 32 w s2_rdata [31:0] $end
$var wire 1 3 s2_read $end
$var wire 1 ( s2_ready $end
$var wire 32 x s2_wdata [31:0] $end
$var wire 1 1 s2_write $end
$var wire 32 y s3_rdata [31:0] $end
$var wire 1 V s3_read $end
$var wire 1 ! s3_ready $end
$var wire 32 z s3_wdata [31:0] $end
$var wire 1 T s3_write $end
$var wire 32 { s4_rdata [31:0] $end
$var wire 1 - s4_read $end
$var wire 1 * s4_ready $end
$var wire 32 | s4_wdata [31:0] $end
$var wire 1 + s4_write $end
$var wire 32 } s5_rdata [31:0] $end
$var wire 1 8 s5_read $end
$var wire 1 ' s5_ready $end
$var wire 32 ~ s5_wdata [31:0] $end
$var wire 1 6 s5_write $end
$var wire 8 !" s5_addr [7:0] $end
$var wire 8 "" s4_addr [7:0] $end
$var wire 8 #" s3_addr [7:0] $end
$var wire 8 $" s2_addr [7:0] $end
$var wire 28 %" s1_addr [27:0] $end
$var wire 16 &" s0_addr [15:0] $end
$var wire 1 : m_write $end
$var wire 32 '" m_wdata [31:0] $end
$var wire 3 (" m_size [2:0] $end
$var wire 1 = m_read $end
$var wire 32 )" m_addr [31:0] $end
$var parameter 4 *" SEL_DISK $end
$var parameter 4 +" SEL_NONE $end
$var parameter 4 ," SEL_RAM $end
$var parameter 4 -" SEL_ROM $end
$var parameter 4 ." SEL_SIGTAP $end
$var parameter 4 /" SEL_SYSCTRL $end
$var parameter 4 0" SEL_USB $end
$var reg 32 1" rdata_mux [31:0] $end
$var reg 1 2" ready_mux $end
$var reg 4 3" slave_sel [3:0] $end
$upscope $end
$scope module dm $end
$var wire 1 e clk $end
$var wire 1 j rst_n $end
$var wire 1 @ sbbusy $end
$var wire 32 4" sbdata_i [31:0] $end
$var wire 1 ? sberror $end
$var wire 32 5" dmi_wdata [31:0] $end
$var wire 1 O dmi_req $end
$var wire 2 6" dmi_op [1:0] $end
$var wire 7 7" dmi_addr [6:0] $end
$var parameter 7 8" DMI_ABSTRACTCS $end
$var parameter 7 9" DMI_DMCONTROL $end
$var parameter 7 :" DMI_DMSTATUS $end
$var parameter 7 ;" DMI_HARTINFO $end
$var parameter 7 <" DMI_SBADDRESS0 $end
$var parameter 7 =" DMI_SBCS $end
$var parameter 7 >" DMI_SBDATA0 $end
$var parameter 2 ?" SB_IDLE $end
$var parameter 2 @" SB_READ $end
$var parameter 2 A" SB_WAIT $end
$var parameter 2 B" SB_WRITE $end
$var reg 1 C" dmactive $end
$var reg 1 S dmi_ack $end
$var reg 32 D" dmi_rdata [31:0] $end
$var reg 2 E" dmi_resp [1:0] $end
$var reg 1 F" haltreq $end
$var reg 1 G" ndmreset $end
$var reg 32 H" sb_rdata_latch [31:0] $end
$var reg 1 I" sb_read_pending $end
$var reg 2 J" sb_state [1:0] $end
$var reg 3 K" sbaccess [2:0] $end
$var reg 32 L" sbaddr [31:0] $end
$var reg 1 M" sbautoincrement $end
$var reg 32 N" sbdata_o [31:0] $end
$var reg 3 O" sberror_reg [2:0] $end
$var reg 1 = sbread $end
$var reg 1 P" sbreadonaddr $end
$var reg 1 Q" sbreadondata $end
$var reg 3 R" sbsize [2:0] $end
$var reg 1 : sbwrite $end
$upscope $end
$scope module dtm $end
$var wire 1 S dmi_ack $end
$var wire 32 S" dmi_rdata [31:0] $end
$var wire 2 T" dmi_resp [1:0] $end
$var wire 1 l tck $end
$var wire 1 m tdi $end
$var wire 1 o trst_n $end
$var wire 5 U" ir_value [4:0] $end
$var wire 1 J dr_update $end
$var wire 1 K dr_shift $end
$var wire 1 L dr_capture $end
$var parameter 32 V" ABITS $end
$var parameter 32 W" IDLE_CYCLES $end
$var parameter 5 X" IR_DMI $end
$var parameter 5 Y" IR_DTMCS $end
$var reg 7 Z" dmi_addr [6:0] $end
$var reg 2 [" dmi_op [1:0] $end
$var reg 1 O dmi_req $end
$var reg 41 \" dmi_shift [40:0] $end
$var reg 2 ]" dmi_status [1:0] $end
$var reg 32 ^" dmi_wdata [31:0] $end
$var reg 32 _" dtmcs_shift [31:0] $end
$var reg 1 I tdo $end
$upscope $end
$scope module tap $end
$var wire 64 `" dr_capture_data [63:0] $end
$var wire 7 a" dr_length [6:0] $end
$var wire 1 b" dr_shift_in $end
$var wire 5 c" ir_value [4:0] $end
$var wire 1 l tck $end
$var wire 1 m tdi $end
$var wire 1 n tms $end
$var wire 1 o trst_n $end
$var wire 1 d" ir_update $end
$var wire 1 e" ir_shift $end
$var wire 1 f" ir_capture $end
$var wire 1 J dr_update $end
$var wire 1 g" dr_shift_out $end
$var wire 1 K dr_shift $end
$var wire 1 L dr_capture $end
$var parameter 4 h" CAPTURE_DR $end
$var parameter 4 i" CAPTURE_IR $end
$var parameter 4 j" EXIT1_DR $end
$var parameter 4 k" EXIT1_IR $end
$var parameter 4 l" EXIT2_DR $end
$var parameter 4 m" EXIT2_IR $end
$var parameter 32 n" IDCODE $end
$var parameter 5 o" IR_BYPASS $end
$var parameter 5 p" IR_CAPS $end
$var parameter 5 q" IR_DMI $end
$var parameter 5 r" IR_DTMCS $end
$var parameter 5 s" IR_IDCODE $end
$var parameter 32 t" IR_LENGTH $end
$var parameter 5 u" IR_MEM_READ $end
$var parameter 5 v" IR_MEM_WRITE $end
$var parameter 5 w" IR_SIG_TAP $end
$var parameter 5 x" IR_STATUS $end
$var parameter 5 y" IR_TRACE_CTL $end
$var parameter 5 z" IR_TRACE_DAT $end
$var parameter 4 {" PAUSE_DR $end
$var parameter 4 |" PAUSE_IR $end
$var parameter 4 }" RUN_TEST_IDLE $end
$var parameter 4 ~" SELECT_DR_SCAN $end
$var parameter 4 !# SELECT_IR_SCAN $end
$var parameter 4 "# SHIFT_DR $end
$var parameter 4 ## SHIFT_IR $end
$var parameter 4 $# TEST_LOGIC_RESET $end
$var parameter 4 %# UPDATE_DR $end
$var parameter 4 &# UPDATE_IR $end
$var reg 1 '# bypass_reg $end
$var reg 7 (# current_dr_length [6:0] $end
$var reg 64 )# dr_shift_reg [63:0] $end
$var reg 5 *# ir_hold_reg [4:0] $end
$var reg 5 +# ir_shift_reg [4:0] $end
$var reg 4 ,# next_state [3:0] $end
$var reg 4 -# state [3:0] $end
$var reg 1 0 tdo $end
$upscope $end
$scope task dmi_read $end
$var reg 7 .# addr [6:0] $end
$var reg 32 /# data [31:0] $end
$var reg 41 0# dmi_in [40:0] $end
$var reg 41 1# dmi_out [40:0] $end
$upscope $end
$scope task dmi_reg_read $end
$var reg 7 2# addr [6:0] $end
$var reg 32 3# data [31:0] $end
$var reg 41 4# dmi_in [40:0] $end
$var reg 41 5# dmi_out [40:0] $end
$upscope $end
$scope task dmi_reg_write $end
$var reg 7 6# addr [6:0] $end
$var reg 32 7# data [31:0] $end
$var reg 41 8# dmi_in [40:0] $end
$var reg 41 9# dmi_out [40:0] $end
$upscope $end
$scope task dmi_write $end
$var reg 7 :# addr [6:0] $end
$var reg 32 ;# data [31:0] $end
$var reg 41 <# dmi_in [40:0] $end
$var reg 41 =# dmi_out [40:0] $end
$upscope $end
$scope task goto_shift_dr $end
$upscope $end
$scope task goto_shift_ir $end
$upscope $end
$scope task jtag_clock $end
$var reg 1 ># tms_val $end
$upscope $end
$scope task jtag_mem_read $end
$var reg 32 ?# addr [31:0] $end
$var reg 32 @# data [31:0] $end
$upscope $end
$scope task jtag_mem_write $end
$var reg 32 A# addr [31:0] $end
$var reg 32 B# data [31:0] $end
$upscope $end
$scope task jtag_reset $end
$upscope $end
$scope task mem_read $end
$var reg 32 C# addr [31:0] $end
$var reg 32 D# data [31:0] $end
$upscope $end
$scope task mem_write $end
$var reg 32 E# addr [31:0] $end
$var reg 32 F# data [31:0] $end
$upscope $end
$scope task read_idcode $end
$var reg 32 G# idcode [31:0] $end
$upscope $end
$scope task shift_dr_32 $end
$var reg 32 H# data_in [31:0] $end
$var reg 32 I# data_out [31:0] $end
$var integer 32 J# i [31:0] $end
$upscope $end
$scope task shift_dr_41 $end
$var reg 41 K# data_in [40:0] $end
$var reg 41 L# data_out [40:0] $end
$var integer 32 M# i [31:0] $end
$upscope $end
$scope task shift_dr_64 $end
$var reg 64 N# data_in [63:0] $end
$var reg 64 O# data_out [63:0] $end
$var integer 32 P# i [31:0] $end
$upscope $end
$scope task shift_ir $end
$var reg 5 Q# ir_data [4:0] $end
$var integer 32 R# i [31:0] $end
$upscope $end
$upscope $end
$enddefinitions $end
$comment Show the parameter values. $end
$dumpall
b1111 &#
b1000 %#
b0 $#
b1011 ##
b100 "#
b1001 !#
b10 ~"
b1 }"
b1101 |"
b110 {"
b110 z"
b101 y"
b111 x"
b100 w"
b11 v"
b10 u"
b101 t"
b1 s"
b10000 r"
b10001 q"
b1000 p"
b11111 o"
b11111011000000010000000000000001 n"
b1110 m"
b111 l"
b1100 k"
b101 j"
b1010 i"
b11 h"
b10000 Y"
b10001 X"
b1 W"
b111 V"
b10 B"
b11 A"
b1 @"
b0 ?"
b111100 >"
b111000 ="
b111001 <"
b10010 ;"
b10001 :"
b10000 9"
b10110 8"
b101 0"
b11 /"
b110 ."
b1 -"
b10 ,"
b0 +"
b100 *"
b1100100 c
b111 b
b100 a
b11 `
b10 _
b1 ^
b10000 ]
b10001 \
b1000 [
b11111 Z
b1010 Y
$end
#0
$dumpvars
bx R#
bx Q#
bx P#
bx O#
bx N#
bx M#
bx L#
bx K#
bx J#
bx I#
bx H#
bx G#
bx F#
bx E#
bx D#
bx C#
bx B#
bx A#
bx @#
bx ?#
x>#
bx =#
bx <#
bx ;#
bx :#
bx 9#
bx 8#
bx 7#
bx 6#
bx 5#
bx 4#
bx 3#
bx 2#
bx 1#
bx 0#
bx /#
bx .#
b0 -#
b0 ,#
b11111 +#
b1 *#
bx )#
b100000 (#
x'#
xg"
0f"
0e"
0d"
b1 c"
zb"
b100000 a"
bz `"
b0 _"
b0 ^"
b0 ]"
b0 \"
b0 ["
b0 Z"
b1 U"
b0 T"
b0 S"
b10 R"
0Q"
0P"
b0 O"
b0 N"
0M"
b0 L"
b10 K"
b0 J"
0I"
b0 H"
0G"
0F"
b0 E"
b0 D"
0C"
b0 7"
b0 6"
b0 5"
bx 4"
b1 3"
12"
bx 1"
b0 )"
b10 ("
b0 '"
b0 &"
b0 %"
b0 $"
b0 #"
b0 ""
b0 !"
b0 ~
b1010001011001110000000000000000 }
b0 |
b101101100000000000000000000 {
b0 z
b1 y
b0 x
b11111011000000010000000100000000 w
b0 v
bx u
bx t
bx s
b0 r
b10000000000 q
b0 p
0o
1n
0m
0l
b11111011000000010000000100000000 k
0j
bx i
bx h
b1 g
b0 f
0e
bx d
b0 X
b1 W
0V
b0 U
0T
0S
b0 R
b0 Q
b0 P
0O
b0 N
b0 M
0L
0K
0J
0I
b1 H
b0 G
0F
b0 E
0D
b0 C
0B
b0 A
0@
0?
bx >
0=
b10 <
b0 ;
0:
b0 9
08
b0 7
06
b0 5
b11111011000000010000000100000000 4
03
b0 2
01
00
0/
b0 .
0-
b0 ,
0+
1*
b101101100000000000000000000 )
1(
1'
b1010001011001110000000000000000 &
1%
bx $
1#
bx "
1!
$end
#5000
1e
#10000
0e
#15000
1e
#20000
0e
#25000
1e
#30000
0e
#35000
1e
#40000
0e
#45000
1e
#50000
0e
1j
1l
#55000
1e
#60000
0e
#65000
1e
#70000
0e
#75000
1e
#80000
0e
#85000
1e
#90000
0e
#95000
1e
#100000
0e
0l
#105000
1e
#110000
0e
#115000
1e
#120000
0e
#125000
1e
#130000
0e
#135000
1e
#140000
0e
#145000
1e
#150000
0e
1l
#155000
1e
#160000
0e
#165000
1e
#170000
0e
#175000
1e
#180000
0e
#185000
1e
#190000
0e
#195000
1e
#200000
0e
0l
#205000
1e
#210000
0e
#215000
1e
#220000
0e
#225000
1e
#230000
0e
#235000
1e
#240000
0e
#245000
1e
#250000
0e
1l
1o
#255000
1e
#260000
0e
#265000
1e
#270000
0e
#275000
1e
#280000
0e
#285000
1e
#290000
0e
#295000
1e
#300000
0e
0l
#305000
1e
#310000
0e
#315000
1e
#320000
0e
#325000
1e
#330000
0e
#335000
1e
#340000
0e
#345000
1e
#350000
0e
1l
#355000
1e
#360000
0e
#365000
1e
#370000
0e
#375000
1e
#380000
0e
#385000
1e
#390000
0e
#395000
1e
#400000
0e
0l
#405000
1e
#410000
0e
#415000
1e
#420000
0e
#425000
1e
#430000
0e
#435000
1e
#440000
0e
#445000
1e
#450000
0e
1l
1>#
#455000
1e
#460000
0e
#465000
1e
#470000
0e
#475000
1e
#480000
0e
#485000
1e
#490000
0e
#495000
1e
#500000
0e
0l
#505000
1e
#510000
0e
#515000
1e
#520000
0e
#525000
1e
#530000
0e
#535000
1e
#540000
0e
#545000
1e
#550000
0e
1l
#555000
1e
#560000
0e
#565000
1e
#570000
0e
#575000
1e
#580000
0e
#585000
1e
#590000
0e
#595000
1e
#600000
0e
0l
#605000
1e
#610000
0e
#615000
1e
#620000
0e
#625000
1e
#630000
0e
#635000
1e
#640000
0e
#645000
1e
#650000
0e
1l
#655000
1e
#660000
0e
#665000
1e
#670000
0e
#675000
1e
#680000
0e
#685000
1e
#690000
0e
#695000
1e
#700000
0e
0l
#705000
1e
#710000
0e
#715000
1e
#720000
0e
#725000
1e
#730000
0e
#735000
1e
#740000
0e
#745000
1e
#750000
0e
1l
#755000
1e
#760000
0e
#765000
1e
#770000
0e
#775000
1e
#780000
0e
#785000
1e
#790000
0e
#795000
1e
#800000
0e
0l
#805000
1e
#810000
0e
#815000
1e
#820000
0e
#825000
1e
#830000
0e
#835000
1e
#840000
0e
#845000
1e
#850000
0e
1l
#855000
1e
#860000
0e
#865000
1e
#870000
0e
#875000
1e
#880000
0e
#885000
1e
#890000
0e
#895000
1e
#900000
0e
0l
#905000
1e
#910000
0e
#915000
1e
#920000
0e
#925000
1e
#930000
0e
#935000
1e
#940000
0e
#945000
1e
#950000
0e
1l
#951000
b1 ,#
0n
0>#
#955000
1e
#960000
0e
#965000
1e
#970000
0e
#975000
1e
#980000
0e
#985000
1e
#990000
0e
#995000
1e
#1000000
0e
0l
#1005000
1e
#1010000
0e
#1015000
1e
#1020000
0e
#1025000
1e
#1030000
0e
#1035000
1e
#1040000
0e
#1045000
1e
#1050000
b1 -#
0e
1l
#1051000
b10 ,#
1n
1>#
b10001 Q#
b10000000100 7#
b111000 6#
b0 ?#
b1 r
#1055000
1e
#1060000
0e
#1065000
1e
#1070000
0e
#1075000
1e
#1080000
0e
#1085000
1e
#1090000
0e
#1095000
1e
#1100000
0e
0l
#1105000
1e
#1110000
0e
#1115000
1e
#1120000
0e
#1125000
1e
#1130000
0e
#1135000
1e
#1140000
0e
#1145000
1e
#1150000
b1001 ,#
b10 -#
0e
1l
#1155000
1e
#1160000
0e
#1165000
1e
#1170000
0e
#1175000
1e
#1180000
0e
#1185000
1e
#1190000
0e
#1195000
1e
#1200000
0e
0l
#1205000
1e
#1210000
0e
#1215000
1e
#1220000
0e
#1225000
1e
#1230000
0e
#1235000
1e
#1240000
0e
#1245000
1e
#1250000
b0 ,#
b1001 -#
0e
1l
#1251000
b1010 ,#
0n
0>#
#1255000
1e
#1260000
0e
#1265000
1e
#1270000
0e
#1275000
1e
#1280000
0e
#1285000
1e
#1290000
0e
#1295000
1e
#1300000
0e
0l
#1305000
1e
#1310000
0e
#1315000
1e
#1320000
0e
#1325000
1e
#1330000
0e
#1335000
1e
#1340000
0e
#1345000
1e
#1350000
b1011 ,#
1f"
b1010 -#
0e
1l
#1355000
1e
#1360000
0e
#1365000
1e
#1370000
0e
#1375000
1e
#1380000
0e
#1385000
1e
#1390000
0e
#1395000
1e
#1400000
0e
0l
#1405000
1e
#1410000
0e
#1415000
1e
#1420000
0e
#1425000
1e
#1430000
0e
#1435000
1e
#1440000
0e
#1445000
1e
#1450000
b1 +#
0f"
1e"
b1011 -#
0e
1l
#1451000
1m
b0 R#
#1455000
1e
#1460000
0e
#1465000
1e
#1470000
0e
#1475000
1e
#1480000
0e
#1485000
1e
#1490000
0e
#1495000
1e
#1500000
1/
10
0e
0l
#1505000
1e
#1510000
0e
#1515000
1e
#1520000
0e
#1525000
1e
#1530000
0e
#1535000
1e
#1540000
0e
#1545000
1e
#1550000
b10000 +#
0e
1l
#1551000
0m
b1 R#
#1555000
1e
#1560000
0e
#1565000
1e
#1570000
0e
#1575000
1e
#1580000
0e
#1585000
1e
#1590000
0e
#1595000
1e
#1600000
0/
00
0e
0l
#1605000
1e
#1610000
0e
#1615000
1e
#1620000
0e
#1625000
1e
#1630000
0e
#1635000
1e
#1640000
0e
#1645000
1e
#1650000
b1000 +#
0e
1l
#1651000
b10 R#
#1655000
1e
#1660000
0e
#1665000
1e
#1670000
0e
#1675000
1e
#1680000
0e
#1685000
1e
#1690000
0e
#1695000
1e
#1700000
0e
0l
#1705000
1e
#1710000
0e
#1715000
1e
#1720000
0e
#1725000
1e
#1730000
0e
#1735000
1e
#1740000
0e
#1745000
1e
#1750000
b100 +#
0e
1l
#1751000
b11 R#
#1755000
1e
#1760000
0e
#1765000
1e
#1770000
0e
#1775000
1e
#1780000
0e
#1785000
1e
#1790000
0e
#1795000
1e
#1800000
0e
0l
#1805000
1e
#1810000
0e
#1815000
1e
#1820000
0e
#1825000
1e
#1830000
0e
#1835000
1e
#1840000
0e
#1845000
1e
#1850000
b10 +#
0e
1l
#1851000
b1100 ,#
1n
1>#
1m
b100 R#
#1855000
1e
#1860000
0e
#1865000
1e
#1870000
0e
#1875000
1e
#1880000
0e
#1885000
1e
#1890000
0e
#1895000
1e
#1900000
0e
0l
#1905000
1e
#1910000
0e
#1915000
1e
#1920000
0e
#1925000
1e
#1930000
0e
#1935000
1e
#1940000
0e
#1945000
1e
#1950000
b1111 ,#
0e"
b1100 -#
b10001 +#
0e
1l
#1955000
1e
#1960000
0e
#1965000
1e
#1970000
0e
#1975000
1e
#1980000
0e
#1985000
1e
#1990000
0e
#1995000
1e
#2000000
0e
0l
#2005000
1e
#2010000
0e
#2015000
1e
#2020000
0e
#2025000
1e
#2030000
0e
#2035000
1e
#2040000
0e
#2045000
1e
#2050000
b10 ,#
1d"
b1111 -#
0e
1l
#2051000
b1 ,#
0n
0>#
#2055000
1e
#2060000
0e
#2065000
1e
#2070000
0e
#2075000
1e
#2080000
0e
#2085000
1e
#2090000
0e
#2095000
1e
#2100000
0e
0l
#2105000
1e
#2110000
0e
#2115000
1e
#2120000
0e
#2125000
1e
#2130000
0e
#2135000
1e
#2140000
0e
#2145000
1e
#2150000
b101001 a"
b101001 (#
0d"
b1 -#
b10001 H
b10001 U"
b10001 c"
b10001 *#
0e
1l
#2151000
b10 ,#
1n
1>#
b1110000000000000000000000001000000010010 K#
b1110000000000000000000000001000000010010 8#
#2155000
1e
#2160000
0e
#2165000
1e
#2170000
0e
#2175000
1e
#2180000
0e
#2185000
1e
#2190000
0e
#2195000
1e
#2200000
0e
0l
#2205000
1e
#2210000
0e
#2215000
1e
#2220000
0e
#2225000
1e
#2230000
0e
#2235000
1e
#2240000
0e
#2245000
1e
#2250000
b1001 ,#
b10 -#
0e
1l
#2251000
b11 ,#
0n
0>#
#2255000
1e
#2260000
0e
#2265000
1e
#2270000
0e
#2275000
1e
#2280000
0e
#2285000
1e
#2290000
0e
#2295000
1e
#2300000
0e
0l
#2305000
1e
#2310000
0e
#2315000
1e
#2320000
0e
#2325000
1e
#2330000
0e
#2335000
1e
#2340000
0e
#2345000
1e
#2350000
b100 ,#
1L
b11 -#
0e
1l
#2355000
1e
#2360000
0e
#2365000
1e
#2370000
0e
#2375000
1e
#2380000
0e
#2385000
1e
#2390000
0e
#2395000
1e
#2400000
0e
0l
#2405000
1e
#2410000
0e
#2415000
1e
#2420000
0e
#2425000
1e
#2430000
0e
#2435000
1e
#2440000
0e
#2445000
1e
#2450000
zg"
0L
1K
b100 -#
bz )#
0e
1l
#2455000
1e
#2460000
0e
#2465000
1e
#2470000
0e
#2475000
1e
#2480000
0e
#2485000
1e
#2490000
0e
#2495000
1e
#2500000
z0
0e
0l
#2501000
0m
b0 M#
b0 L#
#2505000
1e
#2510000
0e
#2515000
1e
#2520000
0e
#2525000
1e
#2530000
0e
#2535000
1e
#2540000
0e
#2545000
1e
#2550000
b0zzzzzzzzzzzzzzzzzzzzzzzzzzzzzzzzzzzzzzzzzzzzzzzzzzzzzzzzzzzzzzz )#
0e
1l
#2555000
1e
#2560000
0e
#2565000
1e
#2570000
0e
#2575000
1e
#2580000
0e
#2585000
1e
#2590000
0e
#2595000
1e
#2600000
0e
0l
#2601000
1m
b1 M#
#2605000
1e
#2610000
0e
#2615000
1e
#2620000
0e
#2625000
1e
#2630000
0e
#2635000
1e
#2640000
0e
#2645000
1e
#2650000
b10000000000000000000000000000000000000000 \"
b10zzzzzzzzzzzzzzzzzzzzzzzzzzzzzzzzzzzzzzzzzzzzzzzzzzzzzzzzzzzzzz )#
0e
1l
#2655000
1e
#2660000
0e
#2665000
1e
#2670000
0e
#2675000
1e
#2680000
0e
#2685000
1e
#2690000
0e
#2695000
1e
#2700000
0e
0l
#2701000
0m
b10 M#
#2705000
1e
#2710000
0e
#2715000
1e
#2720000
0e
#2725000
1e
#2730000
0e
#2735000
1e
#2740000
0e
#2745000
1e
#2750000
b1000000000000000000000000000000000000000 \"
b10zzzzzzzzzzzzzzzzzzzzzzzzzzzzzzzzzzzzzzzzzzzzzzzzzzzzzzzzzzzzz )#
0e
1l
#2755000
1e
#2760000
0e
#2765000
1e
#2770000
0e
#2775000
1e
#2780000
0e
#2785000
1e
#2790000
0e
#2795000
1e
#2800000
0e
0l
#2801000
b11 M#
#2805000
1e
#2810000
0e
#2815000
1e
#2820000
0e
#2825000
1e
#2830000
0e
#2835000
1e
#2840000
0e
#2845000
1e
#2850000
b100000000000000000000000000000000000000 \"
b10zzzzzzzzzzzzzzzzzzzzzzzzzzzzzzzzzzzzzzzzzzzzzzzzzzzzzzzzzzzz )#
0e
1l
#2855000
1e
#2860000
0e
#2865000
1e
#2870000
0e
#2875000
1e
#2880000
0e
#2885000
1e
#2890000
0e
#2895000
1e
#2900000
0e
0l
#2901000
1m
b100 M#
#2905000
1e
#2910000
0e
#2915000
1e
#2920000
0e
#2925000
1e
#2930000
0e
#2935000
1e
#2940000
0e
#2945000
1e
#2950000
b10010000000000000000000000000000000000000 \"
b10010zzzzzzzzzzzzzzzzzzzzzzzzzzzzzzzzzzzzzzzzzzzzzzzzzzzzzzzzzzz )#
0e
1l
#2955000
1e
#2960000
0e
#2965000
1e
#2970000
0e
#2975000
1e
#2980000
0e
#2985000
1e
#2990000
0e
#2995000
1e
#3000000
0e
0l
#3001000
0m
b101 M#
#3005000
1e
#3010000
0e
#3015000
1e
#3020000
0e
#3025000
1e
#3030000
0e
#3035000
1e
#3040000
0e
#3045000
1e
#3050000
b1001000000000000000000000000000000000000 \"
b10010zzzzzzzzzzzzzzzzzzzzzzzzzzzzzzzzzzzzzzzzzzzzzzzzzzzzzzzzzz )#
0e
1l
#3055000
1e
#3060000
0e
#3065000
1e
#3070000
0e
#3075000
1e
#3080000
0e
#3085000
1e
#3090000
0e
#3095000
1e
#3100000
0e
0l
#3101000
b110 M#
#3105000
1e
#3110000
0e
#3115000
1e
#3120000
0e
#3125000
1e
#3130000
0e
#3135000
1e
#3140000
0e
#3145000
1e
#3150000
b100100000000000000000000000000000000000 \"
b10010zzzzzzzzzzzzzzzzzzzzzzzzzzzzzzzzzzzzzzzzzzzzzzzzzzzzzzzzz )#
0e
1l
#3155000
1e
#3160000
0e
#3165000
1e
#3170000
0e
#3175000
1e
#3180000
0e
#3185000
1e
#3190000
0e
#3195000
1e
#3200000
0e
0l
#3201000
b111 M#
#3205000
1e
#3210000
0e
#3215000
1e
#3220000
0e
#3225000
1e
#3230000
0e
#3235000
1e
#3240000
0e
#3245000
1e
#3250000
b10010000000000000000000000000000000000 \"
b10010zzzzzzzzzzzzzzzzzzzzzzzzzzzzzzzzzzzzzzzzzzzzzzzzzzzzzzzz )#
0e
1l
#3255000
1e
#3260000
0e
#3265000
1e
#3270000
0e
#3275000
1e
#3280000
0e
#3285000
1e
#3290000
0e
#3295000
1e
#3300000
0e
0l
#3301000
b1000 M#
#3305000
1e
#3310000
0e
#3315000
1e
#3320000
0e
#3325000
1e
#3330000
0e
#3335000
1e
#3340000
0e
#3345000
1e
#3350000
b1001000000000000000000000000000000000 \"
b10010zzzzzzzzzzzzzzzzzzzzzzzzzzzzzzzzzzzzzzzzzzzzzzzzzzzzzzz )#
0e
1l
#3355000
1e
#3360000
0e
#3365000
1e
#3370000
0e
#3375000
1e
#3380000
0e
#3385000
1e
#3390000
0e
#3395000
1e
#3400000
0e
0l
#3401000
b1001 M#
#3405000
1e
#3410000
0e
#3415000
1e
#3420000
0e
#3425000
1e
#3430000
0e
#3435000
1e
#3440000
0e
#3445000
1e
#3450000
b100100000000000000000000000000000000 \"
b10010zzzzzzzzzzzzzzzzzzzzzzzzzzzzzzzzzzzzzzzzzzzzzzzzzzzzzz )#
0e
1l
#3455000
1e
#3460000
0e
#3465000
1e
#3470000
0e
#3475000
1e
#3480000
0e
#3485000
1e
#3490000
0e
#3495000
1e
#3500000
0e
0l
#3501000
b1010 M#
#3505000
1e
#3510000
0e
#3515000
1e
#3520000
0e
#3525000
1e
#3530000
0e
#3535000
1e
#3540000
0e
#3545000
1e
#3550000
b10010000000000000000000000000000000 \"
b10010zzzzzzzzzzzzzzzzzzzzzzzzzzzzzzzzzzzzzzzzzzzzzzzzzzzzz )#
0e
1l
#3555000
1e
#3560000
0e
#3565000
1e
#3570000
0e
#3575000
1e
#3580000
0e
#3585000
1e
#3590000
0e
#3595000
1e
#3600000
0e
0l
#3601000
b1011 M#
#3605000
1e
#3610000
0e
#3615000
1e
#3620000
0e
#3625000
1e
#3630000
0e
#3635000
1e
#3640000
0e
#3645000
1e
