sim/layer4/tb_clock_reset.vcd
$date
	Sun Dec  7 17:18:49 2025
$end
$version
	Icarus Verilog
$end
$timescale
	1ps
$end
$scope module tb_clock_reset $end
$var wire 1 ! dmi_ack $end
$var wire 32 " dmi_rdata [31:0] $end
$var wire 2 # dmi_resp [1:0] $end
$var wire 1 $ wdt_reset $end
$var wire 1 % tdo $end
$var wire 1 & tap_tdo $end
$var wire 1 ' rst_usb_n $end
$var wire 1 ( rst_sys_n $end
$var wire 1 ) rst_disk_n $end
$var wire 1 * rst_dbg_sync_n $end
$var wire 1 + pll_locked $end
$var wire 5 , ir_value [4:0] $end
$var wire 1 - dtm_tdo $end
$var wire 1 . dr_update $end
$var wire 1 / dr_shift $end
$var wire 1 0 dr_capture $end
$var wire 32 1 dmi_wdata [31:0] $end
$var wire 1 2 dmi_req $end
$var wire 2 3 dmi_op [1:0] $end
$var wire 7 4 dmi_addr [6:0] $end
$var wire 1 5 clk_usb $end
$var wire 1 6 clk_sys $end
$var wire 1 7 clk_disk $end
$var parameter 5 8 JTAG_BYPASS $end
$var parameter 5 9 JTAG_CAPS $end
$var parameter 5 : JTAG_DMI $end
$var parameter 5 ; JTAG_DTMCS $end
$var parameter 5 < JTAG_IDCODE $end
$var parameter 5 = JTAG_MEM_READ $end
$var parameter 5 > JTAG_MEM_WRITE $end
$var parameter 5 ? JTAG_SIG_TAP $end
$var parameter 5 @ JTAG_STATUS $end
$var parameter 32 A REF_PERIOD $end
$var parameter 32 B TCK_PERIOD $end
$var parameter 32 C WDT_CYCLES $end
$var reg 32 D captured_data [31:0] $end
$var reg 1 E clk_ref $end
$var reg 32 F mock_reg [31:0] $end
$var reg 1 G rst_debug_n $end
$var reg 1 H rst_ext_n $end
$var reg 1 I tck $end
$var reg 1 J tdi $end
$var reg 1 K tms $end
$var reg 1 L trst_n $end
$var reg 1 M wdt_kick $end
$var integer 32 N cycle_count [31:0] $end
$var integer 32 O errors [31:0] $end
$var real 1 P measured_freq $end
$var integer 32 Q test_num [31:0] $end
$scope module crm $end
$var wire 1 7 clk_disk $end
$var wire 1 E clk_ref $end
$var wire 1 6 clk_sys $end
$var wire 1 5 clk_usb $end
$var wire 1 + pll_locked $end
$var wire 1 G rst_debug_n $end
$var wire 1 ) rst_disk_n $end
$var wire 1 H rst_ext_n $end
$var wire 1 ( rst_sys_n $end
$var wire 1 ' rst_usb_n $end
$var wire 1 M wdt_kick $end
$var wire 1 $ wdt_reset $end
$var wire 1 * rst_dbg_sync_n $end
$var parameter 32 R WATCHDOG_CYCLES $end
$var reg 1 S clk_disk_reg $end
$var reg 1 T clk_sys_reg $end
$var reg 1 U clk_usb_reg $end
$var reg 8 V lock_counter [7:0] $end
$var reg 1 W pll_locked_reg $end
$var reg 3 X rst_dbg_sync [2:0] $end
$var reg 3 Y rst_disk_sync [2:0] $end
$var reg 3 Z rst_sys_sync [2:0] $end
$var reg 3 [ rst_usb_sync [2:0] $end
$var reg 2 \ sys_div [1:0] $end
$var reg 3 ] usb_div [2:0] $end
$var reg 32 ^ wdt_counter [31:0] $end
$var reg 1 $ wdt_expired $end
$upscope $end
$scope module dtm $end
$var wire 1 ! dmi_ack $end
$var wire 32 _ dmi_rdata [31:0] $end
$var wire 2 ` dmi_resp [1:0] $end
$var wire 1 I tck $end
$var wire 1 J tdi $end
$var wire 1 L trst_n $end
$var wire 5 a ir_value [4:0] $end
$var wire 1 . dr_update $end
$var wire 1 / dr_shift $end
$var wire 1 0 dr_capture $end
$var parameter 32 b ABITS $end
$var parameter 32 c IDLE_CYCLES $end
$var parameter 5 d IR_DMI $end
$var parameter 5 e IR_DTMCS $end
$var reg 7 f dmi_addr [6:0] $end
$var reg 2 g dmi_op [1:0] $end
$var reg 1 2 dmi_req $end
$var reg 41 h dmi_shift [40:0] $end
$var reg 2 i dmi_status [1:0] $end
$var reg 32 j dmi_wdata [31:0] $end
$var reg 32 k dtmcs_shift [31:0] $end
$var reg 1 - tdo $end
$upscope $end
$scope module tap $end
$var wire 64 l dr_capture_data [63:0] $end
$var wire 7 m dr_length [6:0] $end
$var wire 1 n dr_shift_in $end
$var wire 5 o ir_value [4:0] $end
$var wire 1 I tck $end
$var wire 1 J tdi $end
$var wire 1 K tms $end
$var wire 1 L trst_n $end
$var wire 1 p ir_update $end
$var wire 1 q ir_shift $end
$var wire 1 r ir_capture $end
$var wire 1 . dr_update $end
$var wire 1 s dr_shift_out $end
$var wire 1 / dr_shift $end
$var wire 1 0 dr_capture $end
$var parameter 4 t CAPTURE_DR $end
$var parameter 4 u CAPTURE_IR $end
$var parameter 4 v EXIT1_DR $end
$var parameter 4 w EXIT1_IR $end
$var parameter 4 x EXIT2_DR $end
$var parameter 4 y EXIT2_IR $end
$var parameter 32 z IDCODE $end
$var parameter 5 { IR_BYPASS $end
$var parameter 5 | IR_CAPS $end
$var parameter 5 } IR_DMI $end
$var parameter 5 ~ IR_DTMCS $end
$var parameter 5 !" IR_IDCODE $end
$var parameter 32 "" IR_LENGTH $end
$var parameter 5 #" IR_MEM_READ $end
$var parameter 5 $" IR_MEM_WRITE $end
$var parameter 5 %" IR_SIG_TAP $end
$var parameter 5 &" IR_STATUS $end
$var parameter 5 '" IR_TRACE_CTL $end
$var parameter 5 (" IR_TRACE_DAT $end
$var parameter 4 )" PAUSE_DR $end
$var parameter 4 *" PAUSE_IR $end
$var parameter 4 +" RUN_TEST_IDLE $end
$var parameter 4 ," SELECT_DR_SCAN $end
$var parameter 4 -" SELECT_IR_SCAN $end
$var parameter 4 ." SHIFT_DR $end
$var parameter 4 /" SHIFT_IR $end
$var parameter 4 0" TEST_LOGIC_RESET $end
$var parameter 4 1" UPDATE_DR $end
$var parameter 4 2" UPDATE_IR $end
$var reg 1 3" bypass_reg $end
$var reg 7 4" current_dr_length [6:0] $end
$var reg 64 5" dr_shift_reg [63:0] $end
$var reg 5 6" ir_hold_reg [4:0] $end
$var reg 5 7" ir_shift_reg [4:0] $end
$var reg 4 8" next_state [3:0] $end
$var reg 4 9" state [3:0] $end
$var reg 1 & tdo $end
$upscope $end
$scope task dmi_read $end
$var reg 7 :" addr [6:0] $end
$var reg 32 ;" data [31:0] $end
$var reg 41 <" dmi_in [40:0] $end
$var reg 41 =" dmi_out [40:0] $end
$upscope $end
$scope task dmi_write $end
$var reg 7 >" addr [6:0] $end
$var reg 32 ?" data [31:0] $end
$var reg 41 @" dmi_in [40:0] $end
$var reg 41 A" dmi_out [40:0] $end
$upscope $end
$scope task goto_shift_dr $end
$upscope $end
$scope task goto_shift_ir $end
$upscope $end
$scope task jtag_clock $end
$var reg 1 B" tms_val $end
$upscope $end
$scope task jtag_reset $end
$upscope $end
$scope task measure_frequency $end
$var integer 32 C" clk_select [31:0] $end
$var integer 32 D" edges [31:0] $end
$var integer 32 E" end_time [31:0] $end
$var real 1 F" freq_mhz $end
$var integer 32 G" start_time [31:0] $end
$upscope $end
$scope task mem_read $end
$var reg 32 H" addr [31:0] $end
$var reg 32 I" data [31:0] $end
$upscope $end
$scope task mem_write $end
$var reg 32 J" addr [31:0] $end
$var reg 32 K" data [31:0] $end
$upscope $end
$scope task read_idcode $end
$var reg 32 L" idcode [31:0] $end
$upscope $end
$scope task shift_dr_32 $end
$var reg 32 M" data_in [31:0] $end
$var reg 32 N" data_out [31:0] $end
$var integer 32 O" i [31:0] $end
$upscope $end
$scope task shift_dr_41 $end
$var reg 41 P" data_in [40:0] $end
$var reg 41 Q" data_out [40:0] $end
$var integer 32 R" i [31:0] $end
$upscope $end
$scope task shift_dr_64 $end
$var reg 64 S" data_in [63:0] $end
$var reg 64 T" data_out [63:0] $end
$var integer 32 U" i [31:0] $end
$upscope $end
$scope task shift_ir $end
$var reg 5 V" ir_data [4:0] $end
$var integer 32 W" i [31:0] $end
$upscope $end
$upscope $end
$enddefinitions $end
$comment Show the parameter values. $end
$dumpall
b1111 2"
b1000 1"
b0 0"
b1011 /"
b100 ."
b1001 -"
b10 ,"
b1 +"
b1101 *"
b110 )"
b110 ("
b101 '"
b111 &"
b100 %"
b11 $"
b10 #"
b101 ""
b1 !"
b10000 ~
b10001 }
b1000 |
b11111 {
b11111011000000010000000000000001 z
b1110 y
b111 x
b1100 w
b101 v
b1010 u
b11 t
b10000 e
b10001 d
b1 c
b111 b
b1111101000 R
b1111101000 C
b1100100 B
b101000 A
b111 @
b100 ?
b11 >
b10 =
b1 <
b10000 ;
b10001 :
b1000 9
b11111 8
$end
#0
$dumpvars
bx W"
bx V"
bx U"
bx T"
bx S"
bx R"
bx Q"
bx P"
bx O"
bx N"
bx M"
bx L"
bx K"
bx J"
bx I"
bx H"
bx G"
r0 F"
bx E"
bx D"
bx C"
xB"
bx A"
bx @"
bx ?"
bx >"
bx ="
bx <"
bx ;"
bx :"
bx 9"
b0 8"
bx 7"
bx 6"
bx 5"
bx 4"
x3"
xs
xr
xq
xp
bx o
zn
bx m
bz l
bx k
bx j
bx i
bx h
bx g
bx f
bx a
b0 `
b11011110101011011011111011101111 _
b0 ^
b0 ]
b0 \
b0 [
b0 Z
b0 Y
b0 X
0W
b0 V
0U
0T
0S
b1 Q
r0 P
b0 O
bx N
0M
1L
1K
0J
0I
0H
1G
b11011110101011011011111011101111 F
0E
bx D
07
06
05
bx 4
bx 3
x2
bx 1
x0
x/
x.
0-
bx ,
0+
0*
0)
0(
0'
0&
0%
0$
b0 #
b11011110101011011011111011101111 "
x!
$end
#20000
1E
#40000
0E
#50000
0r
0q
0p
00
0/
0.
b0 9"
0!
02
1I
#60000
1E
#80000
0E
#100000
1E
0I
#120000
0E
#140000
1E
#150000
b100000 m
b100000 4"
b1 ,
b1 a
b1 o
b1 6"
1I
#160000
0E
#180000
1E
#200000
0E
0I
#220000
1E
#240000
0E
#250000
1I
#260000
1E
#280000
0E
#300000
1E
0I
#320000
0E
#340000
1E
#350000
1I
#360000
0E
#380000
1E
#400000
0E
0I
b0 N
1H
#420000
b1 V
17
1S
15
1U
16
1T
b1 \
b1 N
1E
#440000
0E
#450000
1I
#460000
06
0T
b10 \
05
0U
07
0S
b10 V
b10 N
1E
#480000
0E
#500000
b11 V
17
1S
15
1U
16
1T
b11 \
b11 N
1E
0I
#520000
0E
#540000
06
0T
b0 \
05
0U
07
0S
b100 V
b100 N
1E
#550000
1I
#560000
0E
#580000
b101 V
17
1S
15
1U
16
1T
b1 \
b101 N
1E
#600000
0E
0I
#620000
06
0T
b10 \
05
0U
07
0S
b110 V
b110 N
1E
#640000
0E
#650000
1I
#660000
b111 V
17
1S
15
1U
16
1T
b11 \
b111 N
1E
#680000
0E
#700000
06
0T
b0 \
05
0U
07
0S
b1000 V
b1000 N
1E
0I
#720000
0E
#740000
b1001 V
17
1S
15
1U
16
1T
b1 \
b1001 N
1E
#750000
1I
#760000
0E
#780000
06
0T
b10 \
05
0U
07
0S
b1010 V
b1010 N
1E
#800000
0E
0I
#820000
b1011 V
17
1S
15
1U
16
1T
b11 \
b1011 N
1E
#840000
0E
#850000
1I
#860000
06
0T
b0 \
05
0U
07
0S
b1100 V
b1100 N
1E
#880000
0E
#900000
b1101 V
17
1S
15
1U
16
1T
b1 \
b1101 N
1E
0I
#920000
0E
#940000
06
0T
b10 \
05
0U
07
0S
b1110 V
b1110 N
1E
#950000
1I
#960000
0E
#980000
b1111 V
17
1S
15
1U
16
1T
b11 \
b1111 N
1E
#1000000
0E
0I
#1020000
06
0T
b0 \
05
0U
07
0S
b10000 V
b10000 N
1E
#1040000
0E
#1050000
1I
#1060000
b10001 V
17
1S
15
1U
16
1T
b1 \
b10001 N
1E
#1080000
0E
#1100000
06
0T
b10 \
05
0U
07
0S
b10010 V
b10010 N
1E
0I
#1120000
0E
#1140000
b10011 V
17
1S
15
1U
16
1T
b11 \
b10011 N
1E
#1150000
1I
#1160000
0E
#1180000
06
0T
b0 \
05
0U
07
0S
b10100 V
b10100 N
1E
#1200000
0E
0I
#1220000
b10101 V
17
1S
15
1U
16
1T
b1 \
b10101 N
1E
#1240000
0E
#1250000
1I
#1260000
06
0T
b10 \
05
0U
07
0S
b10110 V
b10110 N
1E
#1280000
0E
#1300000
b10111 V
17
1S
15
1U
16
1T
b11 \
b10111 N
1E
0I
#1320000
0E
#1340000
06
0T
b0 \
05
0U
07
0S
b11000 V
b11000 N
1E
#1350000
1I
#1360000
0E
#1380000
b11001 V
17
1S
15
1U
16
1T
b1 \
b11001 N
1E
#1400000
0E
0I
#1420000
06
0T
b10 \
05
0U
07
0S
b11010 V
b11010 N
1E
#1440000
0E
#1450000
1I
#1460000
b11011 V
17
1S
15
1U
16
1T
b11 \
b11011 N
1E
#1480000
0E
#1500000
06
0T
b0 \
05
0U
07
0S
b11100 V
b11100 N
1E
0I
#1520000
0E
#1540000
b11101 V
17
1S
15
1U
16
1T
b1 \
b11101 N
1E
#1550000
1I
#1560000
0E
#1580000
06
0T
b10 \
05
0U
07
0S
b11110 V
b11110 N
1E
#1600000
0E
0I
#1620000
b11111 V
17
1S
15
1U
16
1T
b11 \
b11111 N
1E
#1640000
0E
#1650000
1I
#1660000
06
0T
b0 \
05
0U
07
0S
b100000 V
b100000 N
1E
#1680000
0E
#1700000
b100001 V
17
1S
15
1U
16
1T
b1 \
b100001 N
1E
0I
#1720000
0E
#1740000
06
0T
b10 \
05
0U
07
0S
b100010 V
b100010 N
1E
#1750000
1I
#1760000
0E
#1780000
b100011 V
17
1S
15
1U
16
1T
b11 \
b100011 N
1E
#1800000
0E
0I
#1820000
06
0T
b0 \
05
0U
07
0S
b100100 V
b100100 N
1E
#1840000
0E
#1850000
1I
#1860000
b100101 V
17
1S
15
1U
16
1T
b1 \
b100101 N
1E
#1880000
0E
#1900000
06
0T
b10 \
05
0U
07
0S
b100110 V
b100110 N
1E
0I
#1920000
0E
#1940000
b100111 V
17
1S
15
1U
16
1T
b11 \
b100111 N
1E
#1950000
1I
#1960000
0E
#1980000
06
0T
b0 \
05
0U
07
0S
b101000 V
b101000 N
1E
#2000000
0E
0I
#2020000
b101001 V
17
1S
15
1U
16
1T
b1 \
b101001 N
1E
#2040000
0E
#2050000
1I
#2060000
06
0T
b10 \
05
0U
07
0S
b101010 V
b101010 N
1E
#2080000
0E
#2100000
b101011 V
17
1S
15
1U
16
1T
b11 \
b101011 N
1E
0I
#2120000
0E
#2140000
06
0T
b0 \
05
0U
07
0S
b101100 V
b101100 N
1E
#2150000
1I
#2160000
0E
#2180000
b101101 V
17
1S
15
1U
16
1T
b1 \
b101101 N
1E
#2200000
0E
0I
#2220000
06
0T
b10 \
05
0U
07
0S
b101110 V
b101110 N
1E
#2240000
0E
#2250000
1I
#2260000
b101111 V
17
1S
15
1U
16
1T
b11 \
b101111 N
1E
#2280000
0E
#2300000
06
0T
b0 \
05
0U
07
0S
b110000 V
b110000 N
1E
0I
#2320000
0E
#2340000
b110001 V
17
1S
15
1U
16
1T
b1 \
b110001 N
1E
#2350000
1I
#2360000
0E
#2380000
06
0T
b10 \
05
0U
07
0S
b110010 V
b110010 N
1E
#2400000
0E
0I
#2420000
b110011 V
17
1S
15
1U
16
1T
b11 \
b110011 N
1E
#2440000
0E
#2450000
1I
#2460000
06
0T
b0 \
05
0U
07
0S
b110100 V
b110100 N
1E
#2480000
0E
#2500000
b110101 V
17
1S
15
1U
16
1T
b1 \
b110101 N
1E
0I
#2520000
0E
#2540000
06
0T
b10 \
05
0U
07
0S
b110110 V
b110110 N
1E
#2550000
1I
#2560000
0E
#2580000
b110111 V
17
1S
15
1U
16
1T
b11 \
b110111 N
1E
#2600000
0E
0I
#2620000
06
0T
b0 \
05
0U
07
0S
b111000 V
b111000 N
1E
#2640000
0E
#2650000
1I
#2660000
b111001 V
17
1S
15
1U
16
1T
b1 \
b111001 N
1E
#2680000
0E
#2700000
06
0T
b10 \
05
0U
07
0S
b111010 V
b111010 N
1E
0I
#2720000
0E
#2740000
b111011 V
17
1S
15
1U
16
1T
b11 \
b111011 N
1E
#2750000
1I
#2760000
0E
#2780000
06
0T
b0 \
05
0U
07
0S
b111100 V
b111100 N
1E
#2800000
0E
0I
#2820000
b111101 V
17
1S
15
1U
16
1T
b1 \
b111101 N
1E
#2840000
0E
#2850000
1I
#2860000
06
0T
b10 \
05
0U
07
0S
b111110 V
b111110 N
1E
#2880000
0E
#2900000
b111111 V
17
1S
15
1U
16
1T
b11 \
b111111 N
1E
0I
#2920000
0E
#2940000
06
0T
b0 \
05
0U
07
0S
b1000000 V
b1000000 N
1E
#2950000
1I
#2960000
0E
#2980000
b1000001 V
17
1S
15
1U
16
1T
b1 \
b1000001 N
1E
#3000000
0E
0I
#3020000
06
0T
b10 \
05
0U
07
0S
b1000010 V
b1000010 N
1E
#3040000
0E
#3050000
1I
#3060000
b1000011 V
17
1S
15
1U
16
1T
b11 \
b1000011 N
1E
#3080000
0E
#3100000
06
0T
b0 \
05
0U
07
0S
b1000100 V
b1000100 N
1E
0I
#3120000
0E
#3140000
b1000101 V
17
1S
15
1U
16
1T
b1 \
b1000101 N
1E
#3150000
1I
#3160000
0E
#3180000
06
0T
b10 \
05
0U
07
0S
b1000110 V
b1000110 N
1E
#3200000
0E
0I
#3220000
b1000111 V
17
1S
15
1U
16
1T
b11 \
b1000111 N
1E
#3240000
0E
#3250000
1I
#3260000
06
0T
b0 \
05
0U
07
0S
b1001000 V
b1001000 N
1E
#3280000
0E
#3300000
b1001001 V
17
1S
15
1U
16
1T
b1 \
b1001001 N
1E
0I
#3320000
0E
#3340000
06
0T
b10 \
05
0U
07
0S
b1001010 V
b1001010 N
1E
#3350000
1I
#3360000
0E
#3380000
b1001011 V
17
1S
15
1U
16
1T
b11 \
b1001011 N
1E
#3400000
0E
0I
#3420000
06
0T
b0 \
05
0U
07
0S
b1001100 V
b1001100 N
1E
#3440000
0E
#3450000
1I
#3460000
b1001101 V
17
1S
15
1U
16
1T
b1 \
b1001101 N
1E
#3480000
0E
#3500000
06
0T
b10 \
05
0U
07
0S
b1001110 V
b1001110 N
1E
0I
#3520000
0E
#3540000
b1001111 V
17
1S
15
1U
16
1T
b11 \
b1001111 N
1E
#3550000
1I
#3560000
0E
#3580000
06
0T
b0 \
05
0U
07
0S
b1010000 V
b1010000 N
1E
#3600000
0E
0I
#3620000
b1010001 V
17
1S
15
1U
16
1T
b1 \
b1010001 N
1E
#3640000
0E
#3650000
1I
#3660000
06
0T
b10 \
05
0U
07
0S
b1010010 V
b1010010 N
1E
#3680000
0E
#3700000
b1010011 V
17
1S
15
1U
16
1T
b11 \
b1010011 N
1E
0I
#3720000
0E
#3740000
06
0T
b0 \
05
0U
07
0S
b1010100 V
b1010100 N
1E
#3750000
1I
#3760000
0E
#3780000
b1010101 V
17
1S
15
1U
16
1T
b1 \
b1010101 N
1E
#3800000
0E
0I
#3820000
06
0T
b10 \
05
0U
07
0S
b1010110 V
b1010110 N
1E
#3840000
0E
#3850000
1I
#3860000
b1010111 V
17
1S
15
1U
16
1T
b11 \
b1010111 N
1E
#3880000
0E
#3900000
06
0T
b0 \
05
0U
07
0S
b1011000 V
b1011000 N
1E
0I
#3920000
0E
#3940000
b1011001 V
17
1S
15
1U
16
1T
b1 \
b1011001 N
1E
#3950000
1I
#3960000
0E
#3980000
06
0T
b10 \
05
0U
07
0S
b1011010 V
b1011010 N
1E
#4000000
0E
0I
#4020000
b1011011 V
17
1S
15
1U
16
1T
b11 \
b1011011 N
1E
#4040000
0E
#4050000
1I
#4060000
06
0T
b0 \
05
0U
07
0S
b1011100 V
b1011100 N
1E
#4080000
0E
#4100000
b1011101 V
17
1S
15
1U
16
1T
b1 \
b1011101 N
1E
0I
#4120000
0E
#4140000
06
0T
b10 \
05
0U
07
0S
b1011110 V
b1011110 N
1E
#4150000
1I
#4160000
0E
#4180000
b1011111 V
17
1S
15
1U
16
1T
b11 \
b1011111 N
1E
#4200000
0E
0I
#4220000
06
0T
b0 \
05
0U
07
0S
b1100000 V
b1100000 N
1E
#4240000
0E
#4250000
1I
#4260000
b1100001 V
17
1S
15
1U
16
1T
b1 \
b1100001 N
1E
#4280000
0E
#4300000
06
0T
b10 \
05
0U
07
0S
b1100010 V
b1100010 N
1E
0I
#4320000
0E
#4340000
b1100011 V
17
1S
15
1U
16
1T
b11 \
b1100011 N
1E
#4350000
1I
#4360000
0E
#4380000
06
0T
b0 \
05
0U
07
0S
b1100100 V
b1100100 N
1E
#4400000
0E
0I
#4420000
b1 Y
b1 [
b1 Z
b1 X
1+
1W
17
1S
15
1U
16
1T
b1 \
b1100101 N
1E
#4440000
0E
#4450000
1I
#4460000
06
0T
b10 \
05
0U
07
0S
b1000101101100 G"
b0 D"
b0 C"
b10 Q
b1100110 N
1E
#4480000
0E
#4500000
b11 Y
b11 [
b11 Z
b11 X
b1 D"
17
1S
15
1U
16
1T
b11 \
1E
0I
#4520000
0E
#4540000
06
0T
b0 \
05
0U
07
0S
1E
#4550000
1I
#4560000
0E
#4580000
1)
1'
1(
1*
b111 Y
b111 [
b111 Z
b111 X
b10 D"
17
1S
15
1U
16
1T
b1 \
1E
#4600000
0E
0I
#4620000
06
0T
b10 \
05
0U
07
0S
1E
#4640000
0E
#4650000
1I
#4660000
b1 ^
b11 D"
17
1S
15
1U
16
1T
b11 \
1E
#4680000
0E
#4700000
06
0T
b0 \
05
0U
07
0S
1E
0I
#4720000
0E
#4740000
b10 ^
b100 D"
17
1S
15
1U
16
1T
b1 \
1E
#4750000
1I
#4760000
0E
#4780000
06
0T
b10 \
05
0U
07
0S
1E
#4800000
0E
0I
#4820000
b11 ^
b101 D"
17
1S
15
1U
16
1T
b11 \
1E
#4840000
0E
#4850000
1I
#4860000
06
0T
b0 \
05
0U
07
0S
1E
#4880000
0E
#4900000
b100 ^
b110 D"
17
1S
15
1U
16
1T
b1 \
1E
0I
#4920000
0E
#4940000
06
0T
b10 \
05
0U
07
0S
1E
#4950000
1I
#4960000
0E
#4980000
b101 ^
b111 D"
17
1S
15
1U
16
1T
b11 \
1E
#5000000
0E
0I
#5020000
06
0T
b0 \
05
0U
07
0S
1E
#5040000
0E
#5050000
1I
#5060000
b110 ^
b1000 D"
17
1S
15
1U
16
1T
b1 \
1E
#5080000
0E
#5100000
06
0T
b10 \
05
0U
07
0S
1E
0I
#5120000
0E
#5140000
b111 ^
b1001 D"
17
1S
15
1U
16
1T
b11 \
1E
#5150000
1I
#5160000
0E
#5180000
06
0T
b0 \
05
0U
07
0S
1E
#5200000
0E
0I
#5220000
b1000 ^
b1010 D"
17
1S
15
1U
16
1T
b1 \
1E
#5240000
0E
#5250000
1I
#5260000
06
0T
b10 \
05
0U
07
0S
1E
#5280000
0E
#5300000
b1001 ^
b1011 D"
17
1S
15
1U
16
1T
b11 \
1E
0I
#5320000
0E
#5340000
06
0T
b0 \
05
0U
07
0S
1E
#5350000
1I
#5360000
0E
#5380000
b1010 ^
b1100 D"
17
1S
15
1U
16
1T
b1 \
1E
#5400000
0E
0I
#5420000
06
0T
b10 \
05
0U
07
0S
1E
#5440000
0E
#5450000
1I
#5460000
b1011 ^
b1101 D"
17
1S
15
1U
16
1T
b11 \
1E
#5480000
0E
#5500000
06
0T
b0 \
05
0U
07
0S
1E
0I
#5520000
0E
#5540000
b1100 ^
b1110 D"
17
1S
15
1U
16
1T
b1 \
1E
#5550000
1I
#5560000
0E
#5580000
06
0T
b10 \
05
0U
07
0S
1E
#5600000
0E
0I
#5620000
b1101 ^
b1111 D"
17
1S
15
1U
16
1T
b11 \
1E
#5640000
0E
#5650000
1I
#5660000
06
0T
b0 \
05
0U
07
0S
1E
#5680000
0E
#5700000
b1110 ^
b10000 D"
17
1S
15
1U
16
1T
b1 \
1E
0I
#5720000
0E
#5740000
06
0T
b10 \
05
0U
07
0S
1E
#5750000
1I
#5760000
0E
#5780000
b1111 ^
b10001 D"
17
1S
15
1U
16
1T
b11 \
1E
#5800000
0E
0I
#5820000
06
0T
b0 \
05
0U
07
0S
1E
#5840000
0E
#5850000
1I
#5860000
b10000 ^
b10010 D"
17
1S
15
1U
16
1T
b1 \
1E
#5880000
0E
#5900000
06
0T
b10 \
05
0U
07
0S
1E
0I
#5920000
0E
#5940000
b10001 ^
b10011 D"
17
1S
15
1U
16
1T
b11 \
1E
#5950000
1I
#5960000
0E
#5980000
06
0T
b0 \
05
0U
07
0S
1E
#6000000
0E
0I
#6020000
b10010 ^
b10100 D"
17
1S
15
1U
16
1T
b1 \
1E
#6040000
0E
#6050000
1I
#6060000
06
0T
b10 \
05
0U
07
0S
1E
#6080000
0E
#6100000
b10011 ^
b10101 D"
17
1S
15
1U
16
1T
b11 \
1E
0I
#6120000
0E
#6140000
06
0T
b0 \
05
0U
07
0S
1E
#6150000
1I
#6160000
0E
#6180000
b10100 ^
b10110 D"
17
1S
15
1U
16
1T
b1 \
1E
#6200000
0E
0I
#6220000
06
0T
b10 \
05
0U
07
0S
1E
#6240000
0E
#6250000
1I
#6260000
b10101 ^
b10111 D"
17
1S
15
1U
16
1T
b11 \
1E
#6280000
0E
#6300000
06
0T
b0 \
05
0U
07
0S
1E
0I
#6320000
0E
#6340000
b10110 ^
b11000 D"
17
1S
15
1U
16
1T
b1 \
1E
#6350000
1I
#6360000
0E
#6380000
06
0T
b10 \
05
0U
07
0S
1E
#6400000
0E
0I
#6420000
b10111 ^
b11001 D"
17
1S
15
1U
16
1T
b11 \
1E
#6440000
0E
#6450000
1I
#6460000
06
0T
b0 \
05
0U
07
0S
1E
#6480000
0E
#6500000
b11000 ^
b11010 D"
17
1S
15
1U
16
1T
b1 \
1E
0I
#6520000
0E
#6540000
06
0T
b10 \
05
0U
07
0S
1E
#6550000
1I
#6560000
0E
#6580000
b11001 ^
b11011 D"
17
1S
15
1U
16
1T
b11 \
1E
#6600000
0E
0I
#6620000
06
0T
b0 \
05
0U
07
0S
1E
#6640000
0E
#6650000
1I
#6660000
b11010 ^
b11100 D"
17
1S
15
1U
16
1T
b1 \
1E
#6680000
0E
#6700000
06
0T
b10 \
05
0U
07
0S
1E
0I
#6720000
0E
#6740000
b11011 ^
b11101 D"
17
1S
15
1U
16
1T
b11 \
1E
#6750000
1I
#6760000
0E
#6780000
06
0T
b0 \
05
0U
07
0S
1E
#6800000
0E
0I
#6820000
b11100 ^
b11110 D"
17
1S
15
1U
16
1T
b1 \
1E
#6840000
0E
#6850000
1I
#6860000
06
0T
b10 \
05
0U
07
0S
1E
#6880000
0E
#6900000
b11101 ^
b11111 D"
17
1S
15
1U
16
1T
b11 \
1E
0I
#6920000
0E
#6940000
06
0T
b0 \
05
0U
07
0S
1E
#6950000
1I
#6960000
0E
#6980000
b11110 ^
b100000 D"
17
1S
15
1U
16
1T
b1 \
1E
#7000000
0E
0I
#7020000
06
0T
b10 \
05
0U
07
0S
1E
#7040000
0E
#7050000
1I
#7060000
b11111 ^
b100001 D"
17
1S
15
1U
16
1T
b11 \
1E
#7080000
0E
#7100000
06
0T
b0 \
05
0U
07
0S
1E
0I
#7120000
0E
#7140000
b100000 ^
b100010 D"
17
1S
15
1U
16
1T
b1 \
1E
#7150000
1I
#7160000
0E
#7180000
06
0T
b10 \
05
0U
07
0S
1E
#7200000
0E
0I
#7220000
b100001 ^
b100011 D"
17
1S
15
1U
16
1T
b11 \
1E
#7240000
0E
#7250000
1I
#7260000
06
0T
b0 \
05
0U
07
0S
1E
#7280000
0E
#7300000
b100010 ^
b100100 D"
17
1S
15
1U
16
1T
b1 \
1E
0I
#7320000
0E
#7340000
06
0T
b10 \
05
0U
07
0S
1E
#7350000
1I
#7360000
0E
#7380000
b100011 ^
b100101 D"
17
1S
15
1U
16
1T
b11 \
1E
#7400000
0E
0I
#7420000
06
0T
b0 \
05
0U
07
0S
1E
#7440000
0E
#7450000
1I
#7460000
b100100 ^
b100110 D"
17
1S
15
1U
16
1T
b1 \
1E
#7480000
0E
#7500000
06
0T
b10 \
05
0U
07
0S
1E
0I
#7520000
0E
#7540000
b100101 ^
b100111 D"
17
1S
15
1U
16
1T
b11 \
1E
#7550000
1I
#7560000
0E
#7580000
06
0T
b0 \
05
0U
07
0S
1E
#7600000
0E
0I
#7620000
b100110 ^
b101000 D"
17
1S
15
1U
16
1T
b1 \
1E
#7640000
0E
#7650000
1I
#7660000
06
0T
b10 \
05
0U
07
0S
1E
#7680000
0E
#7700000
b100111 ^
b101001 D"
17
1S
15
1U
16
1T
b11 \
1E
0I
#7720000
0E
#7740000
06
0T
b0 \
05
0U
07
0S
1E
#7750000
1I
#7760000
0E
#7780000
b101000 ^
b101010 D"
17
1S
15
1U
16
1T
b1 \
1E
#7800000
0E
0I
#7820000
06
0T
b10 \
05
0U
07
0S
1E
#7840000
0E
#7850000
1I
#7860000
b101001 ^
b101011 D"
17
1S
15
1U
16
1T
b11 \
1E
#7880000
0E
#7900000
06
0T
b0 \
05
0U
07
0S
1E
0I
#7920000
0E
#7940000
b101010 ^
b101100 D"
17
1S
15
1U
16
1T
b1 \
1E
#7950000
1I
#7960000
0E
#7980000
06
0T
b10 \
05
0U
07
0S
1E
#8000000
0E
0I
#8020000
b101011 ^
b101101 D"
17
1S
15
1U
16
1T
b11 \
1E
#8040000
0E
#8050000
1I
#8060000
06
0T
b0 \
05
0U
07
0S
1E
#8080000
0E
#8100000
b101100 ^
b101110 D"
17
1S
15
1U
16
1T
b1 \
1E
0I
#8120000
0E
#8140000
06
0T
b10 \
05
0U
07
0S
1E
#8150000
1I
#8160000
0E
#8180000
b101101 ^
b101111 D"
17
1S
15
1U
16
1T
b11 \
1E
#8200000
0E
0I
#8220000
06
0T
b0 \
05
0U
07
0S
1E
#8240000
0E
#8250000
1I
#8260000
b101110 ^
b110000 D"
17
1S
15
1U
16
1T
b1 \
1E
#8280000
0E
#8300000
06
0T
b10 \
05
0U
07
0S
1E
0I
#8320000
0E
