sim/tb_jtag_tap.vcd
$date
	Sun Dec  7 04:27:22 2025
$end
$version
	Icarus Verilog
$end
$timescale
	1ps
$end
$scope module tb_jtag_tap $end
$var wire 1 ! tdo $end
$var wire 5 " ir_value [4:0] $end
$var wire 1 # ir_update $end
$var wire 1 $ ir_shift $end
$var wire 1 % ir_capture $end
$var wire 1 & dr_update $end
$var wire 1 ' dr_shift_out $end
$var wire 1 ( dr_shift $end
$var wire 7 ) dr_length [6:0] $end
$var wire 1 * dr_capture $end
$var parameter 32 + CLK_PERIOD $end
$var parameter 32 , IDCODE $end
$var parameter 32 - IR_LENGTH $end
$var reg 32 . captured_data [31:0] $end
$var reg 64 / dr_capture_data [63:0] $end
$var reg 1 0 dr_shift_in $end
$var reg 1 1 tck $end
$var reg 1 2 tdi $end
$var reg 1 3 tms $end
$var reg 1 4 trst_n $end
$var integer 32 5 errors [31:0] $end
$var integer 32 6 test_num [31:0] $end
$scope module dut $end
$var wire 64 7 dr_capture_data [63:0] $end
$var wire 7 8 dr_length [6:0] $end
$var wire 1 0 dr_shift_in $end
$var wire 5 9 ir_value [4:0] $end
$var wire 1 1 tck $end
$var wire 1 2 tdi $end
$var wire 1 3 tms $end
$var wire 1 4 trst_n $end
$var wire 1 # ir_update $end
$var wire 1 $ ir_shift $end
$var wire 1 % ir_capture $end
$var wire 1 & dr_update $end
$var wire 1 ' dr_shift_out $end
$var wire 1 ( dr_shift $end
$var wire 1 * dr_capture $end
$var parameter 4 : CAPTURE_DR $end
$var parameter 4 ; CAPTURE_IR $end
$var parameter 4 < EXIT1_DR $end
$var parameter 4 = EXIT1_IR $end
$var parameter 4 > EXIT2_DR $end
$var parameter 4 ? EXIT2_IR $end
$var parameter 32 @ IDCODE $end
$var parameter 5 A IR_BYPASS $end
$var parameter 5 B IR_CAPS $end
$var parameter 5 C IR_DMI $end
$var parameter 5 D IR_DTMCS $end
$var parameter 5 E IR_IDCODE $end
$var parameter 32 F IR_LENGTH $end
$var parameter 5 G IR_MEM_READ $end
$var parameter 5 H IR_MEM_WRITE $end
$var parameter 5 I IR_SIG_TAP $end
$var parameter 5 J IR_STATUS $end
$var parameter 5 K IR_TRACE_CTL $end
$var parameter 5 L IR_TRACE_DAT $end
$var parameter 4 M PAUSE_DR $end
$var parameter 4 N PAUSE_IR $end
$var parameter 4 O RUN_TEST_IDLE $end
$var parameter 4 P SELECT_DR_SCAN $end
$var parameter 4 Q SELECT_IR_SCAN $end
$var parameter 4 R SHIFT_DR $end
$var parameter 4 S SHIFT_IR $end
$var parameter 4 T TEST_LOGIC_RESET $end
$var parameter 4 U UPDATE_DR $end
$var parameter 4 V UPDATE_IR $end
$var reg 1 W bypass_reg $end
$var reg 7 X current_dr_length [6:0] $end
$var reg 64 Y dr_shift_reg [63:0] $end
$var reg 5 Z ir_hold_reg [4:0] $end
$var reg 5 [ ir_shift_reg [4:0] $end
$var reg 4 \ next_state [3:0] $end
$var reg 4 ] state [3:0] $end
$var reg 1 ! tdo $end
$upscope $end
$scope task do_shift_ir $end
$var reg 5 ^ data [4:0] $end
$var integer 32 _ i [31:0] $end
$upscope $end
$scope task goto_shift_dr $end
$upscope $end
$scope task goto_shift_ir $end
$upscope $end
$scope task jtag_clock $end
$var reg 1 ` tms_val $end
$upscope $end
$scope task jtag_reset $end
$upscope $end
$scope task load_instruction $end
$var reg 5 a ir [4:0] $end
$upscope $end
$scope task read_dr_32 $end
$var reg 32 b data [31:0] $end
$upscope $end
$scope task shift_dr_32 $end
$var reg 32 c data_in [31:0] $end
$var reg 32 d data_out [31:0] $end
$var integer 32 e i [31:0] $end
$upscope $end
$upscope $end
$enddefinitions $end
$comment Show the parameter values. $end
$dumpall
b1111 V
b1000 U
b0 T
b1011 S
b100 R
b1001 Q
b10 P
b1 O
b1101 N
b110 M
b110 L
b101 K
b111 J
b100 I
b11 H
b10 G
b101 F
b1 E
b10000 D
b10001 C
b1000 B
b11111 A
b11111011000000010000000000000001 @
b1110 ?
b111 >
b1100 =
b101 <
b1010 ;
b11 :
b101 -
b11111011000000010000000000000001 ,
b1100100 +
$end
#0
$dumpvars
bx e
bx d
bx c
bx b
bx a
x`
bx _
bx ^
bx ]
b0 \
bx [
bx Z
bx Y
bx X
xW
bx 9
bx 8
b0 7
b0 6
b0 5
14
13
02
01
00
b0 /
bx .
x*
bx )
x(
x'
x&
x%
x$
x#
bx "
0!
$end
#50000
0%
0$
0#
0*
0(
0&
b0 ]
11
#100000
01
#150000
b100000 )
b100000 8
b100000 X
b1 "
b1 9
b1 Z
11
#200000
01
1`
b1 6
#250000
11
#300000
01
#350000
11
#400000
01
#450000
11
#500000
01
#550000
11
#600000
01
#650000
11
#700000
01
#750000
11
#751000
b1 \
03
0`
#800000
01
#850000
b1 ]
11
#851000
b10 \
13
1`
b10 6
#900000
01
#950000
b1001 \
b10 ]
11
#951000
b11 \
03
0`
#1000000
01
#1050000
b100 \
1*
b11 ]
11
#1100000
01
#1150000
1'
bx11111011000000010000000000000001 Y
0*
1(
b100 ]
11
#1200000
1!
01
#1201000
b0 e
b1 d
b0 c
#1250000
0'
b0xxxxxxxxxxxxxxxxxxxxxxxxxxxxxxxx1111101100000001000000000000000 Y
11
#1300000
0!
01
#1301000
b1 e
#1350000
b0xxxxxxxxxxxxxxxxxxxxxxxxxxxxxxxx111110110000000100000000000000 Y
11
#1400000
01
#1401000
b10 e
#1450000
b0xxxxxxxxxxxxxxxxxxxxxxxxxxxxxxxx11111011000000010000000000000 Y
11
#1500000
01
#1501000
b11 e
#1550000
b0xxxxxxxxxxxxxxxxxxxxxxxxxxxxxxxx1111101100000001000000000000 Y
11
#1600000
01
#1601000
b100 e
#1650000
b0xxxxxxxxxxxxxxxxxxxxxxxxxxxxxxxx111110110000000100000000000 Y
11
#1700000
01
#1701000
b101 e
#1750000
b0xxxxxxxxxxxxxxxxxxxxxxxxxxxxxxxx11111011000000010000000000 Y
11
#1800000
01
#1801000
b110 e
#1850000
b0xxxxxxxxxxxxxxxxxxxxxxxxxxxxxxxx1111101100000001000000000 Y
11
#1900000
01
#1901000
b111 e
#1950000
b0xxxxxxxxxxxxxxxxxxxxxxxxxxxxxxxx111110110000000100000000 Y
11
#2000000
01
#2001000
b1000 e
#2050000
b0xxxxxxxxxxxxxxxxxxxxxxxxxxxxxxxx11111011000000010000000 Y
11
#2100000
01
#2101000
b1001 e
#2150000
b0xxxxxxxxxxxxxxxxxxxxxxxxxxxxxxxx1111101100000001000000 Y
11
#2200000
01
#2201000
b1010 e
#2250000
b0xxxxxxxxxxxxxxxxxxxxxxxxxxxxxxxx111110110000000100000 Y
11
#2300000
01
#2301000
b1011 e
#2350000
b0xxxxxxxxxxxxxxxxxxxxxxxxxxxxxxxx11111011000000010000 Y
11
#2400000
01
#2401000
b1100 e
#2450000
b0xxxxxxxxxxxxxxxxxxxxxxxxxxxxxxxx1111101100000001000 Y
11
#2500000
01
#2501000
b1101 e
#2550000
b0xxxxxxxxxxxxxxxxxxxxxxxxxxxxxxxx111110110000000100 Y
11
#2600000
01
#2601000
b1110 e
#2650000
b0xxxxxxxxxxxxxxxxxxxxxxxxxxxxxxxx11111011000000010 Y
11
#2700000
01
#2701000
b1111 e
#2750000
1'
b0xxxxxxxxxxxxxxxxxxxxxxxxxxxxxxxx1111101100000001 Y
11
#2800000
1!
01
#2801000
b10000000000000001 d
b10000 e
#2850000
0'
b0xxxxxxxxxxxxxxxxxxxxxxxxxxxxxxxx111110110000000 Y
11
#2900000
0!
01
#2901000
b10001 e
#2950000
b0xxxxxxxxxxxxxxxxxxxxxxxxxxxxxxxx11111011000000 Y
11
#3000000
01
#3001000
b10010 e
#3050000
b0xxxxxxxxxxxxxxxxxxxxxxxxxxxxxxxx1111101100000 Y
11
#3100000
01
#3101000
b10011 e
#3150000
b0xxxxxxxxxxxxxxxxxxxxxxxxxxxxxxxx111110110000 Y
11
#3200000
01
#3201000
b10100 e
#3250000
b0xxxxxxxxxxxxxxxxxxxxxxxxxxxxxxxx11111011000 Y
11
#3300000
01
#3301000
b10101 e
#3350000
b0xxxxxxxxxxxxxxxxxxxxxxxxxxxxxxxx1111101100 Y
11
#3400000
01
#3401000
b10110 e
#3450000
b0xxxxxxxxxxxxxxxxxxxxxxxxxxxxxxxx111110110 Y
11
#3500000
01
#3501000
b10111 e
#3550000
1'
b0xxxxxxxxxxxxxxxxxxxxxxxxxxxxxxxx11111011 Y
11
#3600000
1!
01
#3601000
b1000000010000000000000001 d
b11000 e
#3650000
b0xxxxxxxxxxxxxxxxxxxxxxxxxxxxxxxx1111101 Y
11
#3700000
01
#3701000
b11000000010000000000000001 d
b11001 e
#3750000
0'
b0xxxxxxxxxxxxxxxxxxxxxxxxxxxxxxxx111110 Y
11
#3800000
0!
01
#3801000
b11010 e
#3850000
1'
b0xxxxxxxxxxxxxxxxxxxxxxxxxxxxxxxx11111 Y
11
#3900000
1!
01
#3901000
b1011000000010000000000000001 d
b11011 e
#3950000
b0xxxxxxxxxxxxxxxxxxxxxxxxxxxxxxxx1111 Y
11
#4000000
01
#4001000
b11011000000010000000000000001 d
b11100 e
#4050000
b0xxxxxxxxxxxxxxxxxxxxxxxxxxxxxxxx111 Y
11
#4100000
01
#4101000
b111011000000010000000000000001 d
b11101 e
#4150000
b0xxxxxxxxxxxxxxxxxxxxxxxxxxxxxxxx11 Y
11
#4200000
01
#4201000
b1111011000000010000000000000001 d
b11110 e
#4250000
b0xxxxxxxxxxxxxxxxxxxxxxxxxxxxxxxx1 Y
11
#4300000
01
#4301000
b11111011000000010000000000000001 d
b11111 e
#4350000
x'
b0xxxxxxxxxxxxxxxxxxxxxxxxxxxxxxxx Y
11
#4400000
x!
01
#4401000
b101 \
13
b100000 e
#4450000
b1000 \
b0xxxxxxxxxxxxxxxxxxxxxxxxxxxxxxx Y
0(
b101 ]
11
#4500000
0!
01
#4550000
1&
b1000 ]
b1 \
03
11
#4600000
01
#4650000
0&
b1 ]
11
#4651000
b10 \
13
1`
b11111 a
b11 6
b11111011000000010000000000000001 .
b11111011000000010000000000000001 b
#4700000
01
#4750000
b1001 \
b10 ]
11
#4800000
01
#4850000
b0 \
b1001 ]
11
#4851000
b1010 \
03
0`
#4900000
01
#4950000
b1011 \
1%
b1010 ]
11
#5000000
01
#5050000
0%
1$
b1011 ]
b1 [
11
#5051000
12
b0 _
b11111 ^
#5100000
1!
01
#5150000
b10000 [
11
#5151000
b1 _
#5200000
0!
01
#5250000
b11000 [
11
#5251000
b10 _
#5300000
01
#5350000
b11100 [
11
#5351000
b11 _
#5400000
01
#5450000
b11110 [
11
#5451000
b1100 \
13
1`
b100 _
#5500000
01
#5550000
b1111 \
b11111 [
0$
b1100 ]
11
#5600000
01
#5650000
b10 \
1#
b1111 ]
11
#5651000
b1 \
03
0`
#5700000
01
#5750000
b1 )
b1 8
b1 X
b11111 "
b11111 9
b11111 Z
0#
b1 ]
11
#5751000
b10 \
13
1`
b10 a
b100 6
#5800000
01
#5850000
b1001 \
b10 ]
11
#5900000
01
#5950000
b0 \
b1001 ]
11
#5951000
b1010 \
03
0`
#6000000
01
#6050000
b1011 \
1%
b1010 ]
11
#6100000
01
#6150000
b1 [
0%
1$
b1011 ]
11
#6151000
02
b0 _
b10 ^
#6200000
1!
01
#6250000
b0 [
11
#6251000
12
b1 _
#6300000
0!
01
#6350000
b10000 [
11
#6351000
02
b10 _
#6400000
01
#6450000
b1000 [
11
#6451000
b11 _
#6500000
01
#6550000
b100 [
11
#6551000
b1100 \
13
1`
b100 _
#6600000
01
#6650000
b1111 \
0$
b1100 ]
b10 [
11
#6700000
01
#6750000
b10 \
1#
b1111 ]
11
#6751000
b1 \
03
0`
#6800000
01
#6850000
b1000000 )
b1000000 8
b1000000 X
0#
b1 ]
b10 "
b10 9
b10 Z
11
#6851000
b10 \
13
1`
b1 a
b101 6
#6900000
01
#6950000
b1001 \
b10 ]
11
#7000000
01
#7050000
b0 \
b1001 ]
11
#7051000
b1010 \
03
0`
#7100000
01
#7150000
b1011 \
1%
b1010 ]
11
#7200000
01
#7250000
0%
1$
b1011 ]
b1 [
11
#7251000
12
b0 _
b1 ^
#7300000
1!
01
#7350000
b10000 [
11
#7351000
02
b1 _
#7400000
0!
01
#7450000
b1000 [
11
#7451000
b10 _
#7500000
01
#7550000
b100 [
11
#7551000
b11 _
#7600000
01
#7650000
b10 [
11
#7651000
b1100 \
13
1`
b100 _
#7700000
01
#7750000
b1111 \
b1 [
0$
b1100 ]
11
#7800000
01
#7850000
b10 \
1#
b1111 ]
11
#7851000
b1 \
03
0`
#7900000
01
#7950000
b100000 )
b100000 8
b100000 X
b1 "
b1 9
b1 Z
0#
b1 ]
11
#7951000
b10 \
13
1`
#8000000
01
#8050000
b1001 \
b10 ]
11
#8051000
b11 \
03
0`
#8100000
01
#8150000
b100 \
1*
b11 ]
11
#8200000
01
#8250000
1'
b11111011000000010000000000000001 Y
0*
1(
b100 ]
11
#8300000
1!
01
#8301000
b0 e
b1 d
#8350000
0'
b1111101100000001000000000000000 Y
11
#8400000
0!
01
#8401000
b1 e
#8450000
b111110110000000100000000000000 Y
11
#8500000
01
#8501000
b10 e
#8550000
b11111011000000010000000000000 Y
11
#8600000
01
#8601000
b11 e
#8650000
b1111101100000001000000000000 Y
11
#8700000
01
#8701000
b100 e
#8750000
b111110110000000100000000000 Y
11
#8800000
01
#8801000
b101 e
#8850000
b11111011000000010000000000 Y
11
#8900000
01
#8901000
b110 e
#8950000
b1111101100000001000000000 Y
11
#9000000
01
#9001000
b111 e
#9050000
b111110110000000100000000 Y
11
#9100000
01
#9101000
b1000 e
#9150000
b11111011000000010000000 Y
11
#9200000
01
#9201000
b1001 e
#9250000
b1111101100000001000000 Y
11
#9300000
01
#9301000
b1010 e
#9350000
b111110110000000100000 Y
11
#9400000
01
#9401000
b1011 e
#9450000
b11111011000000010000 Y
11
#9500000
01
#9501000
b1100 e
#9550000
b1111101100000001000 Y
11
#9600000
01
#9601000
b1101 e
#9650000
b111110110000000100 Y
11
#9700000
01
#9701000
b1110 e
#9750000
b11111011000000010 Y
11
#9800000
01
#9801000
b1111 e
#9850000
1'
b1111101100000001 Y
11
#9900000
1!
01
#9901000
b10000000000000001 d
b10000 e
#9950000
0'
b111110110000000 Y
11
#10000000
0!
01
#10001000
b10001 e
#10050000
b11111011000000 Y
11
#10100000
01
#10101000
b10010 e
#10150000
b1111101100000 Y
11
#10200000
01
#10201000
b10011 e
#10250000
b111110110000 Y
11
#10300000
01
#10301000
b10100 e
#10350000
b11111011000 Y
11
#10400000
01
#10401000
b10101 e
#10450000
b1111101100 Y
11
#10500000
01
#10501000
b10110 e
#10550000
b111110110 Y
11
#10600000
01
#10601000
b10111 e
#10650000
1'
b11111011 Y
11
#10700000
1!
01
#10701000
b1000000010000000000000001 d
b11000 e
#10750000
b1111101 Y
11
#10800000
01
#10801000
b11000000010000000000000001 d
b11001 e
#10850000
0'
b111110 Y
11
#10900000
0!
01
#10901000
b11010 e
#10950000
1'
b11111 Y
11
#11000000
1!
01
#11001000
b1011000000010000000000000001 d
b11011 e
#11050000
b1111 Y
11
#11100000
01
#11101000
b11011000000010000000000000001 d
b11100 e
#11150000
b111 Y
11
#11200000
01
#11201000
b111011000000010000000000000001 d
b11101 e
#11250000
b11 Y
11
#11300000
01
#11301000
b1111011000000010000000000000001 d
b11110 e
#11350000
b1 Y
11
#11400000
01
#11401000
b11111011000000010000000000000001 d
b11111 e
#11450000
0'
b0 Y
11
#11500000
0!
01
#11501000
b101 \
13
b100000 e
#11550000
b1000 \
0(
b101 ]
11
#11600000
01
#11650000
1&
b1000 ]
b1 \
03
11
#11700000
01
#11750000
0&
b1 ]
11
#11751000
b10 \
13
1`
b110 6
#11800000
01
#11850000
b1001 \
b10 ]
11
#11851000
b11 \
03
0`
#11900000
01
#11950000
b100 \
1*
b11 ]
11
#12000000
01
#12050000
1'
b11111011000000010000000000000001 Y
0*
1(
b100 ]
11
#12100000
1!
01
#12101000
b0 e
b1 d
#12150000
0'
b1111101100000001000000000000000 Y
11
#12200000
0!
01
#12201000
b1 e
#12250000
b111110110000000100000000000000 Y
11
#12300000
01
#12301000
b10 e
#12350000
b11111011000000010000000000000 Y
11
#12400000
01
#12401000
b11 e
#12450000
b1111101100000001000000000000 Y
11
#12500000
01
#12501000
b100 e
#12550000
b111110110000000100000000000 Y
11
#12600000
01
#12601000
b101 e
#12650000
b11111011000000010000000000 Y
11
#12700000
01
#12701000
b110 e
#12750000
b1111101100000001000000000 Y
11
#12800000
01
#12801000
b111 e
#12850000
b111110110000000100000000 Y
11
#12900000
01
#12901000
b1000 e
#12950000
b11111011000000010000000 Y
11
#13000000
01
#13001000
b1001 e
#13050000
b1111101100000001000000 Y
11
#13100000
01
#13101000
b1010 e
#13150000
b111110110000000100000 Y
11
#13200000
01
#13201000
b1011 e
#13250000
b11111011000000010000 Y
11
#13300000
01
#13301000
b1100 e
#13350000
b1111101100000001000 Y
11
#13400000
01
#13401000
b1101 e
#13450000
b111110110000000100 Y
11
#13500000
01
#13501000
b1110 e
#13550000
b11111011000000010 Y
11
#13600000
01
#13601000
b1111 e
#13650000
1'
b1111101100000001 Y
11
#13700000
1!
01
#13701000
b10000000000000001 d
b10000 e
#13750000
0'
b111110110000000 Y
11
#13800000
0!
01
#13801000
b10001 e
#13850000
b11111011000000 Y
11
#13900000
01
#13901000
b10010 e
#13950000
b1111101100000 Y
11
#14000000
01
#14001000
b10011 e
#14050000
b111110110000 Y
11
#14100000
01
#14101000
b10100 e
#14150000
b11111011000 Y
11
#14200000
01
#14201000
b10101 e
#14250000
b1111101100 Y
11
#14300000
01
#14301000
b10110 e
#14350000
b111110110 Y
11
#14400000
01
#14401000
b10111 e
#14450000
1'
b11111011 Y
11
#14500000
1!
01
#14501000
b1000000010000000000000001 d
b11000 e
#14550000
b1111101 Y
11
#14600000
01
#14601000
b11000000010000000000000001 d
b11001 e
#14650000
0'
b111110 Y
11
#14700000
0!
01
#14701000
b11010 e
#14750000
1'
b11111 Y
11
#14800000
1!
01
#14801000
b1011000000010000000000000001 d
b11011 e
#14850000
b1111 Y
11
#14900000
01
#14901000
b11011000000010000000000000001 d
b11100 e
#14950000
b111 Y
11
#15000000
01
#15001000
b111011000000010000000000000001 d
b11101 e
#15050000
b11 Y
11
#15100000
01
#15101000
b1111011000000010000000000000001 d
b11110 e
#15150000
b1 Y
11
#15200000
01
#15201000
b11111011000000010000000000000001 d
b11111 e
#15250000
0'
b0 Y
11
#15300000
0!
01
#15301000
b101 \
13
b100000 e
#15350000
b1000 \
0(
b101 ]
11
#15400000
01
#15450000
1&
b1000 ]
b1 \
03
11
#15500000
01
#15550000
0&
b1 ]
11
#15551000
b10 \
13
1`
#15600000
01
#15650000
b1001 \
b10 ]
11
#15651000
b11 \
03
0`
#15700000
01
#15750000
b100 \
1*
b11 ]
11
#15800000
01
#15850000
1'
b11111011000000010000000000000001 Y
0*
1(
b100 ]
11
#15900000
1!
01
#15901000
b0 e
b1 d
#15950000
0'
b1111101100000001000000000000000 Y
11
#16000000
0!
01
#16001000
b1 e
#16050000
b111110110000000100000000000000 Y
11
#16100000
01
#16101000
b10 e
#16150000
b11111011000000010000000000000 Y
11
#16200000
01
#16201000
b11 e
#16250000
b1111101100000001000000000000 Y
11
#16300000
01
#16301000
b100 e
#16350000
b111110110000000100000000000 Y
11
#16400000
01
#16401000
b101 e
#16450000
b11111011000000010000000000 Y
11
#16500000
01
#16501000
b110 e
#16550000
b1111101100000001000000000 Y
11
#16600000
01
#16601000
b111 e
#16650000
b111110110000000100000000 Y
11
#16700000
01
#16701000
b1000 e
#16750000
b11111011000000010000000 Y
11
#16800000
01
#16801000
b1001 e
#16850000
b1111101100000001000000 Y
11
#16900000
01
#16901000
b1010 e
#16950000
b111110110000000100000 Y
11
#17000000
01
#17001000
b1011 e
#17050000
b11111011000000010000 Y
11
#17100000
01
#17101000
b1100 e
#17150000
b1111101100000001000 Y
11
#17200000
01
#17201000
b1101 e
#17250000
b111110110000000100 Y
11
#17300000
01
#17301000
b1110 e
#17350000
b11111011000000010 Y
11
#17400000
01
#17401000
b1111 e
#17450000
1'
b1111101100000001 Y
11
#17500000
1!
01
#17501000
b10000000000000001 d
b10000 e
#17550000
0'
b111110110000000 Y
11
#17600000
0!
01
#17601000
b10001 e
#17650000
b11111011000000 Y
11
#17700000
01
#17701000
b10010 e
#17750000
b1111101100000 Y
11
#17800000
01
#17801000
b10011 e
#17850000
b111110110000 Y
11
#17900000
01
#17901000
b10100 e
#17950000
b11111011000 Y
11
#18000000
01
#18001000
b10101 e
#18050000
b1111101100 Y
11
#18100000
01
#18101000
b10110 e
#18150000
b111110110 Y
11
#18200000
01
#18201000
b10111 e
#18250000
1'
b11111011 Y
11
#18300000
1!
01
#18301000
b1000000010000000000000001 d
b11000 e
#18350000
b1111101 Y
11
#18400000
01
#18401000
b11000000010000000000000001 d
b11001 e
#18450000
0'
b111110 Y
11
#18500000
0!
01
#18501000
b11010 e
#18550000
1'
b11111 Y
11
#18600000
1!
01
#18601000
b1011000000010000000000000001 d
b11011 e
#18650000
b1111 Y
11
#18700000
01
#18701000
b11011000000010000000000000001 d
b11100 e
#18750000
b111 Y
11
#18800000
01
#18801000
b111011000000010000000000000001 d
b11101 e
#18850000
b11 Y
11
#18900000
01
#18901000
b1111011000000010000000000000001 d
b11110 e
#18950000
b1 Y
11
#19000000
01
#19001000
b11111011000000010000000000000001 d
b11111 e
#19050000
0'
b0 Y
11
#19100000
0!
01
#19101000
b101 \
13
b100000 e
#19150000
b1000 \
0(
b101 ]
11
#19200000
01
#19250000
1&
b1000 ]
b1 \
03
11
#19300000
01
#19350000
0&
b1 ]
11
#19351000
b10 \
13
1`
#19400000
01
#19450000
b1001 \
b10 ]
11
#19451000
b11 \
03
0`
#19500000
01
#19550000
b100 \
1*
b11 ]
11
#19600000
01
#19650000
1'
b11111011000000010000000000000001 Y
0*
1(
b100 ]
11
#19700000
1!
01
#19701000
b0 e
b1 d
#19750000
0'
b1111101100000001000000000000000 Y
11
#19800000
0!
01
#19801000
b1 e
#19850000
b111110110000000100000000000000 Y
11
#19900000
01
#19901000
b10 e
#19950000
b11111011000000010000000000000 Y
11
#20000000
01
#20001000
b11 e
#20050000
b1111101100000001000000000000 Y
11
#20100000
01
#20101000
b100 e
#20150000
b111110110000000100000000000 Y
11
#20200000
01
#20201000
b101 e
#20250000
b11111011000000010000000000 Y
11
#20300000
01
#20301000
b110 e
#20350000
b1111101100000001000000000 Y
11
#20400000
01
#20401000
b111 e
#20450000
b111110110000000100000000 Y
11
#20500000
01
#20501000
b1000 e
#20550000
b11111011000000010000000 Y
11
#20600000
01
#20601000
b1001 e
#20650000
b1111101100000001000000 Y
11
#20700000
01
#20701000
b1010 e
#20750000
b111110110000000100000 Y
11
#20800000
01
#20801000
b1011 e
#20850000
b11111011000000010000 Y
11
#20900000
01
#20901000
b1100 e
#20950000
b1111101100000001000 Y
11
#21000000
01
#21001000
b1101 e
#21050000
b111110110000000100 Y
11
#21100000
01
#21101000
b1110 e
#21150000
b11111011000000010 Y
11
#21200000
01
#21201000
b1111 e
#21250000
1'
b1111101100000001 Y
11
#21300000
1!
01
#21301000
b10000000000000001 d
b10000 e
#21350000
0'
b111110110000000 Y
11
#21400000
0!
01
#21401000
b10001 e
#21450000
b11111011000000 Y
11
#21500000
01
#21501000
b10010 e
#21550000
b1111101100000 Y
11
#21600000
01
#21601000
b10011 e
#21650000
b111110110000 Y
11
#21700000
01
#21701000
b10100 e
#21750000
b11111011000 Y
11
#21800000
01
#21801000
b10101 e
#21850000
b1111101100 Y
11
#21900000
01
#21901000
b10110 e
#21950000
b111110110 Y
11
#22000000
01
#22001000
b10111 e
#22050000
1'
b11111011 Y
11
#22100000
1!
01
#22101000
b1000000010000000000000001 d
b11000 e
#22150000
b1111101 Y
11
#22200000
01
#22201000
b11000000010000000000000001 d
b11001 e
#22250000
0'
b111110 Y
11
#22300000
0!
01
#22301000
b11010 e
#22350000
1'
b11111 Y
11
#22400000
1!
01
#22401000
b1011000000010000000000000001 d
b11011 e
#22450000
b1111 Y
11
#22500000
01
#22501000
b11011000000010000000000000001 d
b11100 e
#22550000
b111 Y
11
#22600000
01
#22601000
b111011000000010000000000000001 d
b11101 e
#22650000
b11 Y
11
#22700000
01
#22701000
b1111011000000010000000000000001 d
b11110 e
#22750000
b1 Y
11
#22800000
01
#22801000
b11111011000000010000000000000001 d
b11111 e
#22850000
0'
b0 Y
11
#22900000
0!
01
#22901000
b101 \
13
b100000 e
#22950000
b1000 \
0(
b101 ]
11
#23000000
01
#23050000
1&
b1000 ]
b1 \
03
11
#23100000
01
#23150000
0&
b1 ]
11
#23151000
b10 \
13
1`
b111 6
#23200000
01
#23250000
b1001 \
b10 ]
11
#23300000
01
#23350000
b0 \
b1001 ]
11
#23351000
b1010 \
03
0`
#23400000
01
#23450000
b1011 \
1%
b1010 ]
11
#23500000
01
#23550000
0%
1$
b1011 ]
11
#23600000
1!
01
#23650000
b0 [
11
#23700000
0!
01
#23750000
11
#23800000
01
#23850000
11
#23900000
01
#23950000
11
#24000000
01
#24050000
11
#24051000
b1100 \
13
1`
#24100000
01
#24150000
b1111 \
0$
b1100 ]
11
#24200000
01
#24250000
b10 \
1#
b1111 ]
11
#24251000
b1 \
03
0`
#24300000
01
#24350000
b1 )
b1 8
b1 X
b0 "
b0 9
b0 Z
0#
b1 ]
11
#24351000
b10 \
13
1`
b1000 6
#24400000
01
#24450000
b1001 \
b10 ]
11
#24451000
b11 \
03
0`
#24500000
01
#24550000
b100 \
1*
b11 ]
11
#24600000
01
#24650000
0*
1(
b100 ]
11
#24700000
01
#24750000
11
#24800000
01
#24850000
11
#24900000
01
#24950000
11
#25000000
01
#25050000
11
#25100000
01
#25150000
11
#25200000
01
#25250000
11
#25300000
01
#25350000
11
#25400000
01
#25450000
11
#25500000
01
#25550000
11
#25600000
01
#25650000
11
#25700000
01
#25750000
11
#25800000
01
#25850000
11
#25900000
01
#25950000
11
#26000000
01
#26050000
11
#26100000
01
#26150000
11
#26200000
01
#26250000
11
#26300000
01
#26350000
11
#26400000
01
#26450000
11
#26500000
01
#26550000
11
#26600000
01
#26650000
11
#26700000
01
#26750000
11
#26800000
01
#26850000
11
#26900000
01
#26950000
11
#27000000
01
#27050000
11
#27100000
01
#27150000
11
#27200000
01
#27250000
11
#27300000
01
#27350000
11
#27400000
01
#27450000
11
#27500000
01
#27550000
11
#27600000
01
#27650000
11
#27700000
01
#27750000
11
#27800000
01
#27850000
11
#27851000
b101 \
13
1`
#27900000
01
#27950000
b1000 \
0(
b101 ]
11
#28000000
01
#28050000
b10 \
1&
b1000 ]
11
#28051000
b1 \
03
0`
#28100000
01
#28150000
0&
b1 ]
11
#28151000
b10 \
13
1`
b10 a
b1001 6
#28200000
01
#28250000
b1001 \
b10 ]
11
#28300000
01
#28350000
b0 \
b1001 ]
11
#28351000
b1010 \
03
0`
#28400000
01
#28450000
b1011 \
1%
b1010 ]
11
#28500000
01
#28550000
b1 [
0%
1$
b1011 ]
11
#28551000
b0 _
b10 ^
#28600000
1!
01
#28650000
b0 [
11
#28651000
12
b1 _
#28700000
0!
01
#28750000
b10000 [
11
#28751000
02
b10 _
#28800000
01
#28850000
b1000 [
11
#28851000
b11 _
#28900000
01
#28950000
b100 [
11
#28951000
b1100 \
13
1`
b100 _
#29000000
01
#29050000
b1111 \
0$
b1100 ]
b10 [
11
#29100000
01
#29150000
b10 \
1#
b1111 ]
11
#29151000
b1 \
03
0`
#29200000
01
#29250000
b1000000 )
b1000000 8
b1000000 X
0#
b1 ]
b10 "
b10 9
b10 Z
11
#29251000
b100000 )
b100000 8
b100000 X
b1 "
b1 9
b1 Z
b11111 [
b0 ]
04
#29300000
01
#29350000
11
#29400000
01
#29450000
11
#29451000
14
#29500000
01
#29550000
b1 ]
11
#29600000
01
#29650000
11
#29700000
01
#29750000
11
#29800000
01
#29850000
11
#29900000
01
#29950000
11
#30000000
01
#30050000
11
#30100000
01
#30150000
11
#30200000
01
#30250000
11
#30300000
01
#30350000
11
#30400000
01
#30450000
11
#30500000
01
#30550000
11
#30600000
01
#30650000
11
