sim/layer6/tb_system.vcd
$date
	Sun Dec  7 17:18:39 2025
$end
$version
	Icarus Verilog
$end
$timescale
	1ps
$end
$scope module tb_system $end
$var wire 1 ! clk $end
$var wire 1 " usb_connected $end
$var wire 1 # usb_configured $end
$var wire 1 $ tdo $end
$var wire 1 % sys_rst_n $end
$var wire 1 & step $end
$var wire 1 ' pll_locked $end
$var wire 1 ( motor_on $end
$var wire 1 ) head_sel $end
$var wire 1 * dir $end
$var parameter 32 + CLK_PERIOD $end
$var parameter 5 , JTAG_BYPASS $end
$var parameter 5 - JTAG_CAPS $end
$var parameter 5 . JTAG_DMI $end
$var parameter 5 / JTAG_DTMCS $end
$var parameter 5 0 JTAG_IDCODE $end
$var parameter 5 1 JTAG_MEM_READ $end
$var parameter 5 2 JTAG_MEM_WRITE $end
$var parameter 5 3 JTAG_SIG_TAP $end
$var parameter 5 4 JTAG_STATUS $end
$var parameter 32 5 TCK_PERIOD $end
$var reg 32 6 captured_data [31:0] $end
$var reg 1 7 clk_25m $end
$var reg 1 8 flux_in $end
$var reg 1 9 index_in $end
$var reg 1 : rst_n $end
$var reg 1 ; tck $end
$var reg 1 < tdi $end
$var reg 1 = tms $end
$var reg 1 > trst_n $end
$var integer 32 ? errors [31:0] $end
$var integer 32 @ pass_count [31:0] $end
$var integer 32 A test_num [31:0] $end
$scope module dut $end
$var wire 1 7 clk_25m $end
$var wire 1 B disk_ready $end
$var wire 1 8 flux_in $end
$var wire 1 9 index_in $end
$var wire 1 ' pll_locked $end
$var wire 32 C ram_rdata [31:0] $end
$var wire 1 D ram_ready $end
$var wire 32 E rom_rdata [31:0] $end
$var wire 1 F rom_ready $end
$var wire 1 : rst_n $end
$var wire 1 G sigtap_ready $end
$var wire 1 % sys_rst_n $end
$var wire 1 H sysctrl_ready $end
$var wire 1 ; tck $end
$var wire 1 < tdi $end
$var wire 1 = tms $end
$var wire 1 > trst_n $end
$var wire 1 I usb_ready $end
$var wire 1 J usb_write $end
$var wire 32 K usb_wdata [31:0] $end
$var wire 1 L usb_read $end
$var wire 32 M usb_rdata [31:0] $end
$var wire 1 " usb_connected $end
$var wire 1 # usb_configured $end
$var wire 8 N usb_addr [7:0] $end
$var wire 1 $ tdo $end
$var wire 1 O tap_tdo $end
$var wire 1 P sysctrl_write $end
$var wire 32 Q sysctrl_wdata [31:0] $end
$var wire 1 R sysctrl_read $end
$var wire 32 S sysctrl_rdata [31:0] $end
$var wire 8 T sysctrl_addr [7:0] $end
$var wire 1 U sys_rst_n_int $end
$var wire 1 & step $end
$var wire 1 V sigtap_write $end
$var wire 32 W sigtap_wdata [31:0] $end
$var wire 1 X sigtap_read $end
$var wire 32 Y sigtap_rdata [31:0] $end
$var wire 8 Z sigtap_addr [7:0] $end
$var wire 1 [ sb_write $end
$var wire 32 \ sb_wdata [31:0] $end
$var wire 3 ] sb_size [2:0] $end
$var wire 1 ^ sb_read $end
$var wire 32 _ sb_rdata [31:0] $end
$var wire 1 ` sb_error $end
$var wire 1 a sb_busy $end
$var wire 32 b sb_addr [31:0] $end
$var wire 1 c rom_read $end
$var wire 16 d rom_addr [15:0] $end
$var wire 1 e ram_write $end
$var wire 32 f ram_wdata [31:0] $end
$var wire 1 g ram_read $end
$var wire 28 h ram_addr [27:0] $end
$var wire 32 i probes [31:0] $end
$var wire 1 j pll_locked_int $end
$var wire 1 ( motor_on $end
$var wire 5 k ir_value [4:0] $end
$var wire 1 ) head_sel $end
$var wire 1 l dtm_tdo $end
$var wire 1 m dr_update $end
$var wire 1 n dr_shift $end
$var wire 1 o dr_capture $end
$var wire 32 p dmi_wdata [31:0] $end
$var wire 2 q dmi_resp [1:0] $end
$var wire 1 r dmi_req $end
$var wire 32 s dmi_rdata [31:0] $end
$var wire 2 t dmi_op [1:0] $end
$var wire 7 u dmi_addr [6:0] $end
$var wire 1 v dmi_ack $end
$var wire 1 w dma_write $end
$var wire 32 x dma_wdata [31:0] $end
$var wire 32 y dma_addr [31:0] $end
$var wire 1 z disk_write $end
$var wire 32 { disk_wdata [31:0] $end
$var wire 1 | disk_read $end
$var wire 32 } disk_rdata [31:0] $end
$var wire 8 ~ disk_addr [7:0] $end
$var wire 1 * dir $end
$var wire 1 !" clk_usb $end
$var wire 1 "" clk_sys $end
$var wire 1 #" clk_disk $end
$var reg 32 $" sysctrl_id_reg [31:0] $end
$var integer 32 %" ram_i [31:0] $end
$var integer 32 &" rom_i [31:0] $end
$scope module u_bus $end
$var wire 1 a m_busy $end
$var wire 1 ` m_error $end
$var wire 32 '" m_rdata [31:0] $end
$var wire 32 (" s0_rdata [31:0] $end
$var wire 1 c s0_read $end
$var wire 1 F s0_ready $end
$var wire 32 )" s1_rdata [31:0] $end
$var wire 1 g s1_read $end
$var wire 1 D s1_ready $end
$var wire 32 *" s1_wdata [31:0] $end
$var wire 1 e s1_write $end
$var wire 32 +" s2_rdata [31:0] $end
$var wire 1 R s2_read $end
$var wire 1 H s2_ready $end
$var wire 32 ," s2_wdata [31:0] $end
$var wire 1 P s2_write $end
$var wire 1 | s3_read $end
$var wire 1 B s3_ready $end
$var wire 32 -" s3_wdata [31:0] $end
$var wire 1 z s3_write $end
$var wire 1 L s4_read $end
$var wire 1 I s4_ready $end
$var wire 32 ." s4_wdata [31:0] $end
$var wire 1 J s4_write $end
$var wire 1 X s5_read $end
$var wire 1 G s5_ready $end
$var wire 32 /" s5_wdata [31:0] $end
$var wire 1 V s5_write $end
$var wire 32 0" s5_rdata [31:0] $end
$var wire 8 1" s5_addr [7:0] $end
$var wire 32 2" s4_rdata [31:0] $end
$var wire 8 3" s4_addr [7:0] $end
$var wire 32 4" s3_rdata [31:0] $end
$var wire 8 5" s3_addr [7:0] $end
$var wire 8 6" s2_addr [7:0] $end
$var wire 28 7" s1_addr [27:0] $end
$var wire 16 8" s0_addr [15:0] $end
$var wire 1 U rst_n $end
$var wire 1 [ m_write $end
$var wire 32 9" m_wdata [31:0] $end
$var wire 3 :" m_size [2:0] $end
$var wire 1 ^ m_read $end
$var wire 32 ;" m_addr [31:0] $end
$var wire 1 "" clk $end
$var parameter 4 <" SEL_DISK $end
$var parameter 4 =" SEL_NONE $end
$var parameter 4 >" SEL_RAM $end
$var parameter 4 ?" SEL_ROM $end
$var parameter 4 @" SEL_SIGTAP $end
$var parameter 4 A" SEL_SYSCTRL $end
$var parameter 4 B" SEL_USB $end
$var reg 32 C" rdata_mux [31:0] $end
$var reg 1 D" ready_mux $end
$var reg 4 E" slave_sel [3:0] $end
$upscope $end
$scope module u_clk_rst $end
$var wire 1 #" clk_disk $end
$var wire 1 7 clk_ref $end
$var wire 1 !" clk_usb $end
$var wire 1 > rst_debug_n $end
$var wire 1 F" rst_disk_n $end
$var wire 1 : rst_ext_n $end
$var wire 1 U rst_sys_n $end
$var wire 1 G" rst_usb_n $end
$var wire 1 H" wdt_kick $end
$var wire 1 I" wdt_reset $end
$var wire 1 J" rst_dbg_sync_n $end
$var wire 1 j pll_locked $end
$var wire 1 "" clk_sys $end
$var parameter 32 K" WATCHDOG_CYCLES $end
$var reg 1 L" clk_disk_reg $end
$var reg 1 "" clk_sys_reg $end
$var reg 1 M" clk_usb_reg $end
$var reg 8 N" lock_counter [7:0] $end
$var reg 1 j pll_locked_reg $end
$var reg 3 O" rst_dbg_sync [2:0] $end
$var reg 3 P" rst_disk_sync [2:0] $end
$var reg 3 Q" rst_sys_sync [2:0] $end
$var reg 3 R" rst_usb_sync [2:0] $end
$var reg 2 S" sys_div [1:0] $end
$var reg 3 T" usb_div [2:0] $end
$var reg 32 U" wdt_counter [31:0] $end
$var reg 1 I" wdt_expired $end
$upscope $end
$scope module u_disk $end
$var wire 8 V" addr [7:0] $end
$var wire 1 "" clk $end
$var wire 1 W" dma_ready $end
$var wire 1 8 flux_in $end
$var wire 1 9 index_in $end
$var wire 1 | read $end
$var wire 1 B ready $end
$var wire 1 U rst_n $end
$var wire 32 X" wdata [31:0] $end
$var wire 1 z write $end
$var parameter 8 Y" REG_CONTROL $end
$var parameter 8 Z" REG_DMA_ADDR $end
$var parameter 8 [" REG_DMA_LEN $end
$var parameter 8 \" REG_FLUX_CNT $end
$var parameter 8 ]" REG_INDEX_CNT $end
$var parameter 8 ^" REG_RPM $end
$var parameter 8 _" REG_STATUS $end
$var reg 1 `" capturing $end
$var reg 32 a" control_reg [31:0] $end
$var reg 1 * dir $end
$var reg 32 b" dma_addr [31:0] $end
$var reg 32 c" dma_base [31:0] $end
$var reg 1 d" dma_busy $end
$var reg 32 e" dma_len [31:0] $end
$var reg 32 f" dma_offset [31:0] $end
$var reg 32 g" dma_wdata [31:0] $end
$var reg 1 w dma_write $end
$var reg 32 h" flux_counter [31:0] $end
$var reg 1 i" flux_prev $end
$var reg 4 j" flux_rd_ptr [3:0] $end
$var reg 32 k" flux_timer [31:0] $end
$var reg 4 l" flux_wr_ptr [3:0] $end
$var reg 1 ) head_sel $end
$var reg 32 m" index_counter [31:0] $end
$var reg 1 n" index_prev $end
$var reg 1 o" index_sticky $end
$var reg 32 p" last_rpm_timer [31:0] $end
$var reg 1 ( motor_on $end
$var reg 1 q" overflow $end
$var reg 32 r" rdata [31:0] $end
$var reg 32 s" rpm_timer [31:0] $end
$var reg 32 t" rpm_value [31:0] $end
$var reg 1 & step $end
$upscope $end
$scope module u_dm $end
$var wire 1 "" clk $end
$var wire 1 U rst_n $end
$var wire 1 a sbbusy $end
$var wire 32 u" sbdata_i [31:0] $end
$var wire 1 ` sberror $end
$var wire 32 v" dmi_wdata [31:0] $end
$var wire 1 r dmi_req $end
$var wire 2 w" dmi_op [1:0] $end
$var wire 7 x" dmi_addr [6:0] $end
$var parameter 7 y" DMI_ABSTRACTCS $end
$var parameter 7 z" DMI_DMCONTROL $end
$var parameter 7 {" DMI_DMSTATUS $end
$var parameter 7 |" DMI_HARTINFO $end
$var parameter 7 }" DMI_SBADDRESS0 $end
$var parameter 7 ~" DMI_SBCS $end
$var parameter 7 !# DMI_SBDATA0 $end
$var parameter 2 "# SB_IDLE $end
$var parameter 2 ## SB_READ $end
$var parameter 2 $# SB_WAIT $end
$var parameter 2 %# SB_WRITE $end
$var reg 1 &# dmactive $end
$var reg 1 v dmi_ack $end
$var reg 32 '# dmi_rdata [31:0] $end
$var reg 2 (# dmi_resp [1:0] $end
$var reg 1 )# haltreq $end
$var reg 1 *# ndmreset $end
$var reg 32 +# sb_rdata_latch [31:0] $end
$var reg 1 ,# sb_read_pending $end
$var reg 2 -# sb_state [1:0] $end
$var reg 3 .# sbaccess [2:0] $end
$var reg 32 /# sbaddr [31:0] $end
$var reg 1 0# sbautoincrement $end
$var reg 32 1# sbdata_o [31:0] $end
$var reg 3 2# sberror_reg [2:0] $end
$var reg 1 ^ sbread $end
$var reg 1 3# sbreadonaddr $end
$var reg 1 4# sbreadondata $end
$var reg 3 5# sbsize [2:0] $end
$var reg 1 [ sbwrite $end
$upscope $end
$scope module u_dtm $end
$var wire 1 v dmi_ack $end
$var wire 32 6# dmi_rdata [31:0] $end
$var wire 2 7# dmi_resp [1:0] $end
$var wire 1 ; tck $end
$var wire 1 < tdi $end
$var wire 1 > trst_n $end
$var wire 5 8# ir_value [4:0] $end
$var wire 1 m dr_update $end
$var wire 1 n dr_shift $end
$var wire 1 o dr_capture $end
$var parameter 32 9# ABITS $end
$var parameter 32 :# IDLE_CYCLES $end
$var parameter 5 ;# IR_DMI $end
$var parameter 5 <# IR_DTMCS $end
$var reg 7 =# dmi_addr [6:0] $end
$var reg 2 ># dmi_op [1:0] $end
$var reg 1 r dmi_req $end
$var reg 41 ?# dmi_shift [40:0] $end
$var reg 2 @# dmi_status [1:0] $end
$var reg 32 A# dmi_wdata [31:0] $end
$var reg 32 B# dtmcs_shift [31:0] $end
$var reg 1 l tdo $end
$upscope $end
$scope module u_sigtap $end
$var wire 8 C# addr [7:0] $end
$var wire 1 "" clk $end
$var wire 32 D# probes [31:0] $end
$var wire 1 X read $end
$var wire 1 G ready $end
$var wire 1 U rst_n $end
$var wire 32 E# wdata [31:0] $end
$var wire 1 V write $end
$var wire 1 F# trigger_match $end
$var parameter 32 G# BUFFER_DEPTH $end
$var parameter 32 H# PROBE_WIDTH $end
$var parameter 8 I# REG_BUF_ADDR $end
$var parameter 8 J# REG_BUF_DATA $end
$var parameter 8 K# REG_CONTROL $end
$var parameter 8 L# REG_DEPTH $end
$var parameter 8 M# REG_ID $end
$var parameter 8 N# REG_POSITION $end
$var parameter 8 O# REG_PROBE_SEL $end
$var parameter 8 P# REG_STATUS $end
$var parameter 8 Q# REG_TRIGGER $end
$var parameter 8 R# REG_TRIG_MASK $end
$var parameter 2 S# ST_ARMED $end
$var parameter 2 T# ST_CAPTURING $end
$var parameter 2 U# ST_DONE $end
$var parameter 2 V# ST_IDLE $end
$var reg 32 W# buf_addr [31:0] $end
$var reg 32 X# capture_depth [31:0] $end
$var reg 32 Y# control_reg [31:0] $end
$var reg 32 Z# probe_sel [31:0] $end
$var reg 32 [# rdata [31:0] $end
$var reg 32 \# samples_after_trig [31:0] $end
$var reg 2 ]# state [1:0] $end
$var reg 32 ^# trigger_mask [31:0] $end
$var reg 8 _# trigger_pos [7:0] $end
$var reg 32 `# trigger_val [31:0] $end
$var reg 1 a# triggered $end
$var reg 8 b# wr_ptr [7:0] $end
$var integer 32 c# i [31:0] $end
$upscope $end
$scope module u_tap $end
$var wire 64 d# dr_capture_data [63:0] $end
$var wire 7 e# dr_length [6:0] $end
$var wire 1 f# dr_shift_in $end
$var wire 5 g# ir_value [4:0] $end
$var wire 1 ; tck $end
$var wire 1 < tdi $end
$var wire 1 = tms $end
$var wire 1 > trst_n $end
$var wire 1 h# ir_update $end
$var wire 1 i# ir_shift $end
$var wire 1 j# ir_capture $end
$var wire 1 m dr_update $end
$var wire 1 k# dr_shift_out $end
$var wire 1 n dr_shift $end
$var wire 1 o dr_capture $end
$var parameter 4 l# CAPTURE_DR $end
$var parameter 4 m# CAPTURE_IR $end
$var parameter 4 n# EXIT1_DR $end
$var parameter 4 o# EXIT1_IR $end
$var parameter 4 p# EXIT2_DR $end
$var parameter 4 q# EXIT2_IR $end
$var parameter 32 r# IDCODE $end
$var parameter 5 s# IR_BYPASS $end
$var parameter 5 t# IR_CAPS $end
$var parameter 5 u# IR_DMI $end
$var parameter 5 v# IR_DTMCS $end
$var parameter 5 w# IR_IDCODE $end
$var parameter 32 x# IR_LENGTH $end
$var parameter 5 y# IR_MEM_READ $end
$var parameter 5 z# IR_MEM_WRITE $end
$var parameter 5 {# IR_SIG_TAP $end
$var parameter 5 |# IR_STATUS $end
$var parameter 5 }# IR_TRACE_CTL $end
$var parameter 5 ~# IR_TRACE_DAT $end
$var parameter 4 !$ PAUSE_DR $end
$var parameter 4 "$ PAUSE_IR $end
$var parameter 4 #$ RUN_TEST_IDLE $end
$var parameter 4 $$ SELECT_DR_SCAN $end
$var parameter 4 %$ SELECT_IR_SCAN $end
$var parameter 4 &$ SHIFT_DR $end
$var parameter 4 '$ SHIFT_IR $end
$var parameter 4 ($ TEST_LOGIC_RESET $end
$var parameter 4 )$ UPDATE_DR $end
$var parameter 4 *$ UPDATE_IR $end
$var reg 1 +$ bypass_reg $end
$var reg 7 ,$ current_dr_length [6:0] $end
$var reg 64 -$ dr_shift_reg [63:0] $end
$var reg 5 .$ ir_hold_reg [4:0] $end
$var reg 5 /$ ir_shift_reg [4:0] $end
$var reg 4 0$ next_state [3:0] $end
$var reg 4 1$ state [3:0] $end
$var reg 1 O tdo $end
$upscope $end
$scope module u_usb $end
$var wire 8 2$ addr [7:0] $end
$var wire 1 "" clk $end
$var wire 1 L read $end
$var wire 1 I ready $end
$var wire 1 U rst_n $end
$var wire 1 # usb_configured $end
$var wire 1 " usb_connected $end
$var wire 32 3$ wdata [31:0] $end
$var wire 1 J write $end
$var parameter 8 4$ REG_CONTROL $end
$var parameter 8 5$ REG_EP0 $end
$var parameter 8 6$ REG_ID $end
$var parameter 8 7$ REG_STATUS $end
$var reg 1 # configured $end
$var reg 1 " connected $end
$var reg 32 8$ control_reg [31:0] $end
$var reg 32 9$ ep0_data [31:0] $end
$var reg 32 :$ rdata [31:0] $end
$upscope $end
$upscope $end
$scope task dmi_read $end
$var reg 7 ;$ addr [6:0] $end
$var reg 32 <$ data [31:0] $end
$var reg 41 =$ dmi_in [40:0] $end
$var reg 41 >$ dmi_out [40:0] $end
$upscope $end
$scope task dmi_reg_read $end
$var reg 7 ?$ addr [6:0] $end
$var reg 32 @$ data [31:0] $end
$var reg 41 A$ dmi_in [40:0] $end
$var reg 41 B$ dmi_out [40:0] $end
$upscope $end
$scope task dmi_reg_write $end
$var reg 7 C$ addr [6:0] $end
$var reg 32 D$ data [31:0] $end
$var reg 41 E$ dmi_in [40:0] $end
$var reg 41 F$ dmi_out [40:0] $end
$upscope $end
$scope task dmi_write $end
$var reg 7 G$ addr [6:0] $end
$var reg 32 H$ data [31:0] $end
$var reg 41 I$ dmi_in [40:0] $end
$var reg 41 J$ dmi_out [40:0] $end
$upscope $end
$scope task goto_shift_dr $end
$upscope $end
$scope task goto_shift_ir $end
$upscope $end
$scope task jtag_clock $end
$var reg 1 K$ tms_val $end
$upscope $end
$scope task jtag_mem_read $end
$var reg 32 L$ addr [31:0] $end
$var reg 32 M$ data [31:0] $end
$upscope $end
$scope task jtag_mem_write $end
$var reg 32 N$ addr [31:0] $end
$var reg 32 O$ data [31:0] $end
$upscope $end
$scope task jtag_reset $end
$upscope $end
$scope task mem_read $end
$var reg 32 P$ addr [31:0] $end
$var reg 32 Q$ data [31:0] $end
$upscope $end
$scope task mem_write $end
$var reg 32 R$ addr [31:0] $end
$var reg 32 S$ data [31:0] $end
$upscope $end
$scope task read_idcode $end
$var reg 32 T$ idcode [31:0] $end
$upscope $end
$scope task shift_dr_32 $end
$var reg 32 U$ data_in [31:0] $end
$var reg 32 V$ data_out [31:0] $end
$var integer 32 W$ i [31:0] $end
$upscope $end
$scope task shift_dr_41 $end
$var reg 41 X$ data_in [40:0] $end
$var reg 41 Y$ data_out [40:0] $end
$var integer 32 Z$ i [31:0] $end
$upscope $end
$scope task shift_dr_64 $end
$var reg 64 [$ data_in [63:0] $end
$var reg 64 \$ data_out [63:0] $end
$var integer 32 ]$ i [31:0] $end
$upscope $end
$scope task shift_ir $end
$var reg 5 ^$ ir_data [4:0] $end
$var integer 32 _$ i [31:0] $end
$upscope $end
$upscope $end
$enddefinitions $end
$comment Show the parameter values. $end
$dumpall
b100 7$
b0 6$
b1100 5$
b1000 4$
b1111 *$
b1000 )$
b0 ($
b1011 '$
b100 &$
b1001 %$
b10 $$
b1 #$
b1101 "$
b110 !$
b110 ~#
b101 }#
b111 |#
b100 {#
b11 z#
b10 y#
b101 x#
b1 w#
b10000 v#
b10001 u#
b1000 t#
b11111 s#
b11111011000000010000000000000001 r#
b1110 q#
b111 p#
b1100 o#
b101 n#
b1010 m#
b11 l#
b0 V#
b11 U#
b10 T#
b1 S#
b10000 R#
b1100 Q#
b100 P#
b10100 O#
b100100 N#
b0 M#
b100000 L#
b1000 K#
b11100 J#
b11000 I#
b100000 H#
b100000000 G#
b10000 <#
b10001 ;#
b1 :#
b111 9#
b10 %#
b11 $#
b1 ##
b0 "#
b111100 !#
b111000 ~"
b111001 }"
b10010 |"
b10001 {"
b10000 z"
b10110 y"
b0 _"
b10100 ^"
b10000 ]"
b11000 \"
b1100 ["
b1000 Z"
b100 Y"
b101111101011110000100000000 K"
b101 B"
b11 A"
b110 @"
b1 ?"
b10 >"
b0 ="
b100 <"
b1100100 5
b111 4
b100 3
b11 2
b10 1
b1 0
b10000 /
b10001 .
b1000 -
b11111 ,
b101000 +
$end
#0
$dumpvars
bx _$
bx ^$
bx ]$
bx \$
bx [$
bx Z$
bx Y$
bx X$
bx W$
bx V$
bx U$
bx T$
bx S$
bx R$
bx Q$
bx P$
bx O$
bx N$
bx M$
bx L$
xK$
bx J$
bx I$
bx H$
bx G$
bx F$
bx E$
bx D$
bx C$
bx B$
bx A$
bx @$
bx ?$
bx >$
bx =$
bx <$
bx ;$
b101101100100000000000000001 :$
b0 9$
b0 8$
b0 3$
b0 2$
b0 1$
b0 0$
b11111 /$
b1 .$
bx -$
b100000 ,$
x+$
xk#
0j#
0i#
0h#
b1 g#
zf#
b100000 e#
bz d#
b100000000 c#
b0 b#
0a#
b0 `#
b0 _#
b11111111111111111111111111111111 ^#
b0 ]#
b0 \#
b1010001011001110000000000000001 [#
b0 Z#
b0 Y#
b100000000 X#
b0 W#
0F#
b0 E#
b1000 D#
b0 C#
b0 B#
b0 A#
b0 @#
b0 ?#
b0 >#
b0 =#
b1 8#
b0 7#
b0 6#
b10 5#
04#
03#
b0 2#
b0 1#
00#
b0 /#
b10 .#
b0 -#
0,#
b0 +#
0*#
0)#
b0 (#
b0 '#
0&#
b0 x"
b0 w"
b0 v"
b10011000000000000000000000000 u"
b0 t"
b0 s"
b1 r"
0q"
b0 p"
0o"
0n"
b0 m"
b0 l"
b0 k"
b0 j"
0i"
b0 h"
b0 g"
b0 f"
b0 e"
0d"
b0 c"
b0 b"
b0 a"
0`"
b0 X"
1W"
b0 V"
b0 U"
b0 T"
b0 S"
b0 R"
b0 Q"
b0 P"
b0 O"
b0 N"
0M"
0L"
0J"
0I"
1H"
0G"
0F"
b1 E"
1D"
b10011000000000000000000000000 C"
b0 ;"
b10 :"
b0 9"
b0 8"
b0 7"
b0 6"
b0 5"
b1 4"
b0 3"
b101101100100000000000000001 2"
b0 1"
b1010001011001110000000000000001 0"
b0 /"
b0 ."
b0 -"
b0 ,"
b11111011000000010000000100000000 +"
b0 *"
b1011010000000000000000000000000 )"
b10011000000000000000000000000 ("
b10011000000000000000000000000 '"
b100000000000000 &"
b100000000000000 %"
b11111011000000010000000100000000 $"
0#"
0""
0!"
b0 ~
b1 }
0|
b0 {
0z
b0 y
b0 x
0w
0v
b0 u
b0 t
b0 s
0r
b0 q
b0 p
0o
0n
0m
0l
b1 k
0j
b1000 i
b0 h
0g
b0 f
0e
b0 d
0c
b0 b
0a
0`
b10011000000000000000000000000 _
0^
b10 ]
b0 \
0[
b0 Z
b1010001011001110000000000000001 Y
0X
b0 W
0V
0U
b0 T
b11111011000000010000000100000000 S
0R
b0 Q
0P
0O
b0 N
b101101100100000000000000001 M
0L
b0 K
0J
1I
1H
1G
1F
b10011000000000000000000000000 E
1D
b1011010000000000000000000000000 C
1B
b1 A
b0 @
b0 ?
0>
1=
0<
0;
0:
09
08
07
bx 6
0*
0)
0(
0'
0&
0%
0$
0#
0"
0!
$end
#20000
17
#40000
07
#50000
1;
#60000
17
#80000
07
#100000
b1 N"
1#"
1L"
1!"
1M"
1!
1""
b1 S"
17
0;
1>
1:
#120000
07
#140000
0!
0""
b10 S"
0!"
0M"
0#"
0L"
b10 N"
17
#150000
1;
#160000
07
#180000
b11 N"
1#"
1L"
1!"
1M"
1!
1""
b11 S"
17
#200000
07
0;
#220000
0!
0""
b0 S"
0!"
0M"
0#"
0L"
b100 N"
17
#240000
07
#250000
1;
#260000
b101 N"
1#"
1L"
1!"
1M"
1!
1""
b1 S"
17
#280000
07
#300000
0!
0""
b10 S"
0!"
0M"
0#"
0L"
b110 N"
17
0;
#320000
07
#340000
b111 N"
1#"
1L"
1!"
1M"
1!
1""
b11 S"
17
#350000
1;
#360000
07
#380000
0!
0""
b0 S"
0!"
0M"
0#"
0L"
b1000 N"
17
#400000
07
0;
#420000
b1001 N"
1#"
1L"
1!"
1M"
1!
1""
b1 S"
17
#440000
07
#450000
1;
#460000
0!
0""
b10 S"
0!"
0M"
0#"
0L"
b1010 N"
17
#480000
07
#500000
b1011 N"
1#"
1L"
1!"
1M"
1!
1""
b11 S"
17
0;
#520000
07
#540000
0!
0""
b0 S"
0!"
0M"
0#"
0L"
b1100 N"
17
#550000
1;
#560000
07
#580000
b1101 N"
1#"
1L"
1!"
1M"
1!
1""
b1 S"
17
#600000
07
0;
#620000
0!
0""
b10 S"
0!"
0M"
0#"
0L"
b1110 N"
17
#640000
07
#650000
1;
#660000
b1111 N"
1#"
1L"
1!"
1M"
1!
1""
b11 S"
17
#680000
07
#700000
0!
0""
b0 S"
0!"
0M"
0#"
0L"
b10000 N"
17
0;
#720000
07
#740000
b10001 N"
1#"
1L"
1!"
1M"
1!
1""
b1 S"
17
#750000
1;
#760000
07
#780000
0!
0""
b10 S"
0!"
0M"
0#"
0L"
b10010 N"
17
#800000
07
0;
#820000
b10011 N"
1#"
1L"
1!"
1M"
1!
1""
b11 S"
17
#840000
07
#850000
1;
#860000
0!
0""
b0 S"
0!"
0M"
0#"
0L"
b10100 N"
17
#880000
07
#900000
b10101 N"
1#"
1L"
1!"
1M"
1!
1""
b1 S"
17
0;
#920000
07
#940000
0!
0""
b10 S"
0!"
0M"
0#"
0L"
b10110 N"
17
#950000
1;
#960000
07
#980000
b10111 N"
1#"
1L"
1!"
1M"
1!
1""
b11 S"
17
#1000000
07
0;
#1020000
0!
0""
b0 S"
0!"
0M"
0#"
0L"
b11000 N"
17
#1040000
07
#1050000
1;
#1060000
b11001 N"
1#"
1L"
1!"
1M"
1!
1""
b1 S"
17
#1080000
07
#1100000
0!
0""
b10 S"
0!"
0M"
0#"
0L"
b11010 N"
17
0;
#1120000
07
#1140000
b11011 N"
1#"
1L"
1!"
1M"
1!
1""
b11 S"
17
#1150000
1;
#1160000
07
#1180000
0!
0""
b0 S"
0!"
0M"
0#"
0L"
b11100 N"
17
#1200000
07
0;
#1220000
b11101 N"
1#"
1L"
1!"
1M"
1!
1""
b1 S"
17
#1240000
07
#1250000
1;
#1260000
0!
0""
b10 S"
0!"
0M"
0#"
0L"
b11110 N"
17
#1280000
07
#1300000
b11111 N"
1#"
1L"
1!"
1M"
1!
1""
b11 S"
17
0;
#1320000
07
#1340000
0!
0""
b0 S"
0!"
0M"
0#"
0L"
b100000 N"
17
#1350000
1;
#1360000
07
#1380000
b100001 N"
1#"
1L"
1!"
1M"
1!
1""
b1 S"
17
#1400000
07
0;
#1420000
0!
0""
b10 S"
0!"
0M"
0#"
0L"
b100010 N"
17
#1440000
07
#1450000
1;
#1460000
b100011 N"
1#"
1L"
1!"
1M"
1!
1""
b11 S"
17
#1480000
07
#1500000
0!
0""
b0 S"
0!"
0M"
0#"
0L"
b100100 N"
17
0;
#1520000
07
#1540000
b100101 N"
1#"
1L"
1!"
1M"
1!
1""
b1 S"
17
#1550000
1;
#1560000
07
#1580000
0!
0""
b10 S"
0!"
0M"
0#"
0L"
b100110 N"
17
#1600000
07
0;
#1620000
b100111 N"
1#"
1L"
1!"
1M"
1!
1""
b11 S"
17
#1640000
07
#1650000
1;
#1660000
0!
0""
b0 S"
0!"
0M"
0#"
0L"
b101000 N"
17
#1680000
07
#1700000
b101001 N"
1#"
1L"
1!"
1M"
1!
1""
b1 S"
17
0;
#1720000
07
#1740000
0!
0""
b10 S"
0!"
0M"
0#"
0L"
b101010 N"
17
#1750000
1;
#1760000
07
#1780000
b101011 N"
1#"
1L"
1!"
1M"
1!
1""
b11 S"
17
#1800000
07
0;
#1820000
0!
0""
b0 S"
0!"
0M"
0#"
0L"
b101100 N"
17
#1840000
07
#1850000
1;
#1860000
b101101 N"
1#"
1L"
1!"
1M"
1!
1""
b1 S"
17
#1880000
07
#1900000
0!
0""
b10 S"
0!"
0M"
0#"
0L"
b101110 N"
17
0;
#1920000
07
#1940000
b101111 N"
1#"
1L"
1!"
1M"
1!
1""
b11 S"
17
#1950000
1;
#1960000
07
#1980000
0!
0""
b0 S"
0!"
0M"
0#"
0L"
b110000 N"
17
#2000000
07
0;
#2020000
b110001 N"
1#"
1L"
1!"
1M"
1!
1""
b1 S"
17
#2040000
07
#2050000
1;
#2060000
0!
0""
b10 S"
0!"
0M"
0#"
0L"
b110010 N"
17
#2080000
07
#2100000
b110011 N"
1#"
1L"
1!"
1M"
1!
1""
b11 S"
17
0;
#2120000
07
#2140000
0!
0""
b0 S"
0!"
0M"
0#"
0L"
b110100 N"
17
#2150000
1;
#2160000
07
#2180000
b110101 N"
1#"
1L"
1!"
1M"
1!
1""
b1 S"
17
#2200000
07
0;
#2220000
0!
0""
b10 S"
0!"
0M"
0#"
0L"
b110110 N"
17
#2240000
07
#2250000
1;
#2260000
b110111 N"
1#"
1L"
1!"
1M"
1!
1""
b11 S"
17
#2280000
07
#2300000
0!
0""
b0 S"
0!"
0M"
0#"
0L"
b111000 N"
17
0;
#2320000
07
#2340000
b111001 N"
1#"
1L"
1!"
1M"
1!
1""
b1 S"
17
#2350000
1;
#2360000
07
#2380000
0!
0""
b10 S"
0!"
0M"
0#"
0L"
b111010 N"
17
#2400000
07
0;
#2420000
b111011 N"
1#"
1L"
1!"
1M"
1!
1""
b11 S"
17
#2440000
07
#2450000
1;
#2460000
0!
0""
b0 S"
0!"
0M"
0#"
0L"
b111100 N"
17
#2480000
07
#2500000
b111101 N"
1#"
1L"
1!"
1M"
1!
1""
b1 S"
17
0;
#2520000
07
#2540000
0!
0""
b10 S"
0!"
0M"
0#"
0L"
b111110 N"
17
#2550000
1;
#2560000
07
#2580000
b111111 N"
1#"
1L"
1!"
1M"
1!
1""
b11 S"
17
#2600000
07
0;
#2620000
0!
0""
b0 S"
0!"
0M"
0#"
0L"
b1000000 N"
17
#2640000
07
#2650000
1;
#2660000
b1000001 N"
1#"
1L"
1!"
1M"
1!
1""
b1 S"
17
#2680000
07
#2700000
0!
0""
b10 S"
0!"
0M"
0#"
0L"
b1000010 N"
17
0;
#2720000
07
#2740000
b1000011 N"
1#"
1L"
1!"
1M"
1!
1""
b11 S"
17
#2750000
1;
#2760000
07
#2780000
0!
0""
b0 S"
0!"
0M"
0#"
0L"
b1000100 N"
17
