sim/layer2/tb_debug_module.vcd
$date
	Sun Dec  7 17:18:49 2025
$end
$version
	Icarus Verilog
$end
$timescale
	1ps
$end
$scope module tb_debug_module $end
$var wire 32 ! sbdata_i [31:0] $end
$var wire 1 " tdo $end
$var wire 1 # tap_tdo $end
$var wire 1 $ sbwrite $end
$var wire 3 % sbsize [2:0] $end
$var wire 1 & sbread $end
$var wire 32 ' sbdata_o [31:0] $end
$var wire 32 ( sbaddr [31:0] $end
$var wire 5 ) ir_value [4:0] $end
$var wire 1 * ir_update $end
$var wire 1 + ir_shift $end
$var wire 1 , ir_capture $end
$var wire 1 - dtm_tdo $end
$var wire 1 . dr_update $end
$var wire 1 / dr_shift $end
$var wire 1 0 dr_capture $end
$var wire 32 1 dmi_wdata [31:0] $end
$var wire 2 2 dmi_resp [1:0] $end
$var wire 1 3 dmi_req $end
$var wire 32 4 dmi_rdata [31:0] $end
$var wire 2 5 dmi_op [1:0] $end
$var wire 7 6 dmi_addr [6:0] $end
$var wire 1 7 dmi_ack $end
$var parameter 32 8 CLK_PERIOD $end
$var parameter 5 9 JTAG_BYPASS $end
$var parameter 5 : JTAG_CAPS $end
$var parameter 5 ; JTAG_DMI $end
$var parameter 5 < JTAG_DTMCS $end
$var parameter 5 = JTAG_IDCODE $end
$var parameter 5 > JTAG_MEM_READ $end
$var parameter 5 ? JTAG_MEM_WRITE $end
$var parameter 5 @ JTAG_SIG_TAP $end
$var parameter 5 A JTAG_STATUS $end
$var parameter 32 B TCK_PERIOD $end
$var reg 32 C captured_data [31:0] $end
$var reg 1 D clk $end
$var reg 1 E rst_n $end
$var reg 32 F sb_rdata_reg [31:0] $end
$var reg 1 G sbbusy $end
$var reg 1 H sberror $end
$var reg 1 I tck $end
$var reg 1 J tdi $end
$var reg 1 K tms $end
$var reg 1 L trst_n $end
$var integer 32 M errors [31:0] $end
$var integer 32 N i [31:0] $end
$var integer 32 O test_num [31:0] $end
$scope module dm $end
$var wire 1 D clk $end
$var wire 1 E rst_n $end
$var wire 1 G sbbusy $end
$var wire 32 P sbdata_i [31:0] $end
$var wire 1 H sberror $end
$var wire 32 Q dmi_wdata [31:0] $end
$var wire 1 3 dmi_req $end
$var wire 2 R dmi_op [1:0] $end
$var wire 7 S dmi_addr [6:0] $end
$var parameter 7 T DMI_ABSTRACTCS $end
$var parameter 7 U DMI_DMCONTROL $end
$var parameter 7 V DMI_DMSTATUS $end
$var parameter 7 W DMI_HARTINFO $end
$var parameter 7 X DMI_SBADDRESS0 $end
$var parameter 7 Y DMI_SBCS $end
$var parameter 7 Z DMI_SBDATA0 $end
$var parameter 2 [ SB_IDLE $end
$var parameter 2 \ SB_READ $end
$var parameter 2 ] SB_WAIT $end
$var parameter 2 ^ SB_WRITE $end
$var reg 1 _ dmactive $end
$var reg 1 7 dmi_ack $end
$var reg 32 ` dmi_rdata [31:0] $end
$var reg 2 a dmi_resp [1:0] $end
$var reg 1 b haltreq $end
$var reg 1 c ndmreset $end
$var reg 32 d sb_rdata_latch [31:0] $end
$var reg 1 e sb_read_pending $end
$var reg 2 f sb_state [1:0] $end
$var reg 3 g sbaccess [2:0] $end
$var reg 32 h sbaddr [31:0] $end
$var reg 1 i sbautoincrement $end
$var reg 32 j sbdata_o [31:0] $end
$var reg 3 k sberror_reg [2:0] $end
$var reg 1 & sbread $end
$var reg 1 l sbreadonaddr $end
$var reg 1 m sbreadondata $end
$var reg 3 n sbsize [2:0] $end
$var reg 1 $ sbwrite $end
$upscope $end
$scope module dtm $end
$var wire 1 7 dmi_ack $end
$var wire 32 o dmi_rdata [31:0] $end
$var wire 2 p dmi_resp [1:0] $end
$var wire 1 I tck $end
$var wire 1 J tdi $end
$var wire 1 L trst_n $end
$var wire 5 q ir_value [4:0] $end
$var wire 1 . dr_update $end
$var wire 1 / dr_shift $end
$var wire 1 0 dr_capture $end
$var parameter 32 r ABITS $end
$var parameter 32 s IDLE_CYCLES $end
$var parameter 5 t IR_DMI $end
$var parameter 5 u IR_DTMCS $end
$var reg 7 v dmi_addr [6:0] $end
$var reg 2 w dmi_op [1:0] $end
$var reg 1 3 dmi_req $end
$var reg 41 x dmi_shift [40:0] $end
$var reg 2 y dmi_status [1:0] $end
$var reg 32 z dmi_wdata [31:0] $end
$var reg 32 { dtmcs_shift [31:0] $end
$var reg 1 - tdo $end
$upscope $end
$scope module tap $end
$var wire 64 | dr_capture_data [63:0] $end
$var wire 7 } dr_length [6:0] $end
$var wire 1 ~ dr_shift_in $end
$var wire 5 !" ir_value [4:0] $end
$var wire 1 I tck $end
$var wire 1 J tdi $end
$var wire 1 K tms $end
$var wire 1 L trst_n $end
$var wire 1 * ir_update $end
$var wire 1 + ir_shift $end
$var wire 1 , ir_capture $end
$var wire 1 . dr_update $end
$var wire 1 "" dr_shift_out $end
$var wire 1 / dr_shift $end
$var wire 1 0 dr_capture $end
$var parameter 4 #" CAPTURE_DR $end
$var parameter 4 $" CAPTURE_IR $end
$var parameter 4 %" EXIT1_DR $end
$var parameter 4 &" EXIT1_IR $end
$var parameter 4 '" EXIT2_DR $end
$var parameter 4 (" EXIT2_IR $end
$var parameter 32 )" IDCODE $end
$var parameter 5 *" IR_BYPASS $end
$var parameter 5 +" IR_CAPS $end
$var parameter 5 ," IR_DMI $end
$var parameter 5 -" IR_DTMCS $end
$var parameter 5 ." IR_IDCODE $end
$var parameter 32 /" IR_LENGTH $end
$var parameter 5 0" IR_MEM_READ $end
$var parameter 5 1" IR_MEM_WRITE $end
$var parameter 5 2" IR_SIG_TAP $end
$var parameter 5 3" IR_STATUS $end
$var parameter 5 4" IR_TRACE_CTL $end
$var parameter 5 5" IR_TRACE_DAT $end
$var parameter 4 6" PAUSE_DR $end
$var parameter 4 7" PAUSE_IR $end
$var parameter 4 8" RUN_TEST_IDLE $end
$var parameter 4 9" SELECT_DR_SCAN $end
$var parameter 4 :" SELECT_IR_SCAN $end
$var parameter 4 ;" SHIFT_DR $end
$var parameter 4 <" SHIFT_IR $end
$var parameter 4 =" TEST_LOGIC_RESET $end
$var parameter 4 >" UPDATE_DR $end
$var parameter 4 ?" UPDATE_IR $end
$var reg 1 @" bypass_reg $end
$var reg 7 A" current_dr_length [6:0] $end
$var reg 64 B" dr_shift_reg [63:0] $end
$var reg 5 C" ir_hold_reg [4:0] $end
$var reg 5 D" ir_shift_reg [4:0] $end
$var reg 4 E" next_state [3:0] $end
$var reg 4 F" state [3:0] $end
$var reg 1 # tdo $end
$upscope $end
$scope task dmi_read $end
$var reg 7 G" addr [6:0] $end
$var reg 32 H" data [31:0] $end
$var reg 41 I" dmi_in [40:0] $end
$var reg 41 J" dmi_out [40:0] $end
$upscope $end
$scope task dmi_reg_read $end
$var reg 7 K" addr [6:0] $end
$var reg 32 L" data [31:0] $end
$var reg 41 M" dmi_in [40:0] $end
$var reg 41 N" dmi_out [40:0] $end
$upscope $end
$scope task dmi_reg_write $end
$var reg 7 O" addr [6:0] $end
$var reg 32 P" data [31:0] $end
$var reg 41 Q" dmi_in [40:0] $end
$var reg 41 R" dmi_out [40:0] $end
$upscope $end
$scope task dmi_write $end
$var reg 7 S" addr [6:0] $end
$var reg 32 T" data [31:0] $end
$var reg 41 U" dmi_in [40:0] $end
$var reg 41 V" dmi_out [40:0] $end
$upscope $end
$scope task goto_shift_dr $end
$upscope $end
$scope task goto_shift_ir $end
$upscope $end
$scope task jtag_clock $end
$var reg 1 W" tms_val $end
$upscope $end
$scope task jtag_reset $end
$upscope $end
$scope task mem_read $end
$var reg 32 X" addr [31:0] $end
$var reg 32 Y" data [31:0] $end
$upscope $end
$scope task mem_write $end
$var reg 32 Z" addr [31:0] $end
$var reg 32 [" data [31:0] $end
$upscope $end
$scope task read_idcode $end
$var reg 32 \" idcode [31:0] $end
$upscope $end
$scope task sb_mem_read $end
$var reg 32 ]" addr [31:0] $end
$var reg 32 ^" data [31:0] $end
$upscope $end
$scope task sb_mem_write $end
$var reg 32 _" addr [31:0] $end
$var reg 32 `" data [31:0] $end
$upscope $end
$scope task shift_dr_32 $end
$var reg 32 a" data_in [31:0] $end
$var reg 32 b" data_out [31:0] $end
$var integer 32 c" i [31:0] $end
$upscope $end
$scope task shift_dr_41 $end
$var reg 41 d" data_in [40:0] $end
$var reg 41 e" data_out [40:0] $end
$var integer 32 f" i [31:0] $end
$upscope $end
$scope task shift_dr_64 $end
$var reg 64 g" data_in [63:0] $end
$var reg 64 h" data_out [63:0] $end
$var integer 32 i" i [31:0] $end
$upscope $end
$scope task shift_ir $end
$var reg 5 j" ir_data [4:0] $end
$var integer 32 k" i [31:0] $end
$upscope $end
$upscope $end
$enddefinitions $end
$comment Show the parameter values. $end
$dumpall
b1111 ?"
b1000 >"
b0 ="
b1011 <"
b100 ;"
b1001 :"
b10 9"
b1 8"
b1101 7"
b110 6"
b110 5"
b101 4"
b111 3"
b100 2"
b11 1"
b10 0"
b101 /"
b1 ."
b10000 -"
b10001 ,"
b1000 +"
b11111 *"
b11111011000000010000000000000001 )"
b1110 ("
b111 '"
b1100 &"
b101 %"
b1010 $"
b11 #"
b10000 u
b10001 t
b1 s
b111 r
b10 ^
b11 ]
b1 \
b0 [
b111100 Z
b111000 Y
b111001 X
b10010 W
b10001 V
b10000 U
b10110 T
b1100100 B
b111 A
b100 @
b11 ?
b10 >
b1 =
b10000 <
b10001 ;
b1000 :
b11111 9
b1010 8
$end
#0
$dumpvars
bx k"
bx j"
bx i"
bx h"
bx g"
bx f"
bx e"
bx d"
bx c"
bx b"
bx a"
bx `"
bx _"
bx ^"
bx ]"
bx \"
bx ["
bx Z"
bx Y"
bx X"
xW"
bx V"
bx U"
bx T"
bx S"
bx R"
bx Q"
bx P"
bx O"
bx N"
bx M"
bx L"
bx K"
bx J"
bx I"
bx H"
bx G"
b0 F"
b0 E"
b11111 D"
b1 C"
bx B"
b100000 A"
x@"
x""
b1 !"
0~
b100000 }
b0 |
b0 {
b0 z
b0 y
b0 x
b0 w
b0 v
b1 q
b0 p
b0 o
b10 n
0m
0l
b0 k
b0 j
0i
b0 h
b10 g
b0 f
0e
b0 d
0c
0b
b0 a
b0 `
0_
b0 S
b0 R
b0 Q
b0 P
b0 O
b100000000 N
b0 M
0L
1K
0J
0I
0H
0G
b0 F
0E
0D
bx C
07
b0 6
b0 5
b0 4
03
b0 2
b0 1
00
0/
0.
0-
0,
0+
0*
b1 )
b0 (
b0 '
0&
b10 %
0$
0#
0"
b0 !
$end
#5000
1D
#10000
0D
#15000
1D
#20000
0D
#25000
1D
#30000
0D
#35000
1D
#40000
0D
#45000
1D
#50000
0D
1E
1I
#55000
1D
#60000
0D
#65000
1D
#70000
0D
#75000
1D
#80000
0D
#85000
1D
#90000
0D
#95000
1D
#100000
0D
0I
#105000
1D
#110000
0D
#115000
1D
#120000
0D
#125000
1D
#130000
0D
#135000
1D
#140000
0D
#145000
1D
#150000
0D
1I
#155000
1D
#160000
0D
#165000
1D
#170000
0D
#175000
1D
#180000
0D
#185000
1D
#190000
0D
#195000
1D
#200000
0D
0I
#205000
1D
#210000
0D
#215000
1D
#220000
0D
#225000
1D
#230000
0D
#235000
1D
#240000
0D
#245000
1D
#250000
0D
1I
1L
#255000
1D
#260000
0D
#265000
1D
#270000
0D
#275000
1D
#280000
0D
#285000
1D
#290000
0D
#295000
1D
#300000
0D
0I
#305000
1D
#310000
0D
#315000
1D
#320000
0D
#325000
1D
#330000
0D
#335000
1D
#340000
0D
#345000
1D
#350000
0D
1I
#355000
1D
#360000
0D
#365000
1D
#370000
0D
#375000
1D
#380000
0D
#385000
1D
#390000
0D
#395000
1D
#400000
0D
0I
#405000
1D
#410000
0D
#415000
1D
#420000
0D
#425000
1D
#430000
0D
#435000
1D
#440000
0D
#445000
1D
#450000
0D
1I
1W"
b1 O
#455000
1D
#460000
0D
#465000
1D
#470000
0D
#475000
1D
#480000
0D
#485000
1D
#490000
0D
#495000
1D
#500000
0D
0I
#505000
1D
#510000
0D
#515000
1D
#520000
0D
#525000
1D
#530000
0D
#535000
1D
#540000
0D
#545000
1D
#550000
0D
1I
#555000
1D
#560000
0D
#565000
1D
#570000
0D
#575000
1D
#580000
0D
#585000
1D
#590000
0D
#595000
1D
#600000
0D
0I
#605000
1D
#610000
0D
#615000
1D
#620000
0D
#625000
1D
#630000
0D
#635000
1D
#640000
0D
#645000
1D
#650000
0D
1I
#655000
1D
#660000
0D
#665000
1D
#670000
0D
#675000
1D
#680000
0D
#685000
1D
#690000
0D
#695000
1D
#700000
0D
0I
#705000
1D
#710000
0D
#715000
1D
#720000
0D
#725000
1D
#730000
0D
#735000
1D
#740000
0D
#745000
1D
#750000
0D
1I
#755000
1D
#760000
0D
#765000
1D
#770000
0D
#775000
1D
#780000
0D
#785000
1D
#790000
0D
#795000
1D
#800000
0D
0I
#805000
1D
#810000
0D
#815000
1D
#820000
0D
#825000
1D
#830000
0D
#835000
1D
#840000
0D
#845000
1D
#850000
0D
1I
#855000
1D
#860000
0D
#865000
1D
#870000
0D
#875000
1D
#880000
0D
#885000
1D
#890000
0D
#895000
1D
#900000
0D
0I
#905000
1D
#910000
0D
#915000
1D
#920000
0D
#925000
1D
#930000
0D
#935000
1D
#940000
0D
#945000
1D
#950000
0D
1I
#951000
b1 E"
0K
0W"
#955000
1D
#960000
0D
#965000
1D
#970000
0D
#975000
1D
#980000
0D
#985000
1D
#990000
0D
#995000
1D
#1000000
0D
0I
#1005000
1D
#1010000
0D
#1015000
1D
#1020000
0D
#1025000
1D
#1030000
0D
#1035000
1D
#1040000
0D
#1045000
1D
#1050000
b1 F"
0D
1I
#1051000
b10 E"
1K
1W"
b1 j"
#1055000
1D
#1060000
0D
#1065000
1D
#1070000
0D
#1075000
1D
#1080000
0D
#1085000
1D
#1090000
0D
#1095000
1D
#1100000
0D
0I
#1105000
1D
#1110000
0D
#1115000
1D
#1120000
0D
#1125000
1D
#1130000
0D
#1135000
1D
#1140000
0D
#1145000
1D
#1150000
b1001 E"
b10 F"
0D
1I
#1155000
1D
#1160000
0D
#1165000
1D
#1170000
0D
#1175000
1D
#1180000
0D
#1185000
1D
#1190000
0D
#1195000
1D
#1200000
0D
0I
#1205000
1D
#1210000
0D
#1215000
1D
#1220000
0D
#1225000
1D
#1230000
0D
#1235000
1D
#1240000
0D
#1245000
1D
#1250000
b0 E"
b1001 F"
0D
1I
#1251000
b1010 E"
0K
0W"
#1255000
1D
#1260000
0D
#1265000
1D
#1270000
0D
#1275000
1D
#1280000
0D
#1285000
1D
#1290000
0D
#1295000
1D
#1300000
0D
0I
#1305000
1D
#1310000
0D
#1315000
1D
#1320000
0D
#1325000
1D
#1330000
0D
#1335000
1D
#1340000
0D
#1345000
1D
#1350000
b1011 E"
1,
b1010 F"
0D
1I
#1355000
1D
#1360000
0D
#1365000
1D
#1370000
0D
#1375000
1D
#1380000
0D
#1385000
1D
#1390000
0D
#1395000
1D
#1400000
0D
0I
#1405000
1D
#1410000
0D
#1415000
1D
#1420000
0D
#1425000
1D
#1430000
0D
#1435000
1D
#1440000
0D
#1445000
1D
#1450000
b1 D"
0,
1+
b1011 F"
0D
1I
#1451000
1J
b0 k"
#1455000
1D
#1460000
0D
#1465000
1D
#1470000
0D
#1475000
1D
#1480000
0D
#1485000
1D
#1490000
0D
#1495000
1D
#1500000
1"
1#
0D
0I
#1505000
1D
#1510000
0D
#1515000
1D
#1520000
0D
#1525000
1D
#1530000
0D
#1535000
1D
#1540000
0D
#1545000
1D
#1550000
b10000 D"
0D
1I
#1551000
0J
b1 k"
#1555000
1D
#1560000
0D
#1565000
1D
#1570000
0D
#1575000
1D
#1580000
0D
#1585000
1D
#1590000
0D
#1595000
1D
#1600000
0"
0#
0D
0I
#1605000
1D
#1610000
0D
#1615000
1D
#1620000
0D
#1625000
1D
#1630000
0D
#1635000
1D
#1640000
0D
#1645000
1D
#1650000
b1000 D"
0D
1I
#1651000
b10 k"
#1655000
1D
#1660000
0D
#1665000
1D
#1670000
0D
#1675000
1D
#1680000
0D
#1685000
1D
#1690000
0D
#1695000
1D
#1700000
0D
0I
#1705000
1D
#1710000
0D
#1715000
1D
#1720000
0D
#1725000
1D
#1730000
0D
#1735000
1D
#1740000
0D
#1745000
1D
#1750000
b100 D"
0D
1I
#1751000
b11 k"
#1755000
1D
#1760000
0D
#1765000
1D
#1770000
0D
#1775000
1D
#1780000
0D
#1785000
1D
#1790000
0D
#1795000
1D
#1800000
0D
0I
#1805000
1D
#1810000
0D
#1815000
1D
#1820000
0D
#1825000
1D
#1830000
0D
#1835000
1D
#1840000
0D
#1845000
1D
#1850000
b10 D"
0D
1I
#1851000
b1100 E"
1K
1W"
b100 k"
#1855000
1D
#1860000
0D
#1865000
1D
#1870000
0D
#1875000
1D
#1880000
0D
#1885000
1D
#1890000
0D
#1895000
1D
#1900000
0D
0I
#1905000
1D
#1910000
0D
#1915000
1D
#1920000
0D
#1925000
1D
#1930000
0D
#1935000
1D
#1940000
0D
#1945000
1D
#1950000
b1111 E"
0+
b1100 F"
b1 D"
0D
1I
#1955000
1D
#1960000
0D
#1965000
1D
#1970000
0D
#1975000
1D
#1980000
0D
#1985000
1D
#1990000
0D
#1995000
1D
#2000000
0D
0I
#2005000
1D
#2010000
0D
#2015000
1D
#2020000
0D
#2025000
1D
#2030000
0D
#2035000
1D
#2040000
0D
#2045000
1D
#2050000
b10 E"
1*
b1111 F"
0D
1I
#2051000
b1 E"
0K
0W"
#2055000
1D
#2060000
0D
#2065000
1D
#2070000
0D
#2075000
1D
#2080000
0D
#2085000
1D
#2090000
0D
#2095000
1D
#2100000
0D
0I
#2105000
1D
#2110000
0D
#2115000
1D
#2120000
0D
#2125000
1D
#2130000
0D
#2135000
1D
#2140000
0D
#2145000
1D
#2150000
0*
b1 F"
0D
1I
#2151000
b10 E"
1K
1W"
b0 a"
#2155000
1D
#2160000
0D
#2165000
1D
#2170000
0D
#2175000
1D
#2180000
0D
#2185000
1D
#2190000
0D
#2195000
1D
#2200000
0D
0I
#2205000
1D
#2210000
0D
#2215000
1D
#2220000
0D
#2225000
1D
#2230000
0D
#2235000
1D
#2240000
0D
#2245000
1D
#2250000
b1001 E"
b10 F"
0D
1I
#2251000
b11 E"
0K
0W"
#2255000
1D
#2260000
0D
#2265000
1D
#2270000
0D
#2275000
1D
#2280000
0D
#2285000
1D
#2290000
0D
#2295000
1D
#2300000
0D
0I
#2305000
1D
#2310000
0D
#2315000
1D
#2320000
0D
#2325000
1D
#2330000
0D
#2335000
1D
#2340000
0D
#2345000
1D
#2350000
b100 E"
10
b11 F"
0D
1I
#2355000
1D
#2360000
0D
#2365000
1D
#2370000
0D
#2375000
1D
#2380000
0D
#2385000
1D
#2390000
0D
#2395000
1D
#2400000
0D
0I
#2405000
1D
#2410000
0D
#2415000
1D
#2420000
0D
#2425000
1D
#2430000
0D
#2435000
1D
#2440000
0D
#2445000
1D
#2450000
1""
00
1/
b100 F"
bx11111011000000010000000000000001 B"
0D
1I
#2455000
1D
#2460000
0D
#2465000
1D
#2470000
0D
#2475000
1D
#2480000
0D
#2485000
1D
#2490000
0D
#2495000
1D
#2500000
1"
1#
0D
0I
#2501000
b0 c"
b1 b"
#2505000
1D
#2510000
0D
#2515000
1D
#2520000
0D
#2525000
1D
#2530000
0D
#2535000
1D
#2540000
0D
#2545000
1D
#2550000
0""
b0xxxxxxxxxxxxxxxxxxxxxxxxxxxxxxxx1111101100000001000000000000000 B"
0D
1I
#2555000
1D
#2560000
0D
#2565000
1D
#2570000
0D
#2575000
1D
#2580000
0D
#2585000
1D
#2590000
0D
#2595000
1D
#2600000
0"
0#
0D
0I
#2601000
b1 c"
#2605000
1D
#2610000
0D
#2615000
1D
#2620000
0D
#2625000
1D
#2630000
0D
#2635000
1D
#2640000
0D
#2645000
1D
#2650000
b0xxxxxxxxxxxxxxxxxxxxxxxxxxxxxxxx111110110000000100000000000000 B"
0D
1I
#2655000
1D
#2660000
0D
#2665000
1D
#2670000
0D
#2675000
1D
#2680000
0D
#2685000
1D
#2690000
0D
#2695000
1D
#2700000
0D
0I
#2701000
b10 c"
#2705000
1D
#2710000
0D
#2715000
1D
#2720000
0D
#2725000
1D
#2730000
0D
#2735000
1D
#2740000
0D
#2745000
1D
#2750000
b0xxxxxxxxxxxxxxxxxxxxxxxxxxxxxxxx11111011000000010000000000000 B"
0D
1I
#2755000
1D
#2760000
0D
#2765000
1D
#2770000
0D
#2775000
1D
#2780000
0D
#2785000
1D
#2790000
0D
#2795000
1D
#2800000
0D
0I
#2801000
b11 c"
#2805000
1D
#2810000
0D
#2815000
1D
#2820000
0D
#2825000
1D
#2830000
0D
#2835000
1D
#2840000
0D
#2845000
1D
#2850000
b0xxxxxxxxxxxxxxxxxxxxxxxxxxxxxxxx1111101100000001000000000000 B"
0D
1I
#2855000
1D
#2860000
0D
#2865000
1D
#2870000
0D
#2875000
1D
#2880000
0D
#2885000
1D
#2890000
0D
#2895000
1D
#2900000
0D
0I
#2901000
b100 c"
#2905000
1D
#2910000
0D
#2915000
1D
#2920000
0D
#2925000
1D
#2930000
0D
#2935000
1D
#2940000
0D
#2945000
1D
#2950000
b0xxxxxxxxxxxxxxxxxxxxxxxxxxxxxxxx111110110000000100000000000 B"
0D
1I
#2955000
1D
#2960000
0D
#2965000
1D
#2970000
0D
#2975000
1D
#2980000
0D
#2985000
1D
#2990000
0D
#2995000
1D
#3000000
0D
0I
#3001000
b101 c"
#3005000
1D
#3010000
0D
#3015000
1D
#3020000
0D
#3025000
1D
#3030000
0D
#3035000
1D
#3040000
0D
#3045000
1D
#3050000
b0xxxxxxxxxxxxxxxxxxxxxxxxxxxxxxxx11111011000000010000000000 B"
0D
1I
#3055000
1D
#3060000
0D
#3065000
1D
#3070000
0D
#3075000
1D
#3080000
0D
#3085000
1D
#3090000
0D
#3095000
1D
#3100000
0D
0I
#3101000
b110 c"
#3105000
1D
#3110000
0D
#3115000
1D
#3120000
0D
#3125000
1D
#3130000
0D
#3135000
1D
#3140000
0D
#3145000
1D
#3150000
b0xxxxxxxxxxxxxxxxxxxxxxxxxxxxxxxx1111101100000001000000000 B"
0D
1I
#3155000
1D
#3160000
0D
#3165000
1D
#3170000
0D
#3175000
1D
#3180000
0D
#3185000
1D
#3190000
0D
#3195000
1D
#3200000
0D
0I
#3201000
b111 c"
#3205000
1D
#3210000
0D
#3215000
1D
#3220000
0D
#3225000
1D
#3230000
0D
#3235000
1D
#3240000
0D
#3245000
1D
#3250000
b0xxxxxxxxxxxxxxxxxxxxxxxxxxxxxxxx111110110000000100000000 B"
0D
1I
#3255000
1D
#3260000
0D
#3265000
1D
#3270000
0D
#3275000
1D
#3280000
0D
#3285000
1D
#3290000
0D
#3295000
1D
#3300000
0D
0I
#3301000
b1000 c"
#3305000
1D
#3310000
0D
#3315000
1D
#3320000
0D
#3325000
1D
#3330000
0D
#3335000
1D
#3340000
0D
#3345000
1D
#3350000
b0xxxxxxxxxxxxxxxxxxxxxxxxxxxxxxxx11111011000000010000000 B"
0D
1I
#3355000
1D
#3360000
0D
#3365000
1D
#3370000
0D
#3375000
1D
#3380000
0D
#3385000
1D
#3390000
0D
#3395000
1D
#3400000
0D
0I
#3401000
b1001 c"
#3405000
1D
#3410000
0D
#3415000
1D
#3420000
0D
#3425000
1D
#3430000
0D
#3435000
1D
#3440000
0D
#3445000
1D
#3450000
b0xxxxxxxxxxxxxxxxxxxxxxxxxxxxxxxx1111101100000001000000 B"
0D
1I
#3455000
1D
#3460000
0D
#3465000
1D
#3470000
0D
#3475000
1D
#3480000
0D
#3485000
1D
#3490000
0D
#3495000
1D
#3500000
0D
0I
#3501000
b1010 c"
#3505000
1D
#3510000
0D
#3515000
1D
#3520000
0D
#3525000
1D
#3530000
0D
#3535000
1D
#3540000
0D
#3545000
1D
#3550000
b0xxxxxxxxxxxxxxxxxxxxxxxxxxxxxxxx111110110000000100000 B"
0D
1I
#3555000
1D
#3560000
0D
#3565000
1D
#3570000
0D
#3575000
1D
#3580000
0D
#3585000
1D
#3590000
0D
#3595000
1D
#3600000
0D
0I
#3601000
b1011 c"
#3605000
1D
#3610000
0D
#3615000
1D
#3620000
0D
#3625000
1D
#3630000
0D
#3635000
1D
#3640000
0D
#3645000
1D
#3650000
b0xxxxxxxxxxxxxxxxxxxxxxxxxxxxxxxx11111011000000010000 B"
0D
1I
#3655000
1D
#3660000
0D
#3665000
1D
#3670000
0D
#3675000
1D
#3680000
0D
#3685000
1D
#3690000
0D
#3695000
1D
#3700000
0D
0I
#3701000
b1100 c"
#3705000
1D
#3710000
0D
#3715000
1D
#3720000
0D
#3725000
1D
#3730000
0D
#3735000
1D
#3740000
0D
#3745000
1D
#3750000
b0xxxxxxxxxxxxxxxxxxxxxxxxxxxxxxxx1111101100000001000 B"
0D
1I
#3755000
1D
#3760000
0D
#3765000
1D
#3770000
0D
#3775000
1D
#3780000
0D
#3785000
1D
#3790000
0D
#3795000
1D
#3800000
0D
0I
#3801000
b1101 c"
#3805000
1D
#3810000
0D
#3815000
1D
#3820000
0D
#3825000
1D
#3830000
0D
#3835000
1D
#3840000
0D
#3845000
1D
#3850000
b0xxxxxxxxxxxxxxxxxxxxxxxxxxxxxxxx111110110000000100 B"
0D
1I
#3855000
1D
#3860000
0D
#3865000
1D
#3870000
0D
#3875000
1D
#3880000
0D
#3885000
1D
#3890000
0D
#3895000
1D
#3900000
0D
0I
#3901000
b1110 c"
#3905000
1D
#3910000
0D
#3915000
1D
#3920000
0D
#3925000
1D
#3930000
0D
#3935000
1D
#3940000
0D
#3945000
1D
#3950000
b0xxxxxxxxxxxxxxxxxxxxxxxxxxxxxxxx11111011000000010 B"
0D
1I
#3955000
1D
#3960000
0D
#3965000
1D
#3970000
0D
#3975000
1D
#3980000
0D
#3985000
1D
#3990000
0D
#3995000
1D
#4000000
0D
0I
#4001000
b1111 c"
#4005000
1D
#4010000
0D
#4015000
1D
#4020000
0D
#4025000
1D
#4030000
0D
#4035000
1D
#4040000
0D
#4045000
1D
#4050000
1""
b0xxxxxxxxxxxxxxxxxxxxxxxxxxxxxxxx1111101100000001 B"
0D
1I
#4055000
1D
#4060000
0D
#4065000
1D
#4070000
0D
#4075000
1D
#4080000
0D
#4085000
1D
#4090000
0D
#4095000
1D
#4100000
1"
1#
0D
0I
#4101000
b10000000000000001 b"
b10000 c"
#4105000
1D
#4110000
0D
#4115000
1D
#4120000
0D
#4125000
1D
#4130000
0D
#4135000
1D
#4140000
0D
#4145000
1D
#4150000
0""
b0xxxxxxxxxxxxxxxxxxxxxxxxxxxxxxxx111110110000000 B"
0D
1I
#4155000
1D
#4160000
0D
#4165000
1D
#4170000
0D
#4175000
1D
#4180000
0D
#4185000
1D
#4190000
0D
#4195000
1D
#4200000
0"
0#
0D
0I
#4201000
b10001 c"
#4205000
1D
#4210000
0D
#4215000
1D
#4220000
0D
#4225000
1D
#4230000
0D
#4235000
1D
#4240000
0D
#4245000
1D
#4250000
b0xxxxxxxxxxxxxxxxxxxxxxxxxxxxxxxx11111011000000 B"
0D
1I
#4255000
1D
#4260000
0D
#4265000
1D
#4270000
0D
#4275000
1D
#4280000
0D
#4285000
1D
#4290000
0D
#4295000
1D
#4300000
0D
0I
#4301000
b10010 c"
#4305000
1D
#4310000
0D
#4315000
1D
#4320000
0D
#4325000
1D
#4330000
0D
#4335000
1D
#4340000
0D
#4345000
1D
#4350000
b0xxxxxxxxxxxxxxxxxxxxxxxxxxxxxxxx1111101100000 B"
0D
1I
#4355000
1D
#4360000
0D
#4365000
1D
#4370000
0D
#4375000
1D
#4380000
0D
#4385000
1D
#4390000
0D
#4395000
1D
#4400000
0D
0I
#4401000
b10011 c"
#4405000
1D
#4410000
0D
#4415000
1D
#4420000
0D
#4425000
1D
#4430000
0D
#4435000
1D
#4440000
0D
#4445000
1D
#4450000
b0xxxxxxxxxxxxxxxxxxxxxxxxxxxxxxxx111110110000 B"
0D
1I
#4455000
1D
#4460000
0D
#4465000
1D
#4470000
0D
#4475000
1D
#4480000
0D
#4485000
1D
#4490000
0D
#4495000
1D
#4500000
0D
0I
#4501000
b10100 c"
#4505000
1D
#4510000
0D
#4515000
1D
#4520000
0D
#4525000
1D
#4530000
0D
#4535000
1D
#4540000
0D
#4545000
1D
#4550000
b0xxxxxxxxxxxxxxxxxxxxxxxxxxxxxxxx11111011000 B"
0D
1I
#4555000
1D
#4560000
0D
#4565000
1D
#4570000
0D
#4575000
1D
#4580000
0D
#4585000
1D
#4590000
0D
#4595000
1D
#4600000
0D
0I
#4601000
b10101 c"
#4605000
1D
#4610000
0D
#4615000
1D
#4620000
0D
#4625000
1D
#4630000
0D
#4635000
1D
#4640000
0D
#4645000
1D
#4650000
b0xxxxxxxxxxxxxxxxxxxxxxxxxxxxxxxx1111101100 B"
0D
1I
#4655000
1D
#4660000
0D
#4665000
1D
#4670000
0D
#4675000
1D
#4680000
0D
#4685000
1D
#4690000
0D
#4695000
1D
#4700000
0D
0I
#4701000
b10110 c"
#4705000
1D
#4710000
0D
#4715000
1D
#4720000
0D
#4725000
1D
#4730000
0D
#4735000
1D
#4740000
0D
#4745000
1D
#4750000
b0xxxxxxxxxxxxxxxxxxxxxxxxxxxxxxxx111110110 B"
0D
1I
#4755000
1D
#4760000
0D
#4765000
1D
#4770000
0D
#4775000
1D
#4780000
0D
#4785000
1D
#4790000
0D
#4795000
1D
#4800000
0D
0I
#4801000
b10111 c"
#4805000
1D
#4810000
0D
#4815000
1D
#4820000
0D
#4825000
1D
#4830000
0D
#4835000
1D
#4840000
0D
#4845000
1D
#4850000
1""
b0xxxxxxxxxxxxxxxxxxxxxxxxxxxxxxxx11111011 B"
0D
1I
#4855000
1D
#4860000
0D
#4865000
1D
#4870000
0D
#4875000
1D
#4880000
0D
