sim/layer1/tb_jtag_dtm.vcd
$date
	Sun Dec  7 04:27:30 2025
$end
$version
	Icarus Verilog
$end
$timescale
	1ps
$end
$scope module tb_jtag_dtm $end
$var wire 1 ! tdo $end
$var wire 1 " tap_tdo $end
$var wire 5 # ir_value [4:0] $end
$var wire 1 $ ir_update $end
$var wire 1 % ir_shift $end
$var wire 1 & ir_capture $end
$var wire 1 ' dtm_tdo $end
$var wire 1 ( dr_update $end
$var wire 1 ) dr_shift $end
$var wire 1 * dr_capture $end
$var wire 32 + dmi_wdata [31:0] $end
$var wire 1 , dmi_req $end
$var wire 2 - dmi_op [1:0] $end
$var wire 7 . dmi_addr [6:0] $end
$var parameter 32 / CLK_PERIOD $end
$var parameter 5 0 JTAG_BYPASS $end
$var parameter 5 1 JTAG_CAPS $end
$var parameter 5 2 JTAG_DMI $end
$var parameter 5 3 JTAG_DTMCS $end
$var parameter 5 4 JTAG_IDCODE $end
$var parameter 5 5 JTAG_MEM_READ $end
$var parameter 5 6 JTAG_MEM_WRITE $end
$var parameter 5 7 JTAG_SIG_TAP $end
$var parameter 5 8 JTAG_STATUS $end
$var reg 32 9 captured_data [31:0] $end
$var reg 1 : dmi_ack $end
$var reg 32 ; dmi_rdata [31:0] $end
$var reg 2 < dmi_resp [1:0] $end
$var reg 32 = last_read_data [31:0] $end
$var reg 1 > tck $end
$var reg 1 ? tdi $end
$var reg 1 @ tms $end
$var reg 1 A trst_n $end
$var integer 32 B errors [31:0] $end
$var integer 32 C i [31:0] $end
$var integer 32 D test_num [31:0] $end
$scope module dtm $end
$var wire 1 : dmi_ack $end
$var wire 32 E dmi_rdata [31:0] $end
$var wire 2 F dmi_resp [1:0] $end
$var wire 1 > tck $end
$var wire 1 ? tdi $end
$var wire 1 A trst_n $end
$var wire 5 G ir_value [4:0] $end
$var wire 1 ( dr_update $end
$var wire 1 ) dr_shift $end
$var wire 1 * dr_capture $end
$var parameter 32 H ABITS $end
$var parameter 32 I IDLE_CYCLES $end
$var parameter 5 J IR_DMI $end
$var parameter 5 K IR_DTMCS $end
$var reg 7 L dmi_addr [6:0] $end
$var reg 2 M dmi_op [1:0] $end
$var reg 1 , dmi_req $end
$var reg 41 N dmi_shift [40:0] $end
$var reg 2 O dmi_status [1:0] $end
$var reg 32 P dmi_wdata [31:0] $end
$var reg 32 Q dtmcs_shift [31:0] $end
$var reg 1 ' tdo $end
$upscope $end
$scope module tap $end
$var wire 64 R dr_capture_data [63:0] $end
$var wire 7 S dr_length [6:0] $end
$var wire 1 T dr_shift_in $end
$var wire 5 U ir_value [4:0] $end
$var wire 1 > tck $end
$var wire 1 ? tdi $end
$var wire 1 @ tms $end
$var wire 1 A trst_n $end
$var wire 1 $ ir_update $end
$var wire 1 % ir_shift $end
$var wire 1 & ir_capture $end
$var wire 1 ( dr_update $end
$var wire 1 V dr_shift_out $end
$var wire 1 ) dr_shift $end
$var wire 1 * dr_capture $end
$var parameter 4 W CAPTURE_DR $end
$var parameter 4 X CAPTURE_IR $end
$var parameter 4 Y EXIT1_DR $end
$var parameter 4 Z EXIT1_IR $end
$var parameter 4 [ EXIT2_DR $end
$var parameter 4 \ EXIT2_IR $end
$var parameter 32 ] IDCODE $end
$var parameter 5 ^ IR_BYPASS $end
$var parameter 5 _ IR_CAPS $end
$var parameter 5 ` IR_DMI $end
$var parameter 5 a IR_DTMCS $end
$var parameter 5 b IR_IDCODE $end
$var parameter 32 c IR_LENGTH $end
$var parameter 5 d IR_MEM_READ $end
$var parameter 5 e IR_MEM_WRITE $end
$var parameter 5 f IR_SIG_TAP $end
$var parameter 5 g IR_STATUS $end
$var parameter 5 h IR_TRACE_CTL $end
$var parameter 5 i IR_TRACE_DAT $end
$var parameter 4 j PAUSE_DR $end
$var parameter 4 k PAUSE_IR $end
$var parameter 4 l RUN_TEST_IDLE $end
$var parameter 4 m SELECT_DR_SCAN $end
$var parameter 4 n SELECT_IR_SCAN $end
$var parameter 4 o SHIFT_DR $end
$var parameter 4 p SHIFT_IR $end
$var parameter 4 q TEST_LOGIC_RESET $end
$var parameter 4 r UPDATE_DR $end
$var parameter 4 s UPDATE_IR $end
$var reg 1 t bypass_reg $end
$var reg 7 u current_dr_length [6:0] $end
$var reg 64 v dr_shift_reg [63:0] $end
$var reg 5 w ir_hold_reg [4:0] $end
$var reg 5 x ir_shift_reg [4:0] $end
$var reg 4 y next_state [3:0] $end
$var reg 4 z state [3:0] $end
$var reg 1 " tdo $end
$upscope $end
$scope task dmi_read $end
$var reg 7 { addr [6:0] $end
$var reg 32 | data [31:0] $end
$var reg 41 } dmi_in [40:0] $end
$var reg 41 ~ dmi_out [40:0] $end
$upscope $end
$scope task dmi_write $end
$var reg 7 !" addr [6:0] $end
$var reg 32 "" data [31:0] $end
$var reg 41 #" dmi_in [40:0] $end
$var reg 41 $" dmi_out [40:0] $end
$upscope $end
$scope task do_dmi_read $end
$var reg 7 %" addr [6:0] $end
$var reg 32 &" data [31:0] $end
$var reg 41 '" dmi_in [40:0] $end
$var reg 41 (" dmi_out [40:0] $end
$upscope $end
$scope task do_dmi_write $end
$var reg 7 )" addr [6:0] $end
$var reg 32 *" data [31:0] $end
$var reg 41 +" dmi_in [40:0] $end
$var reg 41 ," dmi_out [40:0] $end
$upscope $end
$scope task goto_shift_dr $end
$upscope $end
$scope task goto_shift_ir $end
$upscope $end
$scope task jtag_clock $end
$var reg 1 -" tms_val $end
$upscope $end
$scope task jtag_reset $end
$upscope $end
$scope task mem_read $end
$var reg 32 ." addr [31:0] $end
$var reg 32 /" data [31:0] $end
$upscope $end
$scope task mem_write $end
$var reg 32 0" addr [31:0] $end
$var reg 32 1" data [31:0] $end
$upscope $end
$scope task read_dtmcs $end
$var reg 32 2" dtmcs [31:0] $end
$upscope $end
$scope task read_idcode $end
$var reg 32 3" idcode [31:0] $end
$upscope $end
$scope task shift_dr_32 $end
$var reg 32 4" data_in [31:0] $end
$var reg 32 5" data_out [31:0] $end
$var integer 32 6" i [31:0] $end
$upscope $end
$scope task shift_dr_41 $end
$var reg 41 7" data_in [40:0] $end
$var reg 41 8" data_out [40:0] $end
$var integer 32 9" i [31:0] $end
$upscope $end
$scope task shift_dr_64 $end
$var reg 64 :" data_in [63:0] $end
$var reg 64 ;" data_out [63:0] $end
$var integer 32 <" i [31:0] $end
$upscope $end
$scope task shift_ir $end
$var reg 5 =" ir_data [4:0] $end
$var integer 32 >" i [31:0] $end
$upscope $end
$upscope $end
$enddefinitions $end
$comment Show the parameter values. $end
$dumpall
b1111 s
b1000 r
b0 q
b1011 p
b100 o
b1001 n
b10 m
b1 l
b1101 k
b110 j
b110 i
b101 h
b111 g
b100 f
b11 e
b10 d
b101 c
b1 b
b10000 a
b10001 `
b1000 _
b11111 ^
b11111011000000010000000000000001 ]
b1110 \
b111 [
b1100 Z
b101 Y
b1010 X
b11 W
b10000 K
b10001 J
b1 I
b111 H
b111 8
b100 7
b11 6
b10 5
b1 4
b10000 3
b10001 2
b1000 1
b11111 0
b1100100 /
$end
#0
$dumpvars
bx >"
bx ="
bx <"
bx ;"
bx :"
bx 9"
bx 8"
bx 7"
bx 6"
bx 5"
bx 4"
bx 3"
bx 2"
bx 1"
bx 0"
bx /"
bx ."
x-"
bx ,"
bx +"
bx *"
bx )"
bx ("
bx '"
bx &"
bx %"
bx $"
bx #"
bx ""
bx !"
bx ~
bx }
bx |
bx {
b0 z
b0 y
b11111 x
b1 w
bx v
b100000 u
xt
xV
b1 U
0T
b100000 S
b0 R
b0 Q
b0 P
b0 O
b0 N
b0 M
b0 L
b1 G
b0 F
b0 E
b0 D
b10000000 C
b0 B
0A
1@
0?
0>
b0 =
b0 <
b0 ;
0:
bx 9
b0 .
b0 -
0,
b0 +
0*
0)
0(
0'
0&
0%
0$
b1 #
0"
0!
$end
#50000
1>
#100000
0>
#150000
1>
#200000
0>
1A
#250000
1>
#300000
0>
#350000
1>
#400000
0>
1-"
b1 D
#450000
1>
#500000
0>
#550000
1>
#600000
0>
#650000
1>
#700000
0>
#750000
1>
#800000
0>
#850000
1>
#900000
0>
#950000
1>
#951000
b1 y
0@
0-"
#1000000
0>
#1050000
b1 z
1>
#1051000
b10 y
1@
1-"
b1 ="
#1100000
0>
#1150000
b1001 y
b10 z
1>
#1200000
0>
#1250000
b0 y
b1001 z
1>
#1251000
b1010 y
0@
0-"
#1300000
0>
#1350000
b1011 y
1&
b1010 z
1>
#1400000
0>
#1450000
b1 x
0&
1%
b1011 z
1>
#1451000
1?
b0 >"
#1500000
1!
1"
0>
#1550000
b10000 x
1>
#1551000
0?
b1 >"
#1600000
0!
0"
0>
#1650000
b1000 x
1>
#1651000
b10 >"
#1700000
0>
#1750000
b100 x
1>
#1751000
b11 >"
#1800000
0>
#1850000
b10 x
1>
#1851000
b1100 y
1@
1-"
b100 >"
#1900000
0>
#1950000
b1111 y
0%
b1100 z
b1 x
1>
#2000000
0>
#2050000
b10 y
1$
b1111 z
1>
#2051000
b1 y
0@
0-"
#2100000
0>
#2150000
0$
b1 z
1>
#2151000
b10 y
1@
1-"
b0 4"
#2200000
0>
#2250000
b1001 y
b10 z
1>
#2251000
b11 y
0@
0-"
#2300000
0>
#2350000
b100 y
1*
b11 z
1>
#2400000
0>
#2450000
1V
0*
1)
b100 z
bx11111011000000010000000000000001 v
1>
#2500000
1!
1"
0>
#2501000
b0 6"
b1 5"
#2550000
0V
b0xxxxxxxxxxxxxxxxxxxxxxxxxxxxxxxx1111101100000001000000000000000 v
1>
#2600000
0!
0"
0>
#2601000
b1 6"
#2650000
b0xxxxxxxxxxxxxxxxxxxxxxxxxxxxxxxx111110110000000100000000000000 v
1>
#2700000
0>
#2701000
b10 6"
#2750000
b0xxxxxxxxxxxxxxxxxxxxxxxxxxxxxxxx11111011000000010000000000000 v
1>
#2800000
0>
#2801000
b11 6"
#2850000
b0xxxxxxxxxxxxxxxxxxxxxxxxxxxxxxxx1111101100000001000000000000 v
1>
#2900000
0>
#2901000
b100 6"
#2950000
b0xxxxxxxxxxxxxxxxxxxxxxxxxxxxxxxx111110110000000100000000000 v
1>
#3000000
0>
#3001000
b101 6"
#3050000
b0xxxxxxxxxxxxxxxxxxxxxxxxxxxxxxxx11111011000000010000000000 v
1>
#3100000
0>
#3101000
b110 6"
#3150000
b0xxxxxxxxxxxxxxxxxxxxxxxxxxxxxxxx1111101100000001000000000 v
1>
#3200000
0>
#3201000
b111 6"
#3250000
b0xxxxxxxxxxxxxxxxxxxxxxxxxxxxxxxx111110110000000100000000 v
1>
#3300000
0>
#3301000
b1000 6"
#3350000
b0xxxxxxxxxxxxxxxxxxxxxxxxxxxxxxxx11111011000000010000000 v
1>
#3400000
0>
#3401000
b1001 6"
#3450000
b0xxxxxxxxxxxxxxxxxxxxxxxxxxxxxxxx1111101100000001000000 v
1>
#3500000
0>
#3501000
b1010 6"
#3550000
b0xxxxxxxxxxxxxxxxxxxxxxxxxxxxxxxx111110110000000100000 v
1>
#3600000
0>
#3601000
b1011 6"
#3650000
b0xxxxxxxxxxxxxxxxxxxxxxxxxxxxxxxx11111011000000010000 v
1>
#3700000
0>
#3701000
b1100 6"
#3750000
b0xxxxxxxxxxxxxxxxxxxxxxxxxxxxxxxx1111101100000001000 v
1>
#3800000
0>
#3801000
b1101 6"
#3850000
b0xxxxxxxxxxxxxxxxxxxxxxxxxxxxxxxx111110110000000100 v
1>
#3900000
0>
#3901000
b1110 6"
#3950000
b0xxxxxxxxxxxxxxxxxxxxxxxxxxxxxxxx11111011000000010 v
1>
#4000000
0>
#4001000
b1111 6"
#4050000
1V
b0xxxxxxxxxxxxxxxxxxxxxxxxxxxxxxxx1111101100000001 v
1>
#4100000
1!
1"
0>
#4101000
b10000000000000001 5"
b10000 6"
#4150000
0V
b0xxxxxxxxxxxxxxxxxxxxxxxxxxxxxxxx111110110000000 v
1>
#4200000
0!
0"
0>
#4201000
b10001 6"
#4250000
b0xxxxxxxxxxxxxxxxxxxxxxxxxxxxxxxx11111011000000 v
1>
#4300000
0>
#4301000
b10010 6"
#4350000
b0xxxxxxxxxxxxxxxxxxxxxxxxxxxxxxxx1111101100000 v
1>
#4400000
0>
#4401000
b10011 6"
#4450000
b0xxxxxxxxxxxxxxxxxxxxxxxxxxxxxxxx111110110000 v
1>
#4500000
0>
#4501000
b10100 6"
#4550000
b0xxxxxxxxxxxxxxxxxxxxxxxxxxxxxxxx11111011000 v
1>
#4600000
0>
#4601000
b10101 6"
#4650000
b0xxxxxxxxxxxxxxxxxxxxxxxxxxxxxxxx1111101100 v
1>
#4700000
0>
#4701000
b10110 6"
#4750000
b0xxxxxxxxxxxxxxxxxxxxxxxxxxxxxxxx111110110 v
1>
#4800000
0>
#4801000
b10111 6"
#4850000
1V
b0xxxxxxxxxxxxxxxxxxxxxxxxxxxxxxxx11111011 v
1>
#4900000
1!
1"
0>
#4901000
b1000000010000000000000001 5"
b11000 6"
#4950000
b0xxxxxxxxxxxxxxxxxxxxxxxxxxxxxxxx1111101 v
1>
#5000000
0>
#5001000
b11000000010000000000000001 5"
b11001 6"
#5050000
0V
b0xxxxxxxxxxxxxxxxxxxxxxxxxxxxxxxx111110 v
1>
#5100000
0!
0"
0>
#5101000
b11010 6"
#5150000
1V
b0xxxxxxxxxxxxxxxxxxxxxxxxxxxxxxxx11111 v
1>
#5200000
1!
1"
0>
#5201000
b1011000000010000000000000001 5"
b11011 6"
#5250000
b0xxxxxxxxxxxxxxxxxxxxxxxxxxxxxxxx1111 v
1>
#5300000
0>
#5301000
b11011000000010000000000000001 5"
b11100 6"
#5350000
b0xxxxxxxxxxxxxxxxxxxxxxxxxxxxxxxx111 v
1>
#5400000
0>
#5401000
b111011000000010000000000000001 5"
b11101 6"
#5450000
b0xxxxxxxxxxxxxxxxxxxxxxxxxxxxxxxx11 v
1>
#5500000
0>
#5501000
b1111011000000010000000000000001 5"
b11110 6"
#5550000
b0xxxxxxxxxxxxxxxxxxxxxxxxxxxxxxxx1 v
1>
#5600000
0>
#5601000
b101 y
1@
b11111011000000010000000000000001 5"
b11111 6"
#5650000
xV
b1000 y
0)
b101 z
b0xxxxxxxxxxxxxxxxxxxxxxxxxxxxxxxx v
1>
#5700000
0!
0"
0>
#5750000
1(
b1000 z
b1 y
0@
1>
#5800000
0>
#5850000
0(
b1 z
1>
#5851000
b10 y
1@
1-"
b10000 ="
b10 D
b11111011000000010000000000000001 9
b11111011000000010000000000000001 3"
#5900000
0>
#5950000
b1001 y
b10 z
1>
#6000000
0>
#6050000
b0 y
b1001 z
1>
#6051000
b1010 y
0@
0-"
#6100000
0>
#6150000
b1011 y
1&
b1010 z
1>
#6200000
0>
#6250000
0&
1%
b1011 z
1>
#6251000
b0 >"
#6300000
1!
1"
0>
#6350000
b0 x
1>
#6351000
b1 >"
#6400000
0!
0"
0>
#6450000
1>
#6451000
b10 >"
#6500000
0>
#6550000
1>
#6551000
b11 >"
#6600000
0>
#6650000
1>
#6651000
b1100 y
1@
1-"
1?
b100 >"
#6700000
0>
#6750000
b1111 y
0%
b1100 z
b10000 x
1>
#6800000
0>
#6850000
b10 y
1$
b1111 z
1>
#6851000
b1 y
0@
0-"
#6900000
0>
#6950000
0$
b1 z
b10000 #
b10000 G
b10000 U
b10000 w
1>
#6951000
b10 y
1@
1-"
#7000000
0>
#7050000
b1001 y
b10 z
1>
#7051000
b11 y
0@
0-"
#7100000
0>
#7150000
b100 y
1*
b11 z
1>
#7200000
0>
#7250000
0V
b1000001110001 Q
0*
1)
b100 z
b0 v
1>
#7300000
1!
1'
0>
#7301000
0?
b0 6"
b1 5"
#7350000
b100000111000 Q
1>
#7400000
0!
0'
0>
#7401000
b1 6"
#7450000
b10000011100 Q
1>
#7500000
0>
#7501000
b10 6"
#7550000
b1000001110 Q
1>
#7600000
0>
#7601000
b11 6"
#7650000
b100000111 Q
1>
#7700000
1!
1'
0>
#7701000
b10001 5"
b100 6"
#7750000
b10000011 Q
1>
#7800000
0>
#7801000
b110001 5"
b101 6"
#7850000
b1000001 Q
1>
#7900000
0>
#7901000
b1110001 5"
b110 6"
#7950000
b100000 Q
1>
#8000000
0!
0'
0>
#8001000
b111 6"
#8050000
b10000 Q
1>
#8100000
0>
#8101000
b1000 6"
#8150000
b1000 Q
1>
#8200000
0>
#8201000
b1001 6"
#8250000
b100 Q
1>
#8300000
0>
#8301000
b1010 6"
#8350000
b10 Q
1>
#8400000
0>
#8401000
b1011 6"
#8450000
b1 Q
1>
#8500000
1!
1'
0>
#8501000
b1000001110001 5"
b1100 6"
#8550000
b0 Q
1>
#8600000
0!
0'
0>
#8601000
b1101 6"
#8650000
1>
#8700000
0>
#8701000
b1110 6"
#8750000
1>
#8800000
0>
#8801000
b1111 6"
#8850000
1>
#8900000
0>
#8901000
b10000 6"
#8950000
1>
#9000000
0>
#9001000
b10001 6"
#9050000
1>
#9100000
0>
#9101000
b10010 6"
#9150000
1>
#9200000
0>
#9201000
b10011 6"
#9250000
1>
#9300000
0>
#9301000
b10100 6"
#9350000
1>
#9400000
0>
#9401000
b10101 6"
#9450000
1>
#9500000
0>
#9501000
b10110 6"
#9550000
1>
#9600000
0>
#9601000
b10111 6"
#9650000
1>
#9700000
0>
#9701000
b11000 6"
#9750000
1>
#9800000
0>
#9801000
b11001 6"
#9850000
1>
#9900000
0>
#9901000
b11010 6"
#9950000
1>
#10000000
0>
#10001000
b11011 6"
#10050000
1>
#10100000
0>
#10101000
b11100 6"
#10150000
1>
#10200000
0>
#10201000
b11101 6"
#10250000
1>
#10300000
0>
#10301000
b11110 6"
#10350000
1>
#10400000
0>
#10401000
b101 y
1@
b11111 6"
#10450000
b1000 y
0)
b101 z
1>
#10500000
0>
#10550000
1(
b1000 z
b1 y
0@
1>
#10600000
0>
#10650000
0(
b1 z
1>
#10651000
b10 y
1@
1-"
b10001 ="
b10000 %"
b11 D
b1000001110001 9
b1000001110001 2"
#10700000
0>
#10750000
b1001 y
b10 z
1>
#10800000
0>
#10850000
b0 y
b1001 z
1>
#10851000
b1010 y
0@
0-"
#10900000
0>
#10950000
b1011 y
1&
b1010 z
1>
#11000000
0>
#11050000
b1 x
0&
1%
b1011 z
1>
#11051000
1?
b0 >"
#11100000
1"
0>
#11150000
b10000 x
1>
#11151000
0?
b1 >"
#11200000
0"
0>
#11250000
b1000 x
1>
#11251000
b10 >"
#11300000
0>
#11350000
b100 x
1>
#11351000
b11 >"
#11400000
0>
#11450000
b10 x
1>
#11451000
b1100 y
1@
1-"
1?
b100 >"
#11500000
0>
#11550000
b1111 y
0%
b1100 z
b10001 x
1>
#11600000
0>
#11650000
b10 y
1$
b1111 z
1>
#11651000
b1 y
0@
0-"
#11700000
0>
#11750000
b101001 S
b101001 u
0$
b1 z
b10001 #
b10001 G
b10001 U
b10001 w
1>
#11751000
b10 y
1@
1-"
b100000000000000000000000000000000000001 7"
b100000000000000000000000000000000000001 '"
#11800000
0>
#11850000
b1001 y
b10 z
1>
#11851000
b11 y
0@
0-"
#11900000
0>
#11950000
b100 y
1*
b11 z
1>
#12000000
0>
#12050000
0*
1)
b100 z
1>
#12100000
0>
#12101000
b0 9"
b0 8"
#12150000
b10000000000000000000000000000000000000000 N
b1000000000000000000000000000000000000000000000000000000000000000 v
1>
#12200000
0>
#12201000
0?
b1 9"
#12250000
b1000000000000000000000000000000000000000 N
b100000000000000000000000000000000000000000000000000000000000000 v
1>
#12300000
0>
#12301000
b10 9"
#12350000
b100000000000000000000000000000000000000 N
b10000000000000000000000000000000000000000000000000000000000000 v
1>
#12400000
0>
#12401000
b11 9"
#12450000
b10000000000000000000000000000000000000 N
b1000000000000000000000000000000000000000000000000000000000000 v
1>
#12500000
0>
#12501000
b100 9"
#12550000
b1000000000000000000000000000000000000 N
b100000000000000000000000000000000000000000000000000000000000 v
1>
#12600000
0>
#12601000
b101 9"
#12650000
b100000000000000000000000000000000000 N
b10000000000000000000000000000000000000000000000000000000000 v
1>
#12700000
0>
#12701000
b110 9"
#12750000
b10000000000000000000000000000000000 N
b1000000000000000000000000000000000000000000000000000000000 v
1>
#12800000
0>
#12801000
b111 9"
#12850000
b1000000000000000000000000000000000 N
b100000000000000000000000000000000000000000000000000000000 v
1>
#12900000
0>
#12901000
b1000 9"
#12950000
b100000000000000000000000000000000 N
b10000000000000000000000000000000000000000000000000000000 v
1>
#13000000
0>
#13001000
b1001 9"
#13050000
b10000000000000000000000000000000 N
b1000000000000000000000000000000000000000000000000000000 v
1>
#13100000
0>
#13101000
b1010 9"
#13150000
b1000000000000000000000000000000 N
b100000000000000000000000000000000000000000000000000000 v
1>
#13200000
0>
#13201000
b1011 9"
#13250000
b100000000000000000000000000000 N
b10000000000000000000000000000000000000000000000000000 v
1>
#13300000
0>
#13301000
b1100 9"
#13350000
b10000000000000000000000000000 N
b1000000000000000000000000000000000000000000000000000 v
1>
#13400000
0>
#13401000
b1101 9"
#13450000
b1000000000000000000000000000 N
b100000000000000000000000000000000000000000000000000 v
1>
#13500000
0>
#13501000
b1110 9"
#13550000
b100000000000000000000000000 N
b10000000000000000000000000000000000000000000000000 v
1>
#13600000
0>
#13601000
b1111 9"
#13650000
b10000000000000000000000000 N
b1000000000000000000000000000000000000000000000000 v
1>
#13700000
0>
#13701000
b10000 9"
#13750000
b1000000000000000000000000 N
b100000000000000000000000000000000000000000000000 v
1>
#13800000
0>
#13801000
b10001 9"
#13850000
b100000000000000000000000 N
b10000000000000000000000000000000000000000000000 v
1>
#13900000
0>
#13901000
b10010 9"
#13950000
b10000000000000000000000 N
b1000000000000000000000000000000000000000000000 v
1>
#14000000
0>
#14001000
b10011 9"
#14050000
b1000000000000000000000 N
b100000000000000000000000000000000000000000000 v
1>
#14100000
0>
#14101000
b10100 9"
#14150000
b100000000000000000000 N
b10000000000000000000000000000000000000000000 v
1>
#14200000
0>
#14201000
b10101 9"
#14250000
b10000000000000000000 N
b1000000000000000000000000000000000000000000 v
1>
#14300000
0>
#14301000
b10110 9"
#14350000
b1000000000000000000 N
b100000000000000000000000000000000000000000 v
1>
#14400000
0>
#14401000
b10111 9"
#14450000
b100000000000000000 N
b10000000000000000000000000000000000000000 v
1>
#14500000
0>
#14501000
b11000 9"
#14550000
b10000000000000000 N
b1000000000000000000000000000000000000000 v
1>
#14600000
0>
#14601000
b11001 9"
#14650000
b1000000000000000 N
b100000000000000000000000000000000000000 v
1>
#14700000
0>
#14701000
b11010 9"
#14750000
b100000000000000 N
b10000000000000000000000000000000000000 v
1>
#14800000
0>
#14801000
b11011 9"
#14850000
b10000000000000 N
b1000000000000000000000000000000000000 v
1>
#14900000
0>
#14901000
b11100 9"
#14950000
b1000000000000 N
b100000000000000000000000000000000000 v
1>
#15000000
0>
#15001000
b11101 9"
#15050000
b100000000000 N
b10000000000000000000000000000000000 v
1>
#15100000
0>
#15101000
b11110 9"
#15150000
b10000000000 N
b1000000000000000000000000000000000 v
1>
#15200000
0>
#15201000
b11111 9"
#15250000
b1000000000 N
b100000000000000000000000000000000 v
1>
#15300000
0>
#15301000
b100000 9"
#15350000
b100000000 N
b10000000000000000000000000000000 v
1>
#15400000
0>
#15401000
b100001 9"
#15450000
b10000000 N
b1000000000000000000000000000000 v
1>
#15500000
0>
#15501000
b100010 9"
#15550000
b1000000 N
b100000000000000000000000000000 v
1>
#15600000
0>
#15601000
b100011 9"
#15650000
b100000 N
b10000000000000000000000000000 v
1>
#15700000
0>
#15701000
b100100 9"
#15750000
b10000 N
b1000000000000000000000000000 v
1>
#15800000
0>
#15801000
b100101 9"
#15850000
b1000 N
b100000000000000000000000000 v
1>
#15900000
0>
#15901000
1?
b100110 9"
#15950000
b10000000000000000000000000000000000000100 N
b1000000000000000000000000000000000000010000000000000000000000000 v
1>
#16000000
0>
#16001000
0?
b100111 9"
#16050000
b1000000000000000000000000000000000000010 N
b100000000000000000000000000000000000001000000000000000000000000 v
1>
#16100000
0>
#16101000
b101 y
1@
b101000 9"
#16150000
b1000 y
0)
b101 z
b100000000000000000000000000000000000001 N
b10000000000000000000000000000000000000100000000000000000000000 v
1>
#16200000
1!
1'
0>
#16250000
1(
b1000 z
b1 y
0@
1>
#16300000
0>
#16350000
0(
b1 z
1,
b1 -
b1 M
b10000 .
b10000 L
1>
#16351000
b10 y
1@
1-"
b0 7"
b0 '"
b0 ("
#16400000
0>
#16450000
b1001 y
b11011110101011010000000000010000 ;
b11011110101011010000000000010000 E
0,
b10 z
b11011110101011010000000000010000 =
1:
1>
#16451000
b11 y
0@
0-"
#16500000
0>
#16550000
b100 y
1*
b11 z
0:
1>
#16600000
0>
#16650000
b1101111010101101000000000001000000 N
0*
1)
b100 z
b0 v
1>
#16700000
0!
0'
0>
#16701000
b0 9"
#16750000
b110111101010110100000000000100000 N
1>
#16800000
0>
#16801000
b1 9"
#16850000
b11011110101011010000000000010000 N
1>
#16900000
0>
#16901000
b10 9"
#16950000
b1101111010101101000000000001000 N
1>
#17000000
0>
#17001000
b11 9"
#17050000
b110111101010110100000000000100 N
1>
#17100000
0>
#17101000
b100 9"
#17150000
b11011110101011010000000000010 N
1>
#17200000
0>
#17201000
b101 9"
#17250000
b1101111010101101000000000001 N
1>
#17300000
1!
1'
0>
#17301000
b1000000 8"
b110 9"
#17350000
b110111101010110100000000000 N
1>
#17400000
0!
0'
0>
#17401000
b111 9"
#17450000
b11011110101011010000000000 N
1>
#17500000
0>
#17501000
b1000 9"
#17550000
b1101111010101101000000000 N
1>
#17600000
0>
#17601000
b1001 9"
#17650000
b110111101010110100000000 N
1>
#17700000
0>
#17701000
b1010 9"
#17750000
b11011110101011010000000 N
1>
#17800000
0>
#17801000
b1011 9"
#17850000
b1101111010101101000000 N
1>
#17900000
0>
#17901000
b1100 9"
#17950000
b110111101010110100000 N
1>
#18000000
0>
#18001000
b1101 9"
#18050000
b11011110101011010000 N
1>
#18100000
0>
#18101000
b1110 9"
#18150000
b1101111010101101000 N
1>
#18200000
0>
#18201000
b1111 9"
#18250000
b110111101010110100 N
1>
#18300000
0>
#18301000
b10000 9"
#18350000
b11011110101011010 N
1>
#18400000
0>
#18401000
b10001 9"
#18450000
b1101111010101101 N
1>
#18500000
1!
1'
0>
#18501000
b1000000000001000000 8"
b10010 9"
#18550000
b110111101010110 N
1>
#18600000
0!
0'
0>
#18601000
b10011 9"
#18650000
b11011110101011 N
1>
#18700000
1!
1'
0>
#18701000
b101000000000001000000 8"
b10100 9"
#18750000
b1101111010101 N
1>
#18800000
0>
#18801000
b1101000000000001000000 8"
b10101 9"
#18850000
b110111101010 N
1>
#18900000
0!
0'
0>
#18901000
b10110 9"
#18950000
b11011110101 N
1>
#19000000
1!
1'
0>
#19001000
b101101000000000001000000 8"
b10111 9"
#19050000
b1101111010 N
1>
#19100000
0!
0'
0>
#19101000
b11000 9"
#19150000
b110111101 N
1>
#19200000
1!
1'
0>
#19201000
b10101101000000000001000000 8"
b11001 9"
#19250000
b11011110 N
1>
#19300000
0!
0'
0>
#19301000
b11010 9"
#19350000
b1101111 N
1>
#19400000
1!
1'
0>
#19401000
b1010101101000000000001000000 8"
b11011 9"
#19450000
b110111 N
1>
#19500000
0>
#19501000
b11010101101000000000001000000 8"
b11100 9"
#19550000
b11011 N
1>
#19600000
0>
#19601000
b111010101101000000000001000000 8"
b11101 9"
#19650000
b1101 N
1>
#19700000
0>
#19701000
b1111010101101000000000001000000 8"
b11110 9"
#19750000
b110 N
1>
#19800000
0!
0'
0>
#19801000
b11111 9"
#19850000
b11 N
1>
#19900000
1!
1'
0>
#19901000
b101111010101101000000000001000000 8"
b100000 9"
#19950000
b1 N
1>
#20000000
0>
#20001000
b1101111010101101000000000001000000 8"
b100001 9"
#20050000
b0 N
1>
#20100000
0!
0'
0>
#20101000
b100010 9"
#20150000
1>
#20200000
0>
#20201000
b100011 9"
#20250000
1>
#20300000
0>
#20301000
b100100 9"
#20350000
1>
#20400000
0>
#20401000
b100101 9"
#20450000
1>
#20500000
0>
#20501000
b100110 9"
#20550000
1>
#20600000
0>
#20601000
b100111 9"
#20650000
1>
#20700000
0>
#20701000
b101 y
1@
b101000 9"
#20750000
b1000 y
0)
b101 z
1>
#20800000
0>
#20850000
1(
b1000 z
b1 y
0@
1>
#20900000
0>
#20950000
0(
b1 z
1>
#20951000
b10 y
1@
1-"
b11001010111111101011101010111110 *"
b100000 )"
b100 D
b11011110101011010000000000010000 9
b11011110101011010000000000010000 &"
b1101111010101101000000000001000000 ("
#21000000
0>
#21050000
b1001 y
b10 z
1>
#21100000
0>
#21150000
b0 y
b1001 z
1>
#21151000
b1010 y
0@
0-"
#21200000
0>
#21250000
b1011 y
1&
b1010 z
1>
#21300000
0>
#21350000
0&
1%
b1011 z
b1 x
1>
#21351000
1?
b0 >"
#21400000
1"
0>
#21450000
b10000 x
1>
#21451000
0?
b1 >"
#21500000
0"
0>
#21550000
b1000 x
1>
#21551000
b10 >"
#21600000
0>
#21650000
b100 x
1>
#21651000
b11 >"
#21700000
0>
#21750000
b10 x
1>
#21751000
b1100 y
1@
1-"
1?
b100 >"
#21800000
0>
#21850000
b1111 y
b10001 x
0%
b1100 z
1>
#21900000
0>
#21950000
b10 y
1$
b1111 z
1>
#21951000
b1 y
0@
0-"
#22000000
0>
#22050000
0$
b1 z
1>
#22051000
b10 y
1@
1-"
b1000001100101011111110101110101011111010 7"
b1000001100101011111110101110101011111010 +"
#22100000
0>
#22150000
b1001 y
b10 z
1>
#22151000
b11 y
0@
0-"
#22200000
0>
#22250000
b100 y
1*
b11 z
1>
#22300000
0>
#22350000
0*
1)
b100 z
b1101111010101101000000000001000000 N
1>
#22400000
0>
#22401000
0?
b0 9"
b0 8"
#22450000
b110111101010110100000000000100000 N
1>
#22500000
0>
#22501000
1?
b1 9"
